<?xml version="1.0" encoding="UTF-8" standalone="no"?>
<!-- Created with Inkscape (http://www.inkscape.org/) -->
<svg
   xmlns:xml="http://www.w3.org/XML/1998/namespace"
   xmlns:dc="http://purl.org/dc/elements/1.1/"
   xmlns:cc="http://web.resource.org/cc/"
   xmlns:rdf="http://www.w3.org/1999/02/22-rdf-syntax-ns#"
   xmlns:svg="http://www.w3.org/2000/svg"
   xmlns="http://www.w3.org/2000/svg"
   xmlns:sodipodi="http://sodipodi.sourceforge.net/DTD/sodipodi-0.dtd"
   xmlns:inkscape="http://www.inkscape.org/namespaces/inkscape"
   sodipodi:docname="shapes-f21.svg"
   sodipodi:docbase="/home/aaron/notes/inkdoc/shapes"
   inkscape:version="0.41+cvs"
   sodipodi:version="0.32"
   id="svg2970"
   height="1052.3622047"
   width="744.09448819">
  <defs
     id="defs3" />
  <sodipodi:namedview
     inkscape:window-y="21"
     inkscape:window-x="0"
     inkscape:window-height="513"
     inkscape:window-width="753"
     inkscape:current-layer="layer1"
     inkscape:document-units="px"
     inkscape:cy="989.39497"
     inkscape:cx="183.38260"
     inkscape:zoom="1.4000000"
     inkscape:pageshadow="2"
     inkscape:pageopacity="0.0"
     borderopacity="1.0"
     bordercolor="#666666"
     pagecolor="#ffffff"
     id="base" />
  <metadata
     id="metadata4">
    <rdf:RDF
       id="RDF5">
      <cc:Work
         id="Work6"
         rdf:about="">
        <dc:format
           id="format7">image/svg+xml</dc:format>
        <dc:type
           rdf:resource="http://purl.org/dc/dcmitype/StillImage"
           id="type9" />
      </cc:Work>
    </rdf:RDF>
  </metadata>
  <g
     id="layer1"
     inkscape:groupmode="layer"
     inkscape:label="Layer 1">
    <text
       sodipodi:insensitive="true"
       sodipodi:linespacing="120.00000%"
       id="text2996"
       y="-2.4563127"
       x="45.595207"
       style="font-size:5.3650379;font-style:normal;font-variant:normal;font-weight:normal;font-stretch:normal;line-height:120.00000%;writing-mode:lr-tb;text-anchor:start;fill:#000000;fill-opacity:1.0000000;stroke:none;stroke-width:1.0000000pt;stroke-linecap:butt;stroke-linejoin:miter;stroke-opacity:1.0000000;font-family:sans-serif"
       xml:space="preserve"><tspan
         y="-2.4563127"
         x="45.595207"
         id="tspan2985"
         sodipodi:role="line" /><tspan
         id="tspan2987" /><tspan
         y="3.9817331"
         x="45.595207"
         id="tspan2989"
         sodipodi:role="line">0.2</tspan></text>
    <text
       sodipodi:insensitive="true"
       sodipodi:linespacing="120.00000%"
       id="text3053"
       y="-2.4563127"
       x="105.28775"
       style="font-size:5.3650379;font-style:normal;font-variant:normal;font-weight:normal;font-stretch:normal;line-height:120.00000%;writing-mode:lr-tb;text-anchor:start;fill:#000000;fill-opacity:1.0000000;stroke:none;stroke-width:1.0000000pt;stroke-linecap:butt;stroke-linejoin:miter;stroke-opacity:1.0000000;font-family:sans-serif"
       xml:space="preserve"><tspan
         y="-2.4563127"
         x="105.28775"
         id="tspan2978"
         sodipodi:role="line" /><tspan
         id="tspan2980" /><tspan
         y="3.9817331"
         x="105.28775"
         id="tspan2982"
         sodipodi:role="line">0.5</tspan></text>
    <text
       sodipodi:insensitive="true"
       sodipodi:linespacing="120.00000%"
       id="text2982"
       y="-2.4563127"
       x="285.30881"
       style="font-size:5.3650379;font-style:normal;font-variant:normal;font-weight:normal;font-stretch:normal;line-height:120.00000%;writing-mode:lr-tb;text-anchor:start;fill:#000000;fill-opacity:1.0000000;stroke:none;stroke-width:1.0000000pt;stroke-linecap:butt;stroke-linejoin:miter;stroke-opacity:1.0000000;font-family:sans-serif"
       xml:space="preserve"><tspan
         y="-2.4563127"
         x="285.30881"
         id="tspan2971"
         sodipodi:role="line" /><tspan
         id="tspan2973" /><tspan
         y="3.9817331"
         x="285.30881"
         id="tspan2975"
         sodipodi:role="line">6</tspan></text>
    <text
       sodipodi:insensitive="true"
       sodipodi:linespacing="120.00000%"
       id="text3039"
       y="-2.4563127"
       x="227.84541"
       style="font-size:5.3650379;font-style:normal;font-variant:normal;font-weight:normal;font-stretch:normal;line-height:120.00000%;writing-mode:lr-tb;text-anchor:start;fill:#000000;fill-opacity:1.0000000;stroke:none;stroke-width:1.0000000pt;stroke-linecap:butt;stroke-linejoin:miter;stroke-opacity:1.0000000;font-family:sans-serif"
       xml:space="preserve"><tspan
         y="-2.4563127"
         x="227.84541"
         id="tspan2964"
         sodipodi:role="line" /><tspan
         id="tspan2966" /><tspan
         y="3.9817331"
         x="227.84541"
         id="tspan2968"
         sodipodi:role="line">2</tspan></text>
    <text
       sodipodi:insensitive="true"
       sodipodi:linespacing="120.00000%"
       id="text2960"
       y="-2.4563127"
       x="167.37082"
       style="font-size:5.3650379;font-style:normal;font-variant:normal;font-weight:normal;font-stretch:normal;line-height:120.00000%;writing-mode:lr-tb;text-anchor:start;fill:#000000;fill-opacity:1.0000000;stroke:none;stroke-width:1.0000000pt;stroke-linecap:butt;stroke-linejoin:miter;stroke-opacity:1.0000000;font-family:sans-serif"
       xml:space="preserve"><tspan
         y="-2.4563127"
         x="167.37082"
         id="tspan2956"
         sodipodi:role="line" /><tspan
         id="tspan2958" /><tspan
         y="3.9817331"
         x="167.37082"
         id="tspan2960"
         sodipodi:role="line">1</tspan></text>
    <path
       transform="matrix(-1.000000,0.000000,0.000000,1.000000,308.1285,-6286.366)"
       d="M 138.38965,6322.4868 C 138.80692,6323.0591 137.82412,6323.3316 137.43852,6323.1804 C 136.39355,6322.7704 136.43670,6321.3565 137.00258,6320.5846 C 138.01480,6319.2038 140.05980,6319.3438 141.24304,6320.4062 C 142.97949,6321.9654 142.73280,6324.7146 141.16379,6326.2913 C 139.07253,6328.3929 135.59786,6328.0345 133.63399,6325.9545 C 131.16266,6323.3370 131.63503,6319.1279 134.22844,6316.7800 C 137.36941,6313.9365 142.31750,6314.5239 145.04757,6317.6321 C 148.26486,6321.2949 147.56164,6326.9847 143.93792,6330.0959 C 139.75420,6333.6879 133.32105,6332.8685 129.82947,6328.7286 C 125.86212,6324.0247 126.79790,6316.8470 131.45430,6312.9755 C 136.67809,6308.6323 144.60114,6309.6847 148.85209,6314.8579 C 153.57145,6320.6012 152.40235,6329.2702 146.71206,6333.9004 C 140.44953,6338.9962 131.03412,6337.7103 126.02495,6331.5028 C 120.55250,6324.7212 121.95531,6314.5590 128.68017,6309.1710 C 135.98072,6303.3217 146.88992,6304.8415 152.65661,6312.0838 C 158.88280,6319.9032 157.24604,6331.5596 149.48620,6337.7049 C 141.14809,6344.3081 128.74418,6342.5543 122.22042,6334.2769 C 115.24008,6325.4201 117.11093,6312.2686 125.90603,6305.3665 C 135.28139,6298.0089 149.18062,6299.9969 156.46114,6309.3097 C 164.19594,6319.2036 162.09090,6333.8506 152.26034,6341.5094 C 141.84793,6349.6216 126.45295,6347.3994 118.41590,6337.0510 C 109.92642,6326.1202 112.26573,6309.9772 123.13189,6301.5619 C 134.58120,6292.6951 151.47224,6295.1515 160.26566,6306.5355 C 169.50996,6318.5032 166.93634,6336.1424 155.03447,6345.3140"
       sodipodi:t0="0.0000000"
       sodipodi:argument="-36.758350"
       sodipodi:radius="28.251171"
       sodipodi:revolution="6.0000000"
       sodipodi:expansion="1.0000000"
       sodipodi:cy="6322.4868"
       sodipodi:cx="138.38965"
       id="path2948"
       style="stroke-opacity:1.0000000;stroke-dashoffset:0.0000000;stroke-miterlimit:4.0000000;marker-end:none;marker-mid:none;marker-start:none;marker:none;stroke-linejoin:miter;stroke-linecap:butt;stroke-width:1.0000000pt;stroke:#000000;fill-rule:evenodd;fill-opacity:0.75000000;fill:none;color:#000000"
       sodipodi:type="spiral" />
    <path
       transform="matrix(-1.000000,0.000000,0.000000,1.000000,368.3648,-6287.793)"
       d="M 138.38965,6322.4868 C 138.40248,6322.5044 138.35779,6322.5160 138.35002,6322.5157 C 138.26090,6322.5125 138.24972,6322.3903 138.27406,6322.3283 C 138.34739,6322.1414 138.59806,6322.1380 138.74632,6322.2267 C 139.05943,6322.4142 139.04756,6322.8541 138.85200,6323.1209 C 138.50766,6323.5906 137.81599,6323.5545 137.39889,6323.2092 C 136.74150,6322.6651 136.81138,6321.6593 137.34935,6321.0601 C 138.13624,6320.1838 139.51876,6320.2970 140.33154,6321.0709 C 141.45828,6322.1436 141.29186,6323.9652 140.23907,6325.0232 C 138.83746,6326.4317 136.51433,6326.2024 135.17958,6324.8275 C 133.45778,6323.0539 133.75969,6320.1668 135.49992,6318.5238 C 137.68869,6316.4572 141.20210,6316.8415 143.18493,6318.9902 C 145.62765,6321.6373 145.15121,6325.8395 142.55085,6328.1936 C 139.40235,6331.0440 134.44904,6330.4656 131.69210,6327.3705 C 128.40258,6323.6774 129.09261,6317.9105 132.72578,6314.7192 C 137.00664,6310.9591 143.64946,6311.7706 147.30650,6315.9849 C 151.56874,6320.8967 150.62605,6328.4779 145.78735,6332.6322 C 140.20148,6337.4280 131.61957,6336.3444 126.93645,6330.8381 C 121.57556,6324.5350 122.81000,6314.8899 129.02693,6309.6465 C 136.09048,6303.6891 146.86109,6305.0841 152.69624,6312.0549 C 159.28169,6319.9220 157.71642,6331.8806 149.94855,6338.3390 C 141.23465,6345.5840 128.02575,6343.8386 120.91262,6335.2305 C 112.97667,6325.6267 114.91187,6311.1050 124.40337,6303.3057 C 134.94032,6294.6473 150.83710,6296.7821 159.35416,6307.2002 C 168.76652,6318.7134 166.42232,6336.0477 155.03447,6345.3140"
       sodipodi:t0="0.0000000"
       sodipodi:argument="-36.758350"
       sodipodi:radius="28.251171"
       sodipodi:revolution="6.0000000"
       sodipodi:expansion="2.0000000"
       sodipodi:cy="6322.4868"
       sodipodi:cx="138.38965"
       id="path2949"
       style="stroke-opacity:1.0000000;stroke-dashoffset:0.0000000;stroke-miterlimit:4.0000000;marker-end:none;marker-mid:none;marker-start:none;marker:none;stroke-linejoin:miter;stroke-linecap:butt;stroke-width:1.0000000pt;stroke:#000000;fill-rule:evenodd;fill-opacity:0.75000000;fill:none;color:#000000"
       sodipodi:type="spiral" />
    <path
       transform="matrix(-1.000000,0.000000,0.000000,1.000000,428.6010,-6293.024)"
       d="M 138.38965,6322.4868 C 138.38965,6322.4868 138.38965,6322.4868 138.38965,6322.4868 C 138.38965,6322.4868 138.38964,6322.4868 138.38964,6322.4868 C 138.38964,6322.4868 138.38971,6322.4868 138.38974,6322.4868 C 138.38999,6322.4868 138.39004,6322.4871 138.39001,6322.4873 C 138.38983,6322.4883 138.38853,6322.4884 138.38778,6322.4882 C 138.38494,6322.4873 138.38468,6322.4835 138.38558,6322.4812 C 138.38835,6322.4742 138.39780,6322.4738 138.40370,6322.4766 C 138.41920,6322.4839 138.41964,6322.5049 138.41248,6322.5181 C 138.39575,6322.5491 138.35317,6322.5493 138.32617,6322.5331 C 138.26866,6322.4987 138.26950,6322.4183 138.30255,6322.3674 C 138.36793,6322.2667 138.51104,6322.2699 138.60126,6322.3325 C 138.76917,6322.4490 138.76116,6322.6915 138.64972,6322.8435 C 138.45264,6323.1123 138.05856,6323.0958 137.81309,6322.9072 C 137.39733,6322.5879 137.42812,6321.9698 137.73384,6321.5874 C 138.23274,6320.9634 139.17264,6321.0166 139.75025,6321.4947 C 140.66291,6322.2501 140.57572,6323.6415 139.85092,6324.4908 C 138.73768,6325.7954 136.72641,6325.6586 135.50643,6324.5892 C 133.67892,6322.9872 133.88624,6320.1403 135.42723,6318.4241 C 137.68474,6315.9099 141.63931,6316.2149 144.00925,6318.3892 C 147.41258,6321.5115 146.97493,6326.9128 143.96397,6330.1316 C 139.71715,6334.6715 132.45168,6334.0572 128.14493,6329.9569 C 122.16858,6324.2672 123.01475,6314.6284 128.51440,6308.9437 C 136.03393,6301.1711 148.66095,6302.3168 156.07245,6309.5931 C 166.06978,6319.4079 164.54168,6335.7597 155.03447,6345.3140"
       sodipodi:t0="0.0000000"
       sodipodi:argument="-36.758350"
       sodipodi:radius="28.251171"
       sodipodi:revolution="6.0000000"
       sodipodi:expansion="6.0000000"
       sodipodi:cy="6322.4868"
       sodipodi:cx="138.38965"
       id="path2950"
       style="stroke-opacity:1.0000000;stroke-dashoffset:0.0000000;stroke-miterlimit:4.0000000;marker-end:none;marker-mid:none;marker-start:none;marker:none;stroke-linejoin:miter;stroke-linecap:butt;stroke-width:1.0000000pt;stroke:#000000;fill-rule:evenodd;fill-opacity:0.75000000;fill:none;color:#000000"
       sodipodi:type="spiral" />
    <path
       transform="matrix(-1.000000,0.000000,0.000000,1.000000,247.8923,-6285.415)"
       d="M 138.38965,6322.4868 C 141.04511,6326.1286 136.32905,6327.7897 133.73008,6325.8844 C 130.44429,6323.4756 130.93208,6318.5629 133.58470,6315.8972 C 137.17568,6312.2884 143.16438,6312.9614 146.46026,6316.6020 C 150.46516,6321.0258 149.60691,6328.0094 145.18487,6331.8060 C 140.07318,6336.1947 132.20230,6335.1739 127.97053,6330.0841 C 123.22030,6324.3707 124.38518,6315.6967 130.06724,6311.0732 C 136.32280,6305.9831 145.73456,6307.2780 150.71771,6313.4976 C 156.12858,6320.2510 154.71453,6330.3483 147.99954,6335.6661 C 140.78316,6341.3810 130.04312,6339.8565 124.41094,6332.6796 C 118.40659,6325.0286 120.03444,6313.6816 127.64546,6307.7520 C 135.70752,6301.4710 147.63109,6303.1962 153.84370,6311.2182 C 160.39005,6319.6712 158.57241,6332.1449 150.15932,6338.6280 C 141.33290,6345.4297 128.33201,6343.5240 121.58933,6334.7371 C 114.54147,6325.5525 116.53136,6312.0448 125.67695,6305.0523 C 135.20626,6297.7664 149.20238,6299.8371 156.43609,6309.3279 C 163.95265,6319.1898 161.80401,6333.6581 151.98009,6341.1251 C 141.79650,6348.8655 126.87102,6346.6417 119.17774,6336.4955 C 111.21967,6326.0001 113.51628,6310.6309 123.97481,6302.7179 C 134.77298,6294.5479 150.57347,6296.9151 158.70025,6307.6770 C 167.07683,6318.7696 164.64112,6334.9900 153.58423,6343.3251 C 142.20470,6351.9033 125.57502,6349.4009 117.03681,6338.0566 C 108.26150,6326.3973 110.82885,6309.3681 122.45344,6300.6315 C 134.38597,6291.6634 151.80551,6294.2941 160.73617,6306.1924 C 169.89298,6318.3921 167.20036,6336.1934 155.03447,6345.3140"
       sodipodi:t0="0.0000000"
       sodipodi:argument="-36.758350"
       sodipodi:radius="28.251171"
       sodipodi:revolution="6.0000000"
       sodipodi:expansion="0.50000000"
       sodipodi:cy="6322.4868"
       sodipodi:cx="138.38965"
       id="path2952"
       style="stroke-opacity:1.0000000;stroke-dashoffset:0.0000000;stroke-miterlimit:4.0000000;marker-end:none;marker-mid:none;marker-start:none;marker:none;stroke-linejoin:miter;stroke-linecap:butt;stroke-width:1.0000000pt;stroke:#000000;fill-rule:evenodd;fill-opacity:0.75000000;fill:none;color:#000000"
       sodipodi:type="spiral" />
    <path
       transform="matrix(-1.000000,0.000000,0.000000,1.000000,187.6560,-6285.415)"
       d="M 138.38965,6322.4868 C 148.34880,6336.1451 133.40863,6338.8311 126.30012,6331.3021 C 120.12997,6324.7670 121.56269,6314.1708 128.26353,6308.5996 C 135.84973,6302.2922 147.39064,6303.8955 153.44995,6311.5053 C 160.00542,6319.7383 158.24638,6332.0312 150.02150,6338.4390 C 141.30295,6345.2315 128.39912,6343.3498 121.70937,6334.6495 C 114.70196,6325.5361 116.68366,6312.1165 125.77523,6305.1871 C 135.22419,6297.9852 149.09176,6300.0514 156.23105,6309.4774 C 163.60984,6319.2197 161.47041,6333.4844 151.75114,6340.8111 C 141.74745,6348.3522 127.12506,6346.1480 119.62857,6336.1668 C 111.93752,6325.9266 114.19998,6310.9783 124.41834,6303.3262 C 134.87496,6295.4957 150.12318,6297.8111 157.91900,6308.2466 C 165.87984,6318.9030 163.51584,6334.4293 152.87981,6342.3590 C 142.03764,6350.4423 126.25177,6348.0334 118.19678,6337.2108 C 109.99783,6326.1948 112.44870,6310.1654 123.44580,6301.9924 C 134.62526,6293.6840 150.88435,6296.1741 159.16879,6307.3353 C 167.58136,6318.6692 165.05427,6335.1457 153.73797,6343.5359 C 142.25768,6352.0477 125.57470,6349.4857 117.08379,6338.0224 C 108.47712,6326.4028 111.07230,6309.5230 122.67548,6300.9360 C 134.42798,6292.2385 151.49575,6294.8652 160.17477,6306.6018 C 168.95957,6318.4814 166.30272,6335.7293 154.43846,6344.4966 C 142.43690,6353.3653 125.01615,6350.6796 116.16406,6338.6930 C 107.21444,6326.5743 109.92775,6308.9873 122.03198,6300.0535 C 134.26348,6291.0258 152.01074,6293.7656 161.02331,6305.9831 C 170.12651,6318.3233 167.36106,6336.2253 155.03447,6345.3140"
       sodipodi:t0="0.0000000"
       sodipodi:argument="-36.758350"
       sodipodi:radius="28.251171"
       sodipodi:revolution="6.0000000"
       sodipodi:expansion="0.20000000"
       sodipodi:cy="6322.4868"
       sodipodi:cx="138.38965"
       id="path2953"
       style="stroke-opacity:1.0000000;stroke-dashoffset:0.0000000;stroke-miterlimit:4.0000000;marker-end:none;marker-mid:none;marker-start:none;marker:none;stroke-linejoin:miter;stroke-linecap:butt;stroke-width:1.0000000pt;stroke:#000000;fill-rule:evenodd;fill-opacity:0.75000000;fill:none;color:#000000"
       sodipodi:type="spiral" />
  </g>
</svg>
