<?xml version="1.0" encoding="UTF-8" standalone="no"?>
<!-- Created with Inkscape (http://www.inkscape.org/) -->
<svg
   xmlns:xml="http://www.w3.org/XML/1998/namespace"
   xmlns:dc="http://purl.org/dc/elements/1.1/"
   xmlns:cc="http://web.resource.org/cc/"
   xmlns:rdf="http://www.w3.org/1999/02/22-rdf-syntax-ns#"
   xmlns:svg="http://www.w3.org/2000/svg"
   xmlns="http://www.w3.org/2000/svg"
   xmlns:sodipodi="http://sodipodi.sourceforge.net/DTD/sodipodi-0.dtd"
   xmlns:inkscape="http://www.inkscape.org/namespaces/inkscape"
   sodipodi:docname="shapes-f04.svg"
   sodipodi:docbase="/home/aaron/notes/inkdoc/shapes"
   inkscape:version="0.41+cvs"
   sodipodi:version="0.32"
   id="svg3785"
   height="1052.3622047"
   width="744.09448819">
  <defs
     id="defs3" />
  <sodipodi:namedview
     inkscape:window-y="21"
     inkscape:window-x="0"
     inkscape:window-height="513"
     inkscape:window-width="753"
     inkscape:current-layer="layer1"
     inkscape:document-units="px"
     inkscape:cy="520.00000"
     inkscape:cx="375.00000"
     inkscape:zoom="0.35000000"
     inkscape:pageshadow="2"
     inkscape:pageopacity="0.0"
     borderopacity="1.0"
     bordercolor="#666666"
     pagecolor="#ffffff"
     id="base" />
  <metadata
     id="metadata4">
    <rdf:RDF
       id="RDF5">
      <cc:Work
         id="Work6"
         rdf:about="">
        <dc:format
           id="format7">image/svg+xml</dc:format>
        <dc:type
           rdf:resource="http://purl.org/dc/dcmitype/StillImage"
           id="type9" />
      </cc:Work>
    </rdf:RDF>
  </metadata>
  <g
     id="layer1"
     inkscape:groupmode="layer"
     inkscape:label="Layer 1">
    <text
       sodipodi:insensitive="true"
       sodipodi:linespacing="140.00000%"
       id="text3168"
       y="145.20508"
       x="37.091438"
       style="font-size:5.9588757;font-style:normal;font-variant:normal;font-weight:normal;font-stretch:normal;line-height:140.00000%;writing-mode:lr-tb;text-anchor:start;fill:#000000;fill-opacity:1.0000000;stroke:none;stroke-width:1.0000000pt;stroke-linecap:butt;stroke-linejoin:miter;stroke-opacity:1.0000000;font-family:sans-serif"
       xml:space="preserve"><tspan
         y="145.20508"
         x="37.091438"
         id="tspan3169"
         sodipodi:role="line">Scaling rounded rectangles </tspan><tspan
         y="153.54750"
         x="37.091438"
         id="tspan3171"
         sodipodi:role="line">with &quot;Scale rounded corners&quot; ON</tspan><tspan
         y="161.88993"
         x="37.091438"
         id="tspan3173"
         sodipodi:role="line" /></text>
    <rect
       rx="15.759716"
       ry="16.984438"
       y="0.40561035"
       x="62.141991"
       height="63.160480"
       width="196.67766"
       id="rect2217"
       style="font-size:12.000000;color:#000000;fill:#0000ff;fill-opacity:0.11036784;fill-rule:evenodd;stroke:#000000;stroke-width:0.62499982;stroke-linecap:butt;stroke-linejoin:miter;marker:none;marker-start:none;marker-mid:none;marker-end:none;stroke-miterlimit:4.0000000;stroke-dasharray:0.62499982 1.2499996 ;stroke-dashoffset:0.0000000;stroke-opacity:1.0000000" />
    <rect
       rx="15.759716"
       ry="32.930244"
       y="0.33053711"
       x="62.141991"
       height="122.45857"
       width="196.67766"
       id="rect2218"
       style="font-size:12.000000;color:#000000;fill:#0000ff;fill-opacity:0.11036784;fill-rule:evenodd;stroke:#000000;stroke-width:0.62499982;stroke-linecap:butt;stroke-linejoin:miter;marker:none;marker-start:none;marker-mid:none;marker-end:none;stroke-miterlimit:4.0000000;stroke-dasharray:0.62499984 1.2499996 ;stroke-dashoffset:0.0000000;stroke-opacity:1.0000000" />
    <rect
       rx="12.157460"
       ry="28.506227"
       y="0.35556152"
       x="107.18986"
       height="106.00687"
       width="151.72234"
       id="rect2216"
       style="font-size:12.000000;color:#000000;fill:#0000ff;fill-opacity:0.11036784;fill-rule:evenodd;stroke:#000000;stroke-width:0.62500000;stroke-linecap:butt;stroke-linejoin:miter;marker:none;marker-start:none;marker-mid:none;marker-end:none;stroke-miterlimit:4.0000000;stroke-dasharray:0.62500000 1.2500000 ;stroke-dashoffset:0.0000000;stroke-opacity:1.0000000" />
    <rect
       rx="6.6371536"
       ry="16.969770"
       y="0.31942871"
       x="176.34193"
       height="63.105938"
       width="82.830170"
       id="rect1589"
       style="font-size:12.000000;fill:#ff0004;fill-opacity:0.75000000;fill-rule:evenodd;stroke:#000000;stroke-width:0.62500000;stroke-miterlimit:4.0000000;stroke-dashoffset:0.0000000" />
    <rect
       rx="3.8556933"
       ry="40.030827"
       y="0.32016113"
       x="210.93765"
       height="148.86371"
       width="48.118172"
       id="rect2220"
       style="font-size:12.000000;color:#000000;fill:#0000ff;fill-opacity:0.11036784;fill-rule:evenodd;stroke:#000000;stroke-width:0.62500036;stroke-linecap:butt;stroke-linejoin:miter;marker:none;marker-start:none;marker-mid:none;marker-end:none;stroke-miterlimit:4.0000000;stroke-dasharray:0.62500035 1.2500006 ;stroke-dashoffset:0.0000000;stroke-opacity:1.0000000" />
    <rect
       rx="4.8443465"
       ry="14.801374"
       y="0.38217285"
       x="198.64392"
       height="55.042263"
       width="60.456345"
       id="rect2221"
       style="font-size:12.000000;color:#000000;fill:#0000ff;fill-opacity:0.11036784;fill-rule:evenodd;stroke:#000000;stroke-width:0.62500018;stroke-linecap:butt;stroke-linejoin:miter;marker:none;marker-start:none;marker-mid:none;marker-end:none;stroke-miterlimit:4.0000000;stroke-dasharray:0.62500014 1.2500003 ;stroke-dashoffset:0.0000000;stroke-opacity:1.0000000" />
    <rect
       rx="3.0812902"
       ry="7.8653026"
       y="0.31295899"
       x="220.76012"
       height="29.248909"
       width="38.453800"
       id="rect2222"
       style="font-size:12.000000;color:#000000;fill:#0000ff;fill-opacity:0.11036784;fill-rule:evenodd;stroke:#000000;stroke-width:0.62499976;stroke-linecap:butt;stroke-linejoin:miter;marker:none;marker-start:none;marker-mid:none;marker-end:none;stroke-miterlimit:4.0000000;stroke-dasharray:0.62499970 1.2499994 ;stroke-dashoffset:0.0000000;stroke-opacity:1.0000000" />
    <rect
       rx="18.206591"
       ry="11.526689"
       y="0.31247070"
       x="31.024124"
       height="42.864601"
       width="227.21411"
       id="rect1912"
       style="font-size:12.000000;color:#000000;fill:#0000ff;fill-opacity:0.11036784;fill-rule:evenodd;stroke:#000000;stroke-width:0.62500000;stroke-linecap:butt;stroke-linejoin:miter;marker:none;marker-start:none;marker-mid:none;marker-end:none;stroke-miterlimit:4.0000000;stroke-dasharray:0.62499996 1.2499999 ;stroke-dashoffset:0.0000000;stroke-opacity:1.0000000" />
  </g>
</svg>
