<?xml version="1.0" encoding="UTF-8" standalone="no"?>
<!-- Created with Inkscape (http://www.inkscape.org/) -->
<svg
   xmlns:dc="http://purl.org/dc/elements/1.1/"
   xmlns:cc="http://web.resource.org/cc/"
   xmlns:rdf="http://www.w3.org/1999/02/22-rdf-syntax-ns#"
   xmlns:svg="http://www.w3.org/2000/svg"
   xmlns="http://www.w3.org/2000/svg"
   xmlns:sodipodi="http://sodipodi.sourceforge.net/DTD/sodipodi-0.dtd"
   xmlns:inkscape="http://www.inkscape.org/namespaces/inkscape"
   width="744.09448819"
   height="1052.3622047"
   id="svg15699"
   sodipodi:version="0.32"
   inkscape:version="0.45+devel"
   sodipodi:docbase="C:\Documents and Settings\ryan\Desktop\tut"
   sodipodi:docname="interpolate-f13.svg"
   inkscape:output_extension="org.inkscape.output.svg.inkscape">
  <defs
     id="defs15701" />
  <sodipodi:namedview
     id="base"
     pagecolor="#ffffff"
     bordercolor="#666666"
     borderopacity="1.0"
     gridtolerance="10000"
     guidetolerance="10"
     objecttolerance="10"
     inkscape:pageopacity="0.0"
     inkscape:pageshadow="2"
     inkscape:zoom="1.4"
     inkscape:cx="119.59622"
     inkscape:cy="1025.9268"
     inkscape:document-units="px"
     inkscape:current-layer="layer1"
     inkscape:window-width="744"
     inkscape:window-height="664"
     inkscape:window-x="504"
     inkscape:window-y="184" />
  <metadata
     id="metadata15704">
    <rdf:RDF>
      <cc:Work
         rdf:about="">
        <dc:format>image/svg+xml</dc:format>
        <dc:type
           rdf:resource="http://purl.org/dc/dcmitype/StillImage" />
      </cc:Work>
    </rdf:RDF>
  </metadata>
  <g
     inkscape:label="Layer 1"
     inkscape:groupmode="layer"
     id="layer1">
    <g
       id="g2760"
       transform="translate(-24.034172,-18.39093)">
      <path
         d="M 271.63329,45.832103 L 260.97991,45.832103 L 255.65321,36.606003 L 260.97991,27.379903 L 271.63329,27.379903 L 276.95998,36.606003 L 271.63329,45.832103 z"
         id="path6644"
         style="fill:#00ff00;fill-opacity:1;stroke:#17a500;stroke-width:0.86884195;stroke-linejoin:round;stroke-miterlimit:4;stroke-opacity:1" />
      <path
         id="path6646"
         d="M 47.03267,47.010103 C 47.03267,47.010103 43.54251,43.735603 43.411671,43.735603 C 43.346251,43.735603 42.621951,48.565103 42.540178,48.565103 C 42.458401,48.565103 40.146671,44.399403 40.059444,44.399403 C 39.972217,44.399403 37.776333,48.792203 37.694557,48.792203 C 37.612782,48.792203 36.708131,44.142903 36.642711,44.142903 C 36.511872,44.142903 33.061713,47.669203 33.061713,47.669203 C 33.061713,47.669203 33.667032,42.915903 33.601611,42.802603 C 33.568903,42.746003 29.242726,44.994303 29.201839,44.923503 C 29.160952,44.852703 31.180005,40.528903 31.136393,40.453403 C 31.092779,40.377803 26.255807,41.178403 26.21492,41.107603 C 26.174033,41.036803 29.410369,37.567703 29.377658,37.511103 C 29.312239,37.397803 24.43913,36.674303 24.43913,36.674303 C 24.43913,36.674303 28.64854,34.374203 28.713961,34.260903 C 28.74667,34.204203 24.391944,32.029503 24.432831,31.958703 C 24.453275,31.923203 29.123717,31.058303 29.145183,31.021203 C 29.166649,30.984003 25.662183,27.583303 25.68399,27.545503 C 25.705797,27.507703 30.405334,28.118903 30.426799,28.081703 C 30.448266,28.044503 28.15491,23.719903 28.175354,23.684503 C 28.216241,23.613703 32.502657,25.610303 32.535369,25.553603 C 32.600787,25.440303 31.768267,20.571403 31.768267,20.571403 C 31.768267,20.571403 35.258426,23.845903 35.389265,23.845903 C 35.454686,23.845903 36.178985,19.016403 36.260759,19.016403 C 36.342533,19.016403 38.654266,23.182203 38.741493,23.182203 C 38.82872,23.182203 41.024604,18.789303 41.106378,18.789303 C 41.188155,18.789303 42.092805,23.438603 42.158226,23.438603 C 42.289065,23.438603 45.739221,19.912403 45.739221,19.912403 C 45.739221,19.912403 45.133905,24.665703 45.199323,24.779003 C 45.232035,24.835603 49.55821,22.587203 49.599097,22.658003 C 49.639984,22.728903 47.620929,27.052703 47.664544,27.128203 C 47.68635,27.166003 52.501515,26.327603 52.52298,26.364803 C 52.544447,26.402003 49.291075,29.841503 49.311518,29.876903 C 49.352405,29.947703 54.220062,30.661803 54.252772,30.718403 C 54.318192,30.831703 50.196008,33.131803 50.196008,33.131803 C 50.196008,33.131803 54.545283,35.316003 54.479863,35.429303 C 54.447154,35.486003 49.759673,36.380403 49.718786,36.451203 C 49.698343,36.486603 53.203491,39.886203 53.182024,39.923303 C 53.160558,39.960503 48.461021,39.349403 48.439215,39.387103 C 48.395603,39.462703 50.66647,43.826203 50.625583,43.897103 C 50.584696,43.967903 46.29828,41.971303 46.265568,42.027903 C 46.20015,42.141303 47.03267,47.010103 47.03267,47.010103 C 47.03267,47.010103 47.03267,47.010103 47.03267,47.010103"
         style="fill:#00ff00;fill-opacity:1;stroke:#17a500;stroke-width:0.79674554;stroke-linejoin:round;stroke-miterlimit:4;stroke-opacity:1" />
      <g
         transform="matrix(0.5218716,0,0,0.5218716,14.289464,-641.00452)"
         id="g6943">
        <path
           d="M 491.86242,1316.1094 C 491.86242,1316.1094 490.6285,1316.0911 488.7922,1316.0911 C 487.89476,1316.0911 486.84528,1316.1181 485.72028,1316.1181 C 484.75389,1316.1181 483.71668,1316.0948 482.67741,1316.0948 C 481.63785,1316.0948 480.57203,1316.1193 479.54745,1316.1193 C 478.50887,1316.1193 477.49595,1316.0934 476.56372,1316.0934 C 475.35555,1316.0934 474.25644,1316.1131 473.40374,1316.1131 C 472.18487,1316.1131 471.43133,1316.1033 471.43222,1316.0955 C 471.43281,1316.0904 471.23408,1315.7412 470.89133,1315.1475 C 470.52421,1314.5116 469.96857,1313.6037 469.34079,1312.5163 C 468.8768,1311.7127 468.37185,1310.7944 467.83053,1309.8568 C 467.32742,1308.9854 466.77607,1308.0817 466.25224,1307.1744 C 465.74577,1306.2972 465.25829,1305.4021 464.77327,1304.5621 C 464.21341,1303.5924 463.65428,1302.667 463.18077,1301.8469 C 462.53535,1300.729 462.02193,1299.7862 461.67183,1299.1785 C 461.38998,1298.6901 461.22566,1298.4092 461.2217,1298.4071 C 461.21459,1298.4034 461.61897,1297.6806 462.28063,1296.5345 C 462.69682,1295.8137 463.23676,1294.9188 463.80688,1293.9314 C 464.2862,1293.1012 464.7855,1292.1834 465.31948,1291.2585 C 465.80999,1290.409 466.33927,1289.5411 466.83588,1288.681 C 467.36519,1287.7642 467.87415,1286.8363 468.36541,1285.9854 C 468.90729,1285.0468 469.43565,1284.1843 469.87189,1283.4287 C 470.80691,1281.8092 471.42345,1280.7105 471.42293,1280.7074 C 471.42289,1280.7072 471.43549,1280.7071 471.46011,1280.7071 C 471.67855,1280.7071 472.86092,1280.7254 474.52969,1280.7254 C 475.42852,1280.7254 476.47759,1280.6984 477.60098,1280.6984 C 478.56797,1280.6984 479.60515,1280.7216 480.64384,1280.7216 C 481.68406,1280.7216 482.75005,1280.6971 483.77424,1280.6971 C 484.8139,1280.6971 485.82726,1280.7231 486.75904,1280.7231 C 487.96938,1280.7231 489.0686,1280.7034 489.91815,1280.7034 C 491.11551,1280.7034 491.85399,1280.7128 491.8531,1280.7206 C 491.85249,1280.7258 492.05856,1281.088 492.41293,1281.7018 C 492.78299,1282.3428 493.33806,1283.2498 493.96323,1284.3326 C 494.42783,1285.1373 494.93285,1286.0557 495.47382,1286.9927 C 495.97233,1287.8562 496.51837,1288.7507 497.03687,1289.6487 C 497.53955,1290.5194 498.02322,1291.4078 498.50485,1292.242 C 499.06446,1293.2113 499.62361,1294.1367 500.09756,1294.9576 C 500.70815,1296.0152 501.19882,1296.9178 501.55028,1297.5265 C 501.87153,1298.0829 502.06088,1298.4064 502.06532,1298.4087 C 502.07235,1298.4123 501.69316,1299.0895 501.06814,1300.172 C 500.65128,1300.894 500.10321,1301.803 499.52086,1302.8116 C 499.04279,1303.6397 498.5438,1304.5569 498.0094,1305.4825 C 497.51922,1306.3315 496.9897,1307.1997 496.4923,1308.0613 C 495.95525,1308.9915 495.4381,1309.9335 494.9392,1310.7976 C 494.39773,1311.7355 493.86924,1312.5982 493.43211,1313.3554 C 492.48665,1314.9929 491.86242,1316.1094 491.86242,1316.1094 C 491.86242,1316.1094 491.86242,1316.1094 491.86242,1316.1094"
           id="path6945"
           style="fill:#00ff00;fill-opacity:1;stroke:#17a500;stroke-width:1.66485786;stroke-linejoin:round;stroke-miterlimit:4;stroke-opacity:1" />
        <path
           d="M 483.07925,1316.1554 C 483.07925,1316.1554 481.7337,1316.0091 479.92986,1316.0091 C 479.04822,1316.0091 477.99181,1316.2249 476.88663,1316.2249 C 475.93682,1316.2249 474.83016,1316.0388 473.80875,1316.0388 C 472.78705,1316.0388 471.65691,1316.2351 470.6501,1316.2351 C 469.62957,1316.2351 468.6019,1316.0273 467.68618,1316.0273 C 466.49761,1316.0273 465.28568,1316.1849 464.45043,1316.1849 C 463.25651,1316.1849 462.52709,1316.1071 462.53426,1316.0446 C 462.53895,1316.0037 462.34738,1315.6315 462.01063,1315.0482 C 461.64974,1314.4232 460.9358,1313.622 460.31927,1312.5541 C 459.86317,1311.7641 459.44774,1310.695 458.91579,1309.7737 C 458.42127,1308.9171 457.6915,1308.0634 457.17678,1307.1718 C 456.67908,1306.3098 456.32851,1305.297 455.85212,1304.4719 C 455.30116,1303.5176 454.56235,1302.5829 454.09853,1301.7795 C 453.46633,1300.6845 453.12851,1299.6707 452.78814,1299.0711 C 452.51251,1298.5919 452.33003,1298.3053 452.29838,1298.2888 C 452.24147,1298.2592 452.56742,1297.5153 453.21657,1296.3909 C 453.62504,1295.6834 454.3371,1294.773 454.8964,1293.8043 C 455.36675,1292.9896 455.71839,1291.9573 456.24229,1291.0499 C 456.72362,1290.2162 457.42638,1289.3901 457.91367,1288.546 C 458.43298,1287.6466 458.84158,1286.568 459.32359,1285.7332 C 459.85599,1284.811 460.54164,1284.0445 460.97023,1283.3022 C 461.88852,1281.7116 462.46405,1280.4682 462.45984,1280.4434 C 462.45954,1280.4417 462.47175,1280.4408 462.49586,1280.4408 C 462.70983,1280.4408 464.00489,1280.5872 465.64463,1280.5872 C 466.52763,1280.5872 467.58363,1280.3713 468.68723,1280.3713 C 469.63764,1280.3713 470.74426,1280.5575 471.76511,1280.5575 C 472.78746,1280.5575 473.91775,1280.3612 474.92419,1280.3612 C 475.94577,1280.3612 476.97387,1280.569 477.88915,1280.569 C 479.07985,1280.569 480.29189,1280.4114 481.12405,1280.4114 C 482.2969,1280.4114 483.01182,1280.487 483.00467,1280.549 C 482.99984,1280.591 483.19844,1280.9772 483.54659,1281.5802 C 483.91036,1282.2103 484.62374,1283.0105 485.23772,1284.074 C 485.69441,1284.865 486.1099,1285.9342 486.64152,1286.855 C 487.13068,1287.7022 487.85439,1288.5455 488.36312,1289.4267 C 488.85636,1290.281 489.20253,1291.2861 489.6751,1292.1046 C 490.22486,1293.0569 490.96348,1293.9913 491.42901,1294.7976 C 492.02967,1295.838 492.34862,1296.8123 492.69289,1297.4086 C 493.00756,1297.9537 493.21861,1298.2834 493.25416,1298.3016 C 493.31042,1298.3304 493.00243,1299.027 492.38863,1300.0901 C 491.97902,1300.7996 491.25832,1301.725 490.68629,1302.7158 C 490.2172,1303.5282 489.8659,1304.56 489.34159,1305.4681 C 488.86061,1306.3012 488.15761,1307.1277 487.66953,1307.9731 C 487.14176,1308.8872 486.72427,1309.9811 486.23397,1310.8303 C 485.70198,1311.7518 485.01619,1312.5185 484.58673,1313.2624 C 483.65805,1314.8709 483.07925,1316.1554 483.07925,1316.1554 C 483.07925,1316.1554 483.07925,1316.1554 483.07925,1316.1554"
           id="path6947"
           style="fill:#00ff00;fill-opacity:1;stroke:#17a500;stroke-width:1.66485786;stroke-linejoin:round;stroke-miterlimit:4;stroke-opacity:1" />
        <path
           d="M 459.23922,1316.2805 C 459.23922,1316.2805 457.59068,1315.7866 455.87492,1315.7866 C 455.03618,1315.7866 453.96097,1316.515 452.90959,1316.515 C 452.00475,1316.515 450.70963,1315.8867 449.73667,1315.8867 C 448.76343,1315.8867 447.45875,1316.5493 446.50016,1316.5493 C 445.52862,1316.5493 444.46092,1315.848 443.59002,1315.848 C 442.45464,1315.848 440.93649,1316.3799 440.14862,1316.3799 C 439.02241,1316.3799 438.35844,1316.1174 438.38266,1315.9063 C 438.39846,1315.7685 438.22632,1315.3339 437.90586,1314.7788 C 437.56189,1314.183 436.41828,1313.6716 435.83227,1312.6566 C 435.39759,1311.9037 435.22515,1310.4254 434.71864,1309.5481 C 434.24742,1308.7319 433.03336,1308.0136 432.5434,1307.1649 C 432.06948,1306.3441 432.09051,1305.0117 431.63759,1304.2273 C 431.11077,1303.3148 429.88426,1302.3544 429.44674,1301.5966 C 428.8504,1300.5637 428.98921,1299.3575 428.67525,1298.7795 C 428.41653,1298.3253 428.18476,1298.0233 428.07792,1297.9677 C 427.88586,1297.8678 427.99893,1297.0667 428.61412,1296.0012 C 429.00165,1295.33 430.1809,1294.3772 430.71081,1293.4593 C 431.15681,1292.6868 431.10765,1291.3435 431.60421,1290.4834 C 432.0606,1289.6929 433.23425,1288.9801 433.69623,1288.1799 C 434.18843,1287.3274 434.32461,1285.84 434.78151,1285.0487 C 435.28815,1284.1711 436.40076,1283.665 436.8086,1282.9586 C 437.68145,1281.4468 438.14566,1279.8105 438.13144,1279.727 C 438.13045,1279.7212 438.14159,1279.7181 438.16433,1279.7181 C 438.36616,1279.7181 439.96708,1280.212 441.52804,1280.212 C 442.36806,1280.212 443.44289,1279.4836 444.49279,1279.4836 C 445.39818,1279.4836 446.69327,1280.1119 447.6657,1280.1119 C 448.63955,1280.1119 449.94438,1279.4493 450.90263,1279.4493 C 451.87516,1279.4493 452.94326,1280.1506 453.81374,1280.1506 C 454.95113,1280.1506 456.46938,1279.6187 457.25434,1279.6187 C 458.36067,1279.6187 459.01163,1279.8739 458.98751,1280.0834 C 458.97119,1280.2251 459.14954,1280.6764 459.48081,1281.2502 C 459.8275,1281.8507 460.97059,1282.3612 461.55418,1283.372 C 461.98942,1284.1259 462.16192,1285.6043 462.66812,1286.4811 C 463.13191,1287.2844 464.33788,1287.9888 464.82009,1288.824 C 465.28768,1289.6339 465.26065,1290.9558 465.70864,1291.7317 C 466.23167,1292.6377 467.4574,1293.5967 467.90008,1294.3634 C 468.47379,1295.3571 468.32666,1296.5262 468.6514,1297.0887 C 468.94822,1297.6028 469.21817,1297.9494 469.33814,1298.0109 C 469.52801,1298.1083 469.41331,1298.8573 468.82996,1299.8677 C 468.44003,1300.5431 467.25077,1301.5132 466.70674,1302.4555 C 466.26203,1303.2258 466.31159,1304.5684 465.81469,1305.4291 C 465.35865,1306.219 464.18478,1306.9322 463.72202,1307.7337 C 463.21944,1308.6042 463.07242,1310.1103 462.60549,1310.9191 C 462.09923,1311.7959 460.9865,1312.3022 460.57783,1313.0101 C 459.69471,1314.5397 459.23922,1316.2805 459.23922,1316.2805 C 459.23922,1316.2805 459.23922,1316.2805 459.23922,1316.2805"
           id="path6949"
           style="fill:#00ff00;fill-opacity:1;stroke:#17a500;stroke-width:1.66485786;stroke-linejoin:round;stroke-miterlimit:4;stroke-opacity:1" />
        <path
           d="M 412.8139,1316.524 C 412.8139,1316.524 410.57532,1315.3532 409.0311,1315.3532 C 408.27589,1315.3532 407.16407,1317.08 406.21745,1317.08 C 405.40021,1317.08 403.73807,1315.5905 402.85946,1315.5905 C 401.9806,1315.5905 400.33601,1317.1612 399.47131,1317.1612 C 398.59518,1317.1612 397.44952,1315.4988 396.66593,1315.4988 C 395.63413,1315.4988 393.51965,1316.7596 392.82402,1316.7596 C 391.82968,1316.7596 391.29319,1316.1374 391.35059,1315.6369 C 391.38805,1315.3103 391.25374,1314.7542 390.965,1314.2541 C 390.65397,1313.7154 388.67362,1313.7683 388.14706,1312.8563 C 387.75411,1312.1757 388.05486,1309.9003 387.59786,1309.1088 C 387.17203,1308.3712 385.01489,1307.9166 384.57312,1307.1514 C 384.14552,1306.4108 384.8902,1304.4562 384.48298,1303.7508 C 384.00316,1302.9198 381.82692,1301.9095 381.44063,1301.2405 C 380.91411,1300.3285 381.9811,1298.7474 381.71859,1298.2117 C 381.49278,1297.8061 381.16501,1297.4743 380.91178,1297.3425 C 380.45652,1297.1055 380.15503,1296.1932 380.70409,1295.2422 C 381.05082,1294.6416 383.13987,1293.6063 383.61255,1292.7876 C 384.01115,1292.0972 383.18147,1290.1482 383.62478,1289.3803 C 384.03263,1288.6739 386.12325,1288.1816 386.53596,1287.4668 C 386.97534,1286.7058 386.58104,1284.4223 386.98902,1283.7157 C 387.44552,1282.925 389.38957,1282.9261 389.75699,1282.2897 C 390.54136,1280.9311 390.7888,1278.5297 390.75509,1278.3319 C 390.75275,1278.3181 390.76179,1278.3108 390.78187,1278.3108 C 390.96007,1278.3108 393.1566,1279.4816 394.56415,1279.4816 C 395.32049,1279.4816 396.43198,1277.7548 397.37729,1277.7548 C 398.19502,1277.7548 399.85713,1279.2443 400.73528,1279.2443 C 401.61467,1279.2443 403.25939,1277.6736 404.12379,1277.6736 C 405.00079,1277.6736 406.1468,1279.3359 406.93004,1279.3359 C 407.9636,1279.3359 410.07817,1278.0752 410.77122,1278.0752 C 411.74802,1278.0752 412.27442,1278.68 412.21724,1279.1766 C 412.17857,1279.5124 412.31746,1280.0906 412.61587,1280.6075 C 412.9293,1281.1504 414.90918,1281.0967 415.43362,1282.005 C 415.82707,1282.6865 415.52637,1284.9619 415.98308,1285.753 C 416.39746,1286.4707 418.54257,1286.9045 418.97314,1287.6503 C 419.39079,1288.3737 418.63699,1290.3125 419.03711,1291.0056 C 419.50807,1291.8213 421.68241,1292.8283 422.0806,1293.5179 C 422.6018,1294.4207 421.54704,1295.9689 421.83376,1296.4655 C 422.09582,1296.9194 422.48047,1297.2989 422.76485,1297.4448 C 423.21491,1297.6756 423.47658,1298.527 422.95254,1299.4347 C 422.60093,1300.0437 420.49923,1301.1009 420.00972,1301.9487 C 419.6125,1302.6367 420.44268,1304.5849 419.99914,1305.3532 C 419.59169,1306.0589 417.50086,1306.5515 417.08739,1307.2676 C 416.63387,1308.0531 417.01357,1310.3619 416.59213,1311.0919 C 416.13598,1311.882 414.19182,1311.881 413.82366,1312.5187 C 413.02927,1313.8946 412.8139,1316.524 412.8139,1316.524 C 412.8139,1316.524 412.8139,1316.524 412.8139,1316.524"
           id="path6951"
           style="fill:#00ff00;fill-opacity:1;stroke:#17a500;stroke-width:1.66485786;stroke-linejoin:round;stroke-miterlimit:4;stroke-opacity:1" />
        <path
           d="M 336.27486,1316.9254 C 336.27486,1316.9254 333.06352,1314.6388 331.80211,1314.6388 C 331.1846,1314.6388 330.01243,1318.0113 329.23851,1318.0113 C 328.56569,1318.0113 326.29846,1315.1023 325.5754,1315.1023 C 324.85216,1315.1023 322.64717,1318.1699 321.93726,1318.1699 C 321.21843,1318.1699 319.94425,1314.9232 319.30457,1314.9232 C 318.44355,1314.9232 315.34593,1317.3857 314.8024,1317.3857 C 314.02546,1317.3857 313.69911,1316.1703 313.81123,1315.1929 C 313.8844,1314.555 313.81245,1313.7986 313.57602,1313.3891 C 313.31928,1312.9444 309.95947,1313.9277 309.5309,1313.1854 C 309.20673,1312.624 310.28761,1309.0346 309.91226,1308.3845 C 309.56126,1307.7766 305.84931,1307.7568 305.48699,1307.1292 C 305.13575,1306.5209 307.07348,1303.5402 306.74159,1302.9653 C 306.33927,1302.2685 302.59725,1301.1761 302.29542,1300.6533 C 301.88401,1299.9407 304.48125,1297.7417 304.30354,1297.2756 C 304.132,1296.9502 303.64597,1296.5691 303.15138,1296.3117 C 302.2622,1295.8489 301.27725,1294.753 301.71727,1293.9908 C 301.99676,1293.5067 305.58575,1292.3354 305.96408,1291.6802 C 306.28452,1291.1251 304.16804,1288.1775 304.52356,1287.5617 C 304.85138,1286.9939 308.45378,1286.8653 308.78525,1286.2912 C 309.13756,1285.681 307.86866,1282.085 308.19601,1281.518 C 308.56983,1280.8705 311.88463,1281.7079 312.18542,1281.1869 C 312.82393,1280.081 312.71398,1276.4182 312.64814,1276.0318 C 312.64357,1276.005 312.64916,1275.9906 312.66485,1275.9906 C 312.80409,1275.9906 315.98257,1278.2772 317.13719,1278.2772 C 317.75558,1278.2772 318.9275,1274.9047 319.70039,1274.9047 C 320.37359,1274.9047 322.6408,1277.8138 323.36349,1277.8138 C 324.08716,1277.8138 326.29225,1274.7462 327.00191,1274.7462 C 327.72143,1274.7462 328.99589,1277.9928 329.63528,1277.9928 C 330.49769,1277.9928 333.59537,1275.5304 334.1369,1275.5304 C 334.90013,1275.5304 335.22119,1276.7117 335.10951,1277.6816 C 335.03398,1278.3376 335.10782,1279.1249 335.35204,1279.5479 C 335.61065,1279.9959 338.9701,1279.0119 339.39701,1279.7513 C 339.72157,1280.3135 338.64073,1283.9029 339.01586,1284.5526 C 339.34877,1285.1292 343.0422,1285.117 343.38762,1285.7152 C 343.72295,1286.2961 341.77096,1289.252 342.09216,1289.8084 C 342.47728,1290.4754 346.21553,1291.5614 346.54036,1292.124 C 346.97502,1292.8768 344.42388,1295.0502 344.64791,1295.4382 C 344.85268,1295.7929 345.42642,1296.2266 345.98185,1296.5114 C 346.86087,1296.9623 347.74307,1297.9824 347.31681,1298.7207 C 347.02837,1299.2203 343.42236,1300.4211 343.02275,1301.1132 C 342.70381,1301.6657 344.82096,1304.6121 344.4654,1305.2279 C 344.13804,1305.795 340.53548,1305.9238 340.20327,1306.4992 C 339.83064,1307.1446 341.0787,1310.7767 340.73228,1311.3768 C 340.35872,1312.0238 337.04384,1311.1866 336.74247,1311.7085 C 336.09436,1312.8311 336.27486,1316.9254 336.27486,1316.9254 C 336.27486,1316.9254 336.27486,1316.9254 336.27486,1316.9254"
           id="path6953"
           style="fill:#00ff00;fill-opacity:1;stroke:#17a500;stroke-width:1.66485786;stroke-linejoin:round;stroke-miterlimit:4;stroke-opacity:1" />
        <path
           d="M 222.09366,1317.5243 C 222.09366,1317.5243 217.43115,1313.573 216.59164,1313.573 C 216.17957,1313.573 214.91735,1319.4007 214.40108,1319.4007 C 213.94371,1319.4007 210.7738,1314.3739 210.2828,1314.3739 C 209.79169,1314.3739 206.7507,1319.6747 206.27172,1319.6747 C 205.78754,1319.6747 204.32164,1314.0645 203.89665,1314.0645 C 203.29039,1314.0645 198.72613,1318.3196 198.40948,1318.3196 C 197.95686,1318.3196 197.94402,1316.2195 198.13776,1314.5305 C 198.2642,1313.4283 198.28528,1312.3731 198.12688,1312.0987 C 197.95115,1311.7943 192.53344,1314.1656 192.25106,1313.6765 C 192.02951,1313.2928 194.27418,1307.7432 194.02063,1307.3041 C 193.78126,1306.8895 187.74983,1307.5183 187.50605,1307.0961 C 187.26872,1306.685 190.98624,1302.1738 190.76673,1301.7935 C 190.48002,1301.297 184.40217,1300.0819 184.22633,1299.7773 C 183.98666,1299.3622 188.86673,1296.2413 188.81552,1295.8792 C 188.72494,1295.6734 188.00282,1295.2187 187.14817,1294.7739 C 185.61166,1293.9742 183.60712,1292.6045 183.88448,1292.1241 C 184.06366,1291.8137 189.89025,1290.4395 190.12782,1290.0281 C 190.33167,1289.675 186.29555,1285.2377 186.52011,1284.8487 C 186.72852,1284.4877 192.58621,1284.9016 192.79648,1284.5375 C 193.0189,1284.1522 190.44528,1278.5981 190.65234,1278.2395 C 190.90282,1277.8057 196.26251,1279.8905 196.4639,1279.5417 C 196.88481,1278.8127 196.2417,1273.2682 196.12793,1272.6005 C 196.12003,1272.5541 196.12048,1272.5294 196.12962,1272.5294 C 196.21073,1272.5294 200.85411,1276.4806 201.63141,1276.4806 C 202.04399,1276.4806 203.30606,1270.6529 203.82173,1270.6529 C 204.27932,1270.6529 207.44923,1275.6797 207.94001,1275.6797 C 208.43137,1275.6797 211.47242,1270.3789 211.95125,1270.3789 C 212.43583,1270.3789 213.90189,1275.9892 214.32672,1275.9892 C 214.93378,1275.9892 219.49808,1271.7341 219.81356,1271.7341 C 220.25819,1271.7341 220.27293,1273.7753 220.07994,1275.4514 C 219.94942,1276.5849 219.92623,1277.6842 220.08961,1277.9672 C 220.26644,1278.2735 225.68394,1275.9018 225.96535,1276.3892 C 226.18713,1276.7734 223.94248,1282.3229 224.19591,1282.7619 C 224.40729,1283.128 230.41049,1282.4503 230.62889,1282.8286 C 230.84141,1283.1967 227.10196,1287.6699 227.30543,1288.0224 C 227.5625,1288.4676 233.63379,1289.6714 233.84919,1290.0445 C 234.15474,1290.5737 229.3713,1293.6796 229.50181,1293.9056 C 229.6211,1294.1123 230.47693,1294.6269 231.43672,1295.1191 C 232.95567,1295.8981 234.76356,1297.17 234.48317,1297.6556 C 234.28897,1297.992 228.43883,1299.4069 228.17333,1299.8668 C 227.97117,1300.217 232.00823,1304.6527 231.78393,1305.0412 C 231.57604,1305.4013 225.71827,1304.9875 225.50729,1305.3528 C 225.25533,1305.7893 227.79881,1311.3956 227.56429,1311.8018 C 227.31397,1312.2353 221.95423,1310.1506 221.7525,1310.5 C 221.3226,1311.2446 222.09366,1317.5243 222.09366,1317.5243 C 222.09366,1317.5243 222.09366,1317.5243 222.09366,1317.5243"
           id="path6955"
           style="fill:#00ff00;fill-opacity:1;stroke:#17a500;stroke-width:1.66485786;stroke-linejoin:round;stroke-miterlimit:4;stroke-opacity:1" />
      </g>
    </g>
  </g>
</svg>
