<?xml version="1.0" encoding="UTF-8" standalone="no"?>
<!-- Created with Inkscape (http://www.inkscape.org/) -->
<svg
   xmlns:dc="http://purl.org/dc/elements/1.1/"
   xmlns:cc="http://web.resource.org/cc/"
   xmlns:rdf="http://www.w3.org/1999/02/22-rdf-syntax-ns#"
   xmlns:svg="http://www.w3.org/2000/svg"
   xmlns="http://www.w3.org/2000/svg"
   xmlns:sodipodi="http://sodipodi.sourceforge.net/DTD/sodipodi-0.dtd"
   xmlns:inkscape="http://www.inkscape.org/namespaces/inkscape"
   width="744.09448819"
   height="1052.3622047"
   id="svg15699"
   sodipodi:version="0.32"
   inkscape:version="0.45+devel"
   sodipodi:docbase="C:\Documents and Settings\ryan\Desktop\tut"
   sodipodi:docname="interpolate-f07.svg"
   inkscape:output_extension="org.inkscape.output.svg.inkscape">
  <defs
     id="defs15701" />
  <sodipodi:namedview
     id="base"
     pagecolor="#ffffff"
     bordercolor="#666666"
     borderopacity="1.0"
     gridtolerance="10000"
     guidetolerance="10"
     objecttolerance="10"
     inkscape:pageopacity="0.0"
     inkscape:pageshadow="2"
     inkscape:zoom="1.4"
     inkscape:cx="119.34711"
     inkscape:cy="1124.7759"
     inkscape:document-units="px"
     inkscape:current-layer="layer1"
     inkscape:window-width="744"
     inkscape:window-height="664"
     inkscape:window-x="504"
     inkscape:window-y="184" />
  <metadata
     id="metadata15704">
    <rdf:RDF>
      <cc:Work
         rdf:about="">
        <dc:format>image/svg+xml</dc:format>
        <dc:type
           rdf:resource="http://purl.org/dc/dcmitype/StillImage" />
      </cc:Work>
    </rdf:RDF>
  </metadata>
  <g
     inkscape:label="Layer 1"
     inkscape:groupmode="layer"
     id="layer1">
    <g
       id="g2958"
       transform="translate(-2.3727341e-7,0.318569)">
      <g
         id="g2900">
        <path
           style="fill:#00ccff;fill-opacity:1;stroke:#2e75ac;stroke-width:4.04815769;stroke-linejoin:round;stroke-miterlimit:4;stroke-opacity:1"
           id="path2614"
           d="M 20.355957,2.0241537 C 30.475047,2.0241537 38.621462,10.170552 38.621462,20.289652 C 38.621462,30.408753 30.475047,38.555153 20.355957,38.555153 C 10.236868,38.555153 2.0904529,30.408753 2.0904529,20.289652 C 2.0904529,10.170552 10.236868,2.0241537 20.355957,2.0241537 z"
           inkscape:export-xdpi="88.379997"
           inkscape:export-filename="C:\Documents and Settings\ryan\Desktop\interpolate1.png"
           inkscape:export-ydpi="88.379997" />
        <path
           style="fill:#00ccff;fill-opacity:1;stroke:#2e75ac;stroke-width:4.04815769;stroke-linejoin:round;stroke-miterlimit:4;stroke-opacity:1"
           id="path2616"
           sodipodi:nodetypes="cccc"
           inkscape:export-xdpi="88.379997"
           d="M 227.24076,9.3303527 L 245.50627,38.555153 L 263.77177,9.3303527 L 227.24076,9.3303527 z"
           inkscape:export-filename="C:\Documents and Settings\ryan\Desktop\interpolate1.png"
           inkscape:export-ydpi="88.379997" />
        <rect
           style="opacity:1;fill:#00ff00;fill-opacity:1;stroke:none;stroke-width:1.20000005;stroke-linejoin:round;stroke-miterlimit:4;stroke-dasharray:none;stroke-opacity:1"
           id="rect2618"
           width="2.9821236"
           transform="matrix(-0.7129787,0.7011857,-0.7011857,-0.7129787,0,0)"
           y="-16.998554"
           x="-14.706497"
           height="2.9821236" />
        <rect
           style="opacity:1;fill:#cccccc;fill-opacity:1;stroke:none;stroke-width:1.20000005;stroke-linejoin:round;stroke-miterlimit:4;stroke-dasharray:none;stroke-opacity:1"
           id="rect2620"
           width="2.9821236"
           transform="matrix(-0.7129787,0.7011857,-0.7011857,-0.7129787,0,0)"
           y="-44.027813"
           x="-14.372758"
           height="2.9821236" />
        <rect
           style="opacity:1;fill:#cccccc;fill-opacity:1;stroke:none;stroke-width:1.20000005;stroke-linejoin:round;stroke-miterlimit:4;stroke-dasharray:none;stroke-opacity:1"
           id="rect2622"
           width="2.9821236"
           transform="matrix(-0.7129787,0.7011857,-0.7011857,-0.7129787,0,0)"
           y="-43.678501"
           x="10.792708"
           height="2.9821236" />
        <rect
           style="opacity:1;fill:#cccccc;fill-opacity:1;stroke:none;stroke-width:1.20000005;stroke-linejoin:round;stroke-miterlimit:4;stroke-dasharray:none;stroke-opacity:1"
           id="rect2624"
           width="2.9821236"
           transform="matrix(-0.7129787,0.7011857,-0.7011857,-0.7129787,0,0)"
           y="-17.776814"
           x="11.567855"
           height="2.9821236" />
        <rect
           style="opacity:1;fill:#cccccc;fill-opacity:1;stroke:none;stroke-width:1.20000005;stroke-linejoin:round;stroke-miterlimit:4;stroke-dasharray:none;stroke-opacity:1"
           id="rect2626"
           width="2.9821236"
           transform="matrix(0.7129787,0.7011857,0.7011857,-0.7129787,0,0)"
           y="175.46033"
           x="192.26653"
           height="2.9821236" />
        <rect
           style="opacity:1;fill:#00ff00;fill-opacity:1;stroke:none;stroke-width:1.20000005;stroke-linejoin:round;stroke-miterlimit:4;stroke-dasharray:none;stroke-opacity:1"
           id="rect2628"
           width="2.9821236"
           transform="matrix(0.7129787,0.7011857,0.7011857,-0.7129787,0,0)"
           y="151.61829"
           x="168.02348"
           height="2.9821236" />
        <rect
           style="opacity:1;fill:#cccccc;fill-opacity:1;stroke:none;stroke-width:1.20000005;stroke-linejoin:round;stroke-miterlimit:4;stroke-dasharray:none;stroke-opacity:1"
           id="rect2630"
           width="2.9821236"
           transform="matrix(0.7129787,0.7011857,0.7011857,-0.7129787,0,0)"
           y="143.71111"
           x="199.83006"
           height="2.9821236" />
      </g>
    </g>
  </g>
</svg>
