<?xml version="1.0" encoding="UTF-8" standalone="no"?>
<!-- Created with Inkscape (http://www.inkscape.org/) -->
<svg
   xmlns:dc="http://purl.org/dc/elements/1.1/"
   xmlns:cc="http://web.resource.org/cc/"
   xmlns:rdf="http://www.w3.org/1999/02/22-rdf-syntax-ns#"
   xmlns:svg="http://www.w3.org/2000/svg"
   xmlns="http://www.w3.org/2000/svg"
   xmlns:sodipodi="http://sodipodi.sourceforge.net/DTD/sodipodi-0.dtd"
   xmlns:inkscape="http://www.inkscape.org/namespaces/inkscape"
   width="744.09448819"
   height="1052.3622047"
   id="svg15699"
   sodipodi:version="0.32"
   inkscape:version="0.45+devel"
   sodipodi:docbase="C:\Documents and Settings\ryan\Desktop\tut"
   sodipodi:docname="interpolate-f16.svg"
   inkscape:output_extension="org.inkscape.output.svg.inkscape">
  <defs
     id="defs15701" />
  <sodipodi:namedview
     id="base"
     pagecolor="#ffffff"
     bordercolor="#666666"
     borderopacity="1.0"
     gridtolerance="10000"
     guidetolerance="10"
     objecttolerance="10"
     inkscape:pageopacity="0.0"
     inkscape:pageshadow="2"
     inkscape:zoom="1.4"
     inkscape:cx="119.59622"
     inkscape:cy="1025.9268"
     inkscape:document-units="px"
     inkscape:current-layer="layer1"
     inkscape:window-width="744"
     inkscape:window-height="664"
     inkscape:window-x="501"
     inkscape:window-y="198" />
  <metadata
     id="metadata15704">
    <rdf:RDF>
      <cc:Work
         rdf:about="">
        <dc:format>image/svg+xml</dc:format>
        <dc:type
           rdf:resource="http://purl.org/dc/dcmitype/StillImage" />
      </cc:Work>
    </rdf:RDF>
  </metadata>
  <g
     inkscape:label="Layer 1"
     inkscape:groupmode="layer"
     id="layer1">
    <g
       id="g2861"
       transform="translate(-21.811549,-16.97341)">
      <path
         d="M 52.663225,48.162539 C 49.665592,51.067239 49.156146,42.735539 45.542559,44.970039 C 41.857636,47.248739 46.675136,52.911339 42.314901,53.439539 C 38.039074,53.957539 43.85899,46.479639 39.63719,45.909939 C 35.332047,45.328939 35.806171,53.182039 31.729328,51.600139 C 27.731408,50.048839 36.267407,45.884239 33.358949,42.729039 C 30.393074,39.511639 27.145655,48.451639 24.896062,44.690939 C 22.690018,41.003039 30.46412,42.136539 29.854822,38.005239 C 29.233496,33.792339 21.451957,37.801239 21.824504,33.561139 C 22.18984,29.403039 29.839836,36.308439 31.725113,32.498639 C 33.647607,28.613739 24.771869,27.826339 27.448399,24.601339 C 30.073114,21.438739 32.119177,29.179739 35.819181,26.965539 C 39.592227,24.707739 33.112465,19.527539 37.277384,18.539139 C 41.361675,17.569839 37.461059,26.341539 41.627438,26.824839 C 45.876064,27.317739 44.452124,18.348239 48.286973,20.152039 C 52.047584,21.921039 44.673893,26.632539 47.453119,29.782039 C 50.28721,32.993639 53.040451,23.953739 55.215505,27.681539 C 57.348452,31.337039 49.700283,30.916339 50.352038,35.183039 C 51.016659,39.534039 59.230379,35.407439 58.380565,39.670139 C 57.547203,43.850339 50.00837,35.914039 48.386453,39.873639 C 46.732519,43.911439 55.720033,45.200439 52.663225,48.162539 z"
         id="path13980"
         style="fill:#ffcc00;fill-opacity:1;stroke:none;stroke-width:4.4749999;stroke-linejoin:round;stroke-miterlimit:4;stroke-opacity:1" />
      <path
         d="M 276.69524,46.671439 C 273.69761,49.576239 273.18816,41.244539 269.57457,43.479039 C 265.88965,45.757639 270.70715,51.420339 266.34691,51.948539 C 262.07109,52.466539 267.89101,44.988539 263.66921,44.418839 C 259.36406,43.837939 259.83819,51.690939 255.76134,50.109039 C 251.76342,48.557839 260.29942,44.393139 257.39097,41.238039 C 254.42509,38.020639 251.17767,46.960539 248.92808,43.199839 C 246.72203,39.511939 254.49613,40.645539 253.88684,36.514139 C 253.26551,32.301239 245.48397,36.310239 245.85652,32.070039 C 246.22186,27.912039 253.87185,34.817439 255.75713,31.007639 C 257.67962,27.122639 248.80388,26.335239 251.48042,23.110239 C 254.10513,19.947639 256.15119,27.688739 259.85119,25.474539 C 263.62424,23.216739 257.14448,18.036539 261.3094,17.048139 C 265.39369,16.078839 261.49307,24.850539 265.65945,25.333839 C 269.90808,25.826639 268.48414,16.857239 272.31899,18.661039 C 276.0796,20.429939 268.70591,25.141539 271.48514,28.290939 C 274.31923,31.502639 277.07246,22.462739 279.24752,26.190439 C 281.38047,29.846039 273.7323,29.425239 274.38405,33.692039 C 275.04867,38.043039 283.26239,33.916439 282.41258,38.179139 C 281.57922,42.359339 274.04039,34.423039 272.41847,38.382639 C 270.76454,42.420439 279.75205,43.709439 276.69524,46.671439 z"
         id="path13984"
         style="fill:#d40000;fill-opacity:1;stroke:none;stroke-width:4.4749999;stroke-linejoin:round;stroke-miterlimit:4;stroke-opacity:1" />
      <g
         transform="matrix(0.5218716,0,0,0.5218716,16.740257,-799.45519)"
         id="g14129">
        <path
           d="M 436.79407,1621.7394 C 431.05007,1627.3054 430.07387,1611.3404 423.14959,1615.6221 C 423.1494,1615.6222 423.14922,1615.6223 423.14904,1615.6224 C 416.08909,1619.9889 425.31959,1630.8391 416.96481,1631.8512 C 416.96477,1631.8512 416.96474,1631.8512 416.9647,1631.8512 C 408.77166,1632.8436 419.92353,1618.5147 411.83384,1617.423 C 411.83362,1617.4229 411.83341,1617.4229 411.83319,1617.4229 C 403.58446,1616.3105 404.49271,1631.3576 396.68095,1628.3265 C 396.68092,1628.3264 396.68088,1628.3264 396.68085,1628.3264 C 389.02035,1625.3539 405.3767,1617.3737 399.8036,1611.328 C 399.80357,1611.3279 399.80355,1611.3279 399.80352,1611.3279 C 394.12039,1605.1629 387.89778,1622.2933 383.58718,1615.0872 C 383.58716,1615.0871 383.58714,1615.0871 383.58712,1615.0871 C 379.36013,1608.0205 394.25657,1610.1925 393.08906,1602.2762 C 393.08905,1602.2761 393.08905,1602.2761 393.08904,1602.2761 C 391.89835,1594.2035 376.98765,1601.8853 377.70152,1593.7605 C 377.70152,1593.7604 377.70153,1593.7604 377.70153,1593.7604 C 378.4017,1585.793 393.06036,1599.0248 396.67287,1591.7247 C 396.67289,1591.7246 396.6729,1591.7246 396.67292,1591.7246 C 400.35657,1584.2803 383.34922,1582.7715 388.47792,1576.5919 C 388.47794,1576.5918 388.47796,1576.5918 388.47798,1576.5918 C 393.50737,1570.5319 397.428,1585.3649 404.51784,1581.1223 C 404.51787,1581.1222 404.5179,1581.1222 404.51793,1581.1222 C 411.74757,1576.7958 399.33132,1566.8696 407.31202,1564.9757 C 407.31205,1564.9756 407.31209,1564.9756 407.31212,1564.9756 C 415.13819,1563.1185 407.66401,1579.9265 415.64751,1580.8526 C 415.64754,1580.8526 415.64758,1580.8526 415.64762,1580.8526 C 423.78862,1581.7968 421.06015,1564.6099 428.40838,1568.0664 C 428.40841,1568.0664 428.40844,1568.0664 428.40847,1568.0664 C 435.61427,1571.456 421.48509,1580.4841 426.81057,1586.5191 C 426.81059,1586.5191 426.81062,1586.5191 426.81064,1586.5191 C 432.24124,1592.673 437.51692,1575.3511 441.6847,1582.4941 C 441.68481,1582.4942 441.68491,1582.4944 441.68502,1582.4946 C 445.77104,1589.4987 431.11657,1588.6928 432.36542,1596.8685 C 432.36545,1596.8687 432.36549,1596.8689 432.36552,1596.8691 C 433.63977,1605.2052 449.37788,1597.2986 447.74952,1605.4665 C 447.74948,1605.4667 447.74944,1605.4669 447.74939,1605.4671 C 446.15189,1613.4758 431.70681,1598.2694 428.599,1605.8565 C 428.59892,1605.8567 428.59883,1605.8569 428.59875,1605.8571 C 425.43067,1613.5938 442.65132,1616.0637 436.79407,1621.7394 C 436.79407,1621.7394 436.79407,1621.7394 436.79407,1621.7394"
           id="path14131"
           style="opacity:1;fill:#da1d00;fill-opacity:1;stroke:none;stroke-width:4.4749999;stroke-linejoin:round;stroke-miterlimit:4;stroke-opacity:1" />
        <path
           d="M 375.46754,1622.1475 C 369.72354,1627.7135 368.74734,1611.7485 361.82306,1616.0302 C 361.8229,1616.0303 361.82275,1616.0304 361.8226,1616.0305 C 354.76248,1620.397 363.9931,1631.2472 355.63828,1632.2593 C 355.63821,1632.2593 355.63814,1632.2593 355.63807,1632.2593 C 347.44522,1633.2517 358.59697,1618.9228 350.50731,1617.8311 C 350.50713,1617.8311 350.50695,1617.8311 350.50677,1617.831 C 342.25792,1616.7186 343.16622,1631.7657 335.35442,1628.7346 C 335.35435,1628.7346 335.35428,1628.7346 335.35422,1628.7345 C 327.69396,1625.762 344.05015,1617.7819 338.47707,1611.7361 C 338.47702,1611.7361 338.47697,1611.736 338.47692,1611.736 C 332.7938,1605.5712 326.57123,1622.7015 322.26065,1615.4953 C 322.26061,1615.4953 322.26057,1615.4952 322.26054,1615.4951 C 318.03373,1608.4287 332.93004,1610.6006 331.76253,1602.6843 C 331.76252,1602.6842 331.76251,1602.6842 331.7625,1602.6841 C 330.57169,1594.6117 315.66113,1602.2934 316.37499,1594.1686 C 316.37499,1594.1685 316.375,1594.1685 316.37501,1594.1684 C 317.07529,1586.2012 331.73384,1599.433 335.34634,1592.1328 C 335.34637,1592.1327 335.3464,1592.1327 335.34644,1592.1326 C 339.02989,1584.6885 322.02271,1583.1797 327.15139,1577 C 327.15143,1577 327.15148,1576.9999 327.15152,1576.9999 C 332.18088,1570.9402 336.1015,1585.7731 343.19131,1581.5304 C 343.19137,1581.5304 343.19144,1581.5303 343.1915,1581.5303 C 350.42093,1577.2038 338.00483,1567.2778 345.98549,1565.3838 C 345.98556,1565.3838 345.98563,1565.3838 345.98569,1565.3838 C 353.8116,1563.5268 346.33752,1580.3346 354.32098,1581.2607 C 354.32105,1581.2607 354.32112,1581.2607 354.32119,1581.2607 C 362.46207,1582.2048 359.73365,1565.018 367.08185,1568.4745 C 367.08191,1568.4745 367.08197,1568.4746 367.08204,1568.4746 C 374.28761,1571.8643 360.15858,1580.8923 365.48404,1586.9272 C 365.48409,1586.9273 365.48413,1586.9273 365.48418,1586.9274 C 370.91476,1593.081 376.19041,1575.7593 380.35817,1582.9022 C 380.35826,1582.9024 380.35835,1582.9025 380.35844,1582.9027 C 384.44464,1589.9069 369.79004,1589.1009 371.03889,1597.2766 C 371.03892,1597.2768 371.03894,1597.277 371.03897,1597.2772 C 372.31311,1605.6135 388.05135,1597.7067 386.42299,1605.8746 C 386.42295,1605.8748 386.42292,1605.875 386.42289,1605.8751 C 384.82549,1613.8841 370.38029,1598.6775 367.27247,1606.2646 C 367.2724,1606.2648 367.27233,1606.265 367.27226,1606.2651 C 364.10399,1614.0019 381.32481,1616.4718 375.46754,1622.1475 C 375.46754,1622.1475 375.46754,1622.1475 375.46754,1622.1475"
           id="path14133"
           style="opacity:1;fill:#e03a00;fill-opacity:1;stroke:none;stroke-width:4.4749999;stroke-linejoin:round;stroke-miterlimit:4;stroke-opacity:1" />
        <path
           d="M 314.14101,1622.5557 C 308.39701,1628.1217 307.42081,1612.1567 300.49653,1616.4384 C 300.4964,1616.4384 300.49628,1616.4385 300.49616,1616.4386 C 293.43587,1620.805 302.6666,1631.6554 294.31175,1632.6675 C 294.31164,1632.6675 294.31154,1632.6675 294.31143,1632.6675 C 286.11879,1633.6597 297.2704,1619.331 289.18078,1618.2393 C 289.18063,1618.2393 289.18049,1618.2392 289.18035,1618.2392 C 280.93138,1617.1266 281.83972,1632.1739 274.02789,1629.1428 C 274.02779,1629.1427 274.02769,1629.1427 274.02759,1629.1427 C 266.36758,1626.1701 282.72359,1618.19 277.15054,1612.1443 C 277.15046,1612.1442 277.15039,1612.1441 277.15031,1612.144 C 271.46722,1605.9795 265.24468,1623.1096 260.93412,1615.9035 C 260.93406,1615.9034 260.93401,1615.9033 260.93395,1615.9032 C 256.70733,1608.8368 271.6035,1611.0088 270.436,1603.0925 C 270.43598,1603.0924 270.43597,1603.0923 270.43595,1603.0922 C 269.24503,1595.02 254.3346,1602.7016 255.04846,1594.5768 C 255.04847,1594.5767 255.04848,1594.5766 255.04849,1594.5765 C 255.74889,1586.6095 270.40733,1599.8411 274.01981,1592.541 C 274.01986,1592.5409 274.0199,1592.5408 274.01995,1592.5407 C 277.70321,1585.0966 260.69621,1583.5878 265.82486,1577.4082 C 265.82492,1577.4081 265.82499,1577.408 265.82505,1577.4079 C 270.85438,1571.3485 274.775,1586.1812 281.86478,1581.9386 C 281.86487,1581.9385 281.86497,1581.9385 281.86506,1581.9384 C 289.09429,1577.6119 276.67833,1567.6859 284.65896,1565.792 C 284.65906,1565.7919 284.65916,1565.7919 284.65927,1565.7919 C 292.485,1563.9351 285.01102,1580.7428 292.99445,1581.6689 C 292.99455,1581.6689 292.99466,1581.6689 292.99477,1581.6689 C 301.13551,1582.6128 298.40715,1565.4262 305.75532,1568.8827 C 305.75541,1568.8827 305.75551,1568.8828 305.7556,1568.8828 C 312.96096,1572.2725 298.83208,1581.3005 304.15751,1587.3354 C 304.15758,1587.3355 304.15765,1587.3355 304.15772,1587.3356 C 309.58827,1593.489 314.86389,1576.1675 319.03164,1583.3104 C 319.03171,1583.3105 319.03178,1583.3106 319.03185,1583.3107 C 323.11824,1590.315 308.4635,1589.509 309.71236,1597.6848 C 309.71238,1597.6849 309.7124,1597.6851 309.71242,1597.6852 C 310.98644,1606.0217 326.72483,1598.1148 325.09646,1606.2828 C 325.09643,1606.2829 325.0964,1606.2831 325.09638,1606.2832 C 323.49908,1614.2923 309.05377,1599.0856 305.94594,1606.6728 C 305.94588,1606.6729 305.94583,1606.673 305.94577,1606.6732 C 302.77731,1614.4101 319.9983,1616.88 314.14101,1622.5557 C 314.14101,1622.5557 314.14101,1622.5557 314.14101,1622.5557"
           id="path14135"
           style="opacity:1;fill:#e65700;fill-opacity:1;stroke:none;stroke-width:4.4749999;stroke-linejoin:round;stroke-miterlimit:4;stroke-opacity:1" />
        <path
           d="M 252.81448,1622.9638 C 247.07047,1628.5298 246.09428,1612.5648 239.17,1616.8465 C 239.1699,1616.8466 239.16981,1616.8466 239.16972,1616.8467 C 232.10926,1621.2131 241.34011,1632.0635 232.98522,1633.0756 C 232.98508,1633.0756 232.98493,1633.0757 232.98479,1633.0757 C 224.79236,1634.0677 235.94383,1619.7391 227.85425,1618.6474 C 227.85414,1618.6474 227.85403,1618.6474 227.85392,1618.6474 C 219.60484,1617.5346 220.51322,1632.5821 212.70136,1629.5509 C 212.70122,1629.5509 212.70109,1629.5508 212.70096,1629.5508 C 205.04119,1626.5782 221.39704,1618.5981 215.824,1612.5524 C 215.82391,1612.5523 215.82381,1612.5522 215.82371,1612.5521 C 210.14063,1606.3878 203.91813,1623.5177 199.60759,1616.3116 C 199.60751,1616.3115 199.60744,1616.3114 199.60736,1616.3113 C 195.38093,1609.245 210.27697,1611.4169 209.10947,1603.5006 C 209.10944,1603.5005 209.10942,1603.5003 209.1094,1603.5002 C 207.91837,1595.4282 193.00807,1603.1097 193.72193,1594.9849 C 193.72194,1594.9848 193.72195,1594.9847 193.72196,1594.9845 C 194.42249,1587.0178 209.08081,1600.2492 212.69328,1592.9491 C 212.69334,1592.949 212.69341,1592.9489 212.69347,1592.9487 C 216.37653,1585.5048 199.3697,1583.9959 204.49832,1577.8163 C 204.49841,1577.8162 204.4985,1577.8161 204.49859,1577.816 C 209.52789,1571.7567 213.4485,1586.5894 220.53825,1582.3467 C 220.53838,1582.3467 220.5385,1582.3466 220.53863,1582.3465 C 227.76765,1578.02 215.35184,1568.0941 223.33243,1566.2001 C 223.33257,1566.2001 223.3327,1566.2001 223.33284,1566.2 C 231.15841,1564.3434 223.68453,1581.1509 231.66792,1582.077 C 231.66806,1582.077 231.6682,1582.0771 231.66834,1582.0771 C 239.80896,1583.0208 237.08065,1565.8344 244.42879,1569.2908 C 244.42891,1569.2909 244.42904,1569.2909 244.42917,1569.291 C 251.6343,1572.6807 237.50557,1581.7086 242.83098,1587.7435 C 242.83107,1587.7436 242.83116,1587.7437 242.83126,1587.7439 C 248.26179,1593.897 253.53738,1576.5757 257.70511,1583.7185 C 257.70516,1583.7186 257.70521,1583.7187 257.70527,1583.7188 C 261.79183,1590.7232 247.13696,1589.9171 248.38583,1598.0929 C 248.38584,1598.093 248.38586,1598.0931 248.38588,1598.0933 C 249.65977,1606.4299 265.39831,1598.5229 263.76993,1606.6909 C 263.76991,1606.691 263.76989,1606.6911 263.76987,1606.6912 C 262.17268,1614.7006 247.72726,1599.4937 244.61941,1607.0809 C 244.61937,1607.081 244.61933,1607.0811 244.61929,1607.0812 C 241.45063,1614.8182 258.6718,1617.2881 252.81448,1622.9638 C 252.81448,1622.9638 252.81448,1622.9638 252.81448,1622.9638"
           id="path14137"
           style="opacity:1;fill:#ec7400;fill-opacity:1;stroke:none;stroke-width:4.4749999;stroke-linejoin:round;stroke-miterlimit:4;stroke-opacity:1" />
        <path
           d="M 191.48795,1623.372 C 185.74394,1628.938 184.76775,1612.973 177.84347,1617.2547 C 177.8434,1617.2547 177.84334,1617.2548 177.84328,1617.2548 C 170.78265,1621.6212 180.01361,1632.4717 171.65869,1633.4838 C 171.65851,1633.4838 171.65833,1633.4838 171.65815,1633.4839 C 163.46592,1634.4758 174.61727,1620.1473 166.52771,1619.0556 C 166.52764,1619.0556 166.52757,1619.0556 166.5275,1619.0556 C 158.2783,1617.9426 159.18672,1632.9903 151.37483,1629.9591 C 151.37466,1629.959 151.37449,1629.959 151.37432,1629.9589 C 143.7148,1626.9862 160.07048,1619.0063 154.49747,1612.9606 C 154.49735,1612.9605 154.49723,1612.9603 154.4971,1612.9602 C 148.81405,1606.7961 142.59159,1623.9258 138.28106,1616.7198 C 138.28096,1616.7196 138.28087,1616.7195 138.28078,1616.7193 C 134.05453,1609.6532 148.95043,1611.825 147.78293,1603.9088 C 147.78291,1603.9086 147.78288,1603.9084 147.78286,1603.9083 C 146.59171,1595.8364 131.68154,1603.5178 132.3954,1595.3931 C 132.39541,1595.3929 132.39543,1595.3927 132.39544,1595.3926 C 133.09608,1587.4261 147.7543,1600.6573 151.36675,1593.3573 C 151.36683,1593.3571 151.36691,1593.357 151.36699,1593.3568 C 155.04985,1585.9129 138.04319,1584.4041 143.17179,1578.2245 C 143.1719,1578.2244 143.17201,1578.2242 143.17212,1578.2241 C 148.20139,1572.165 152.122,1586.9975 159.21172,1582.7549 C 159.21188,1582.7548 159.21203,1582.7547 159.21219,1582.7546 C 166.44102,1578.4281 154.02534,1568.5022 162.0059,1566.6083 C 162.00607,1566.6082 162.00624,1566.6082 162.00641,1566.6082 C 169.83181,1564.7517 162.35803,1581.5591 170.34139,1582.4852 C 170.34156,1582.4852 170.34174,1582.4852 170.34192,1582.4852 C 178.4824,1583.4288 175.75416,1566.2426 183.10226,1569.699 C 183.10241,1569.6991 183.10257,1569.6991 183.10273,1569.6992 C 190.30765,1573.089 176.17906,1582.1168 181.50444,1588.1517 C 181.50456,1588.1518 181.50468,1588.152 181.5048,1588.1521 C 186.9353,1594.305 192.21087,1576.9838 196.37858,1584.1267 C 196.37861,1584.1267 196.37865,1584.1268 196.37868,1584.1269 C 200.46543,1591.1314 185.81043,1590.3253 187.0593,1598.5011 C 187.05931,1598.5012 187.05932,1598.5012 187.05933,1598.5013 C 188.3331,1606.8381 204.07178,1598.9311 202.4434,1607.0991 C 202.44339,1607.0992 202.44337,1607.0992 202.44336,1607.0993 C 200.84628,1615.1089 186.40074,1599.9019 183.29288,1607.4891 C 183.29285,1607.4892 183.29282,1607.4892 183.2928,1607.4893 C 180.12394,1615.2263 197.34529,1617.6962 191.48795,1623.372 C 191.48795,1623.372 191.48795,1623.372 191.48795,1623.372"
           id="path14139"
           style="opacity:1;fill:#f29100;fill-opacity:1;stroke:none;stroke-width:4.4749999;stroke-linejoin:round;stroke-miterlimit:4;stroke-opacity:1" />
        <path
           d="M 130.16141,1623.7801 C 124.41741,1629.3461 123.44122,1613.3811 116.51693,1617.6628 C 116.5169,1617.6629 116.51687,1617.6629 116.51684,1617.6629 C 109.45604,1622.0292 118.68712,1632.8798 110.33216,1633.8919 C 110.33194,1633.892 110.33173,1633.892 110.33152,1633.892 C 102.13949,1634.8838 113.2907,1620.5554 105.20118,1619.4637 C 105.20115,1619.4637 105.20111,1619.4637 105.20108,1619.4637 C 96.951762,1618.3507 97.860227,1633.3984 90.048295,1630.3672 C 90.048094,1630.3672 90.047894,1630.3671 90.047694,1630.367 C 82.388413,1627.3943 98.743927,1619.4144 93.170941,1613.3687 C 93.170793,1613.3686 93.170644,1613.3684 93.170495,1613.3683 C 87.487464,1607.2044 81.265036,1624.334 76.954524,1617.1279 C 76.954413,1617.1278 76.954303,1617.1276 76.954192,1617.1274 C 72.728125,1610.0614 87.623896,1612.2331 86.456403,1604.3169 C 86.456372,1604.3167 86.456341,1604.3165 86.45631,1604.3163 C 85.265049,1596.2446 70.355016,1603.9259 71.068866,1595.8012 C 71.068884,1595.801 71.068902,1595.8008 71.068921,1595.8006 C 71.769681,1587.8343 86.42778,1601.0655 90.040217,1593.7654 C 90.040313,1593.7652 90.040409,1593.7651 90.040506,1593.7649 C 93.723173,1586.3211 76.716682,1584.8122 81.845262,1578.6326 C 81.845394,1578.6325 81.845525,1578.6323 81.845657,1578.6322 C 86.874893,1572.5733 90.795501,1587.4056 97.885189,1583.163 C 97.885378,1583.1629 97.885567,1583.1628 97.885756,1583.1627 C 105.11438,1578.8361 92.698843,1568.9104 100.67937,1567.0164 C 100.67957,1567.0164 100.67978,1567.0163 100.67998,1567.0163 C 108.50522,1565.16 101.03153,1581.9673 109.01486,1582.8933 C 109.01507,1582.8934 109.01528,1582.8934 109.0155,1582.8934 C 117.15585,1583.8368 114.42766,1566.6507 121.77573,1570.1071 C 121.77592,1570.1072 121.7761,1570.1073 121.77629,1570.1074 C 128.981,1573.4972 114.85255,1582.525 120.17791,1588.5598 C 120.17806,1588.56 120.1782,1588.5602 120.17834,1588.5603 C 125.60882,1594.713 130.88436,1577.392 135.05204,1584.5348 C 135.05206,1584.5349 135.05208,1584.5349 135.0521,1584.5349 C 139.13903,1591.5395 124.48389,1590.7334 125.73276,1598.9092 C 125.73277,1598.9093 125.73278,1598.9093 125.73278,1598.9094 C 127.00644,1607.2464 142.74526,1599.3392 141.11687,1607.5072 C 141.11686,1607.5073 141.11686,1607.5073 141.11685,1607.5073 C 139.51987,1615.5172 125.07422,1600.31 121.96635,1607.8972 C 121.96634,1607.8973 121.96632,1607.8973 121.96631,1607.8973 C 118.79726,1615.6345 136.01879,1618.1044 130.16141,1623.7801 C 130.16141,1623.7801 130.16141,1623.7801 130.16141,1623.7801"
           id="path14141"
           style="opacity:1;fill:#f8ae00;fill-opacity:1;stroke:none;stroke-width:4.4749999;stroke-linejoin:round;stroke-miterlimit:4;stroke-opacity:1" />
      </g>
    </g>
  </g>
</svg>
