<?xml version="1.0" encoding="UTF-8" standalone="no"?>
<!-- Created with Inkscape (http://www.inkscape.org/) -->
<svg
   xmlns:dc="http://purl.org/dc/elements/1.1/"
   xmlns:cc="http://web.resource.org/cc/"
   xmlns:rdf="http://www.w3.org/1999/02/22-rdf-syntax-ns#"
   xmlns:svg="http://www.w3.org/2000/svg"
   xmlns="http://www.w3.org/2000/svg"
   xmlns:sodipodi="http://sodipodi.sourceforge.net/DTD/sodipodi-0.dtd"
   xmlns:inkscape="http://www.inkscape.org/namespaces/inkscape"
   sodipodi:docname="elements-f02.svg"
   sodipodi:docbase="/home/aaron/notes/inkdoc/elements"
   inkscape:version="0.41+cvs"
   sodipodi:version="0.32"
   id="svg2017"
   height="1052.3622047"
   width="744.09448819">
  <defs
     id="defs3" />
  <sodipodi:namedview
     inkscape:window-y="21"
     inkscape:window-x="4"
     inkscape:window-height="513"
     inkscape:window-width="753"
     inkscape:current-layer="layer1"
     inkscape:document-units="px"
     inkscape:cy="520.00000"
     inkscape:cx="375.00000"
     inkscape:zoom="0.35000000"
     inkscape:pageshadow="2"
     inkscape:pageopacity="0.0"
     borderopacity="1.0"
     bordercolor="#666666"
     pagecolor="#ffffff"
     id="base" />
  <metadata
     id="metadata4">
    <rdf:RDF
       id="RDF5">
      <cc:Work
         id="Work6"
         rdf:about="">
        <dc:format
           id="format7">image/svg+xml</dc:format>
        <dc:type
           rdf:resource="http://purl.org/dc/dcmitype/StillImage"
           id="type9" />
      </cc:Work>
    </rdf:RDF>
  </metadata>
  <g
     id="layer1"
     inkscape:groupmode="layer"
     inkscape:label="Layer 1">
    <g
       transform="translate(0.000000,-424.1680)"
       id="g2037">
      <rect
         style="fill:none;fill-rule:evenodd;stroke:#000000;stroke-width:0.49831799"
         id="rect1933"
         width="305.15701"
         height="100.99377"
         x="7.5752616"
         y="424.41721" />
      <path
         style="fill:none;fill-opacity:0.75000000;fill-rule:evenodd;stroke:#000000;stroke-width:0.94528618pt;stroke-linecap:butt;stroke-linejoin:miter;stroke-opacity:1.0000000"
         d="M 18.769977,434.05379 L 95.374171,434.05379"
         id="path1920" />
      <path
         style="fill:none;fill-opacity:0.75000000;fill-rule:evenodd;stroke:#000000;stroke-width:0.94528618pt;stroke-linecap:butt;stroke-linejoin:miter;stroke-opacity:1.0000000"
         d="M 18.769977,446.55379 L 191.12941,446.55379"
         id="path1921"
         sodipodi:nodetypes="cc" />
      <path
         style="fill:none;fill-opacity:0.75000000;fill-rule:evenodd;stroke:#000000;stroke-width:4.3719482;stroke-linecap:butt;stroke-linejoin:miter;stroke-miterlimit:4.0000000;stroke-opacity:1.0000000"
         d="M 18.769977,461.55379 L 191.12941,461.55379"
         id="path1922"
         sodipodi:nodetypes="cc" />
      <path
         style="fill:none;fill-opacity:0.75000000;fill-rule:evenodd;stroke:#000000;stroke-width:4.3719482;stroke-linecap:butt;stroke-linejoin:miter;stroke-miterlimit:4.0000000;stroke-opacity:1.0000000"
         d="M 19.296652,492.20007 L 190.60274,470.90751"
         id="path2546"
         sodipodi:nodetypes="cc" />
      <path
         style="fill:none;fill-opacity:0.75000000;fill-rule:evenodd;stroke:#000000;stroke-width:4.3719482;stroke-linecap:butt;stroke-linejoin:miter;stroke-miterlimit:4.0000000;stroke-opacity:1.0000000"
         d="M 19.296652,517.20007 C 76.398679,510.10255 93.725452,478.27561 190.60274,495.90751"
         id="path2547"
         sodipodi:nodetypes="cz" />
      <path
         style="fill:#000000;fill-opacity:1.0000000;fill-rule:evenodd;stroke:none;stroke-width:3.9819262;stroke-linecap:butt;stroke-linejoin:miter;stroke-miterlimit:4.0000000;stroke-opacity:1.0000000"
         d="M 298.43304,428.14510 L 204.84290,480.47649 L 220.84355,480.33194 L 301.47695,428.02180 L 298.43304,428.14510 z "
         id="path2548"
         sodipodi:nodetypes="ccccc" />
      <path
         style="fill:#000000;fill-opacity:1.0000000;fill-rule:evenodd;stroke:none;stroke-width:3.9819262;stroke-linecap:butt;stroke-linejoin:miter;stroke-miterlimit:4.0000000;stroke-opacity:1.0000000"
         d="M 302.27414,428.14510 L 230.69110,480.47649 L 245.39721,480.33194 L 307.28111,428.02180 L 302.27414,428.14510 z "
         id="path2550"
         sodipodi:nodetypes="ccccc" />
      <path
         style="fill:#000000;fill-opacity:1.0000000;fill-rule:evenodd;stroke:none;stroke-width:3.9819262;stroke-linecap:butt;stroke-linejoin:miter;stroke-miterlimit:4.0000000;stroke-opacity:1.0000000"
         d="M 307.63887,433.78142 L 247.16453,500.00047 L 247.06016,484.21050 L 307.63395,428.67270 L 307.63887,433.78142 z "
         id="path2551"
         sodipodi:nodetypes="ccccc" />
      <path
         style="fill:#000000;fill-opacity:1.0000000;fill-rule:evenodd;stroke:none;stroke-width:3.9819262;stroke-linecap:butt;stroke-linejoin:miter;stroke-miterlimit:4.0000000;stroke-opacity:1.0000000"
         d="M 307.63887,440.10336 L 247.16453,519.13765 L 247.06016,503.34767 L 307.63395,434.99464 L 307.63887,440.10336 z "
         id="path2552"
         sodipodi:nodetypes="ccccc" />
    </g>
  </g>
</svg>
