<?xml version="1.0" encoding="UTF-8" standalone="no"?>
<!-- Created with Inkscape (http://www.inkscape.org/) -->

<svg
   xmlns:dc="http://purl.org/dc/elements/1.1/"
   xmlns:cc="http://creativecommons.org/ns#"
   xmlns:rdf="http://www.w3.org/1999/02/22-rdf-syntax-ns#"
   xmlns:svg="http://www.w3.org/2000/svg"
   xmlns="http://www.w3.org/2000/svg"
   xmlns:sodipodi="http://sodipodi.sourceforge.net/DTD/sodipodi-0.dtd"
   xmlns:inkscape="http://www.inkscape.org/namespaces/inkscape"
   sodipodi:docname="elements-f11.svg"
   inkscape:version="0.48+devel r10003 custom"
   sodipodi:version="0.32"
   id="svg1951"
   height="1052.3622047"
   width="744.09448819"
   version="1.1">
  <defs
     id="defs3" />
  <sodipodi:namedview
     inkscape:window-y="25"
     inkscape:window-x="2"
     inkscape:window-height="511"
     inkscape:window-width="755"
     inkscape:current-layer="layer1"
     inkscape:document-units="px"
     inkscape:cy="984.72902"
     inkscape:cx="375"
     inkscape:zoom="0.35"
     inkscape:pageshadow="2"
     inkscape:pageopacity="0.0"
     borderopacity="1.0"
     bordercolor="#666666"
     pagecolor="#ffffff"
     id="base"
     showgrid="false"
     inkscape:window-maximized="0" />
  <metadata
     id="metadata4">
    <rdf:RDF>
      <cc:Work
         rdf:about="">
        <dc:format>image/svg+xml</dc:format>
        <dc:type
           rdf:resource="http://purl.org/dc/dcmitype/StillImage" />
      </cc:Work>
    </rdf:RDF>
  </metadata>
  <g
     id="layer1"
     inkscape:groupmode="layer"
     inkscape:label="Layer 1">
    <rect
       y="0.24904883"
       x="159.95064"
       height="100.99377"
       width="152.52419"
       id="rect2584"
       style="fill:#c8c8c8;fill-opacity:1.0000000;fill-rule:evenodd;stroke:#000000;stroke-width:0.49831817" />
    <rect
       y="21.426050"
       x="191.93253"
       height="58.640213"
       width="88.560425"
       id="rect2585"
       style="fill:#d4d4d4;fill-opacity:1.0000000;fill-rule:evenodd;stroke:none;stroke-width:0.50000000;stroke-miterlimit:4.0000000" />
    <rect
       y="0.24904883"
       x="7.4506402"
       height="100.99377"
       width="152.52419"
       id="rect2582"
       style="fill:#c8c8c8;fill-opacity:1.0000000;fill-rule:evenodd;stroke:#000000;stroke-width:0.49831817" />
    <rect
       y="21.426050"
       x="39.432529"
       height="58.640213"
       width="88.560425"
       id="rect2583"
       style="fill:#d4d4d4;fill-opacity:1.0000000;fill-rule:evenodd;stroke:none;stroke-width:0.50000000;stroke-miterlimit:4.0000000" />
    <path
       transform="translate(210.2272,-2115.132)"
       style="fill:#ff0000;fill-opacity:1;fill-rule:evenodd;stroke:none"
       d="m 68.891352,2183.0002 c 0,6.2545 -5.070199,11.3247 -11.324606,11.3247 -6.254407,0 -11.324606,-5.0702 -11.324606,-11.3247 0,-6.2544 5.070199,-11.3246 11.324606,-11.3246 6.254407,0 11.324606,5.0702 11.324606,11.3246 z"
       id="path2587" />
  </g>
</svg>
