<?xml version="1.0" encoding="UTF-8" standalone="no"?>
<!-- Created with Inkscape (http://www.inkscape.org/) -->
<svg
   xmlns:dc="http://purl.org/dc/elements/1.1/"
   xmlns:cc="http://web.resource.org/cc/"
   xmlns:rdf="http://www.w3.org/1999/02/22-rdf-syntax-ns#"
   xmlns:svg="http://www.w3.org/2000/svg"
   xmlns="http://www.w3.org/2000/svg"
   xmlns:xlink="http://www.w3.org/1999/xlink"
   xmlns:sodipodi="http://sodipodi.sourceforge.net/DTD/sodipodi-0.dtd"
   xmlns:inkscape="http://www.inkscape.org/namespaces/inkscape"
   sodipodi:docname="elements-f13.svg"
   sodipodi:docbase="/home/aaron/notes/inkdoc/elements"
   inkscape:version="0.41+cvs"
   sodipodi:version="0.32"
   id="svg2262"
   height="1052.3622047"
   width="744.09448819">
  <defs
     id="defs3">
    <pattern
       patternTransform="matrix(1.180948,0.332239,-0.332239,1.180948,43.37934,31.64300)"
       id="pattern2289"
       xlink:href="#pattern3032"
       inkscape:collect="always" />
    <pattern
       id="pattern3032"
       patternTransform="matrix(1.180948,0.332239,-0.332239,1.180948,43.37934,2476.965)"
       height="39.359000"
       width="49.643104"
       patternUnits="userSpaceOnUse">
      <path
         transform="matrix(0.508520,0.156062,-0.156062,0.508520,394.1261,-1261.834)"
         d="M 43.212958,2505.2003 L 36.030272,2499.2499 L 28.424590,2499.4622 L 34.920902,2491.3470 L 25.709767,2478.7673 L 40.812864,2478.7518 L 50.980165,2472.0343 L 51.371709,2482.9963 L 61.818332,2494.1104 L 47.841390,2493.1544 L 43.212958,2505.2003 z "
         inkscape:randomized="0.19700000"
         inkscape:rounded="0.0000000"
         inkscape:flatsided="false"
         id="path3027"
         style="fill:#ffff00;fill-opacity:0.75000000;fill-rule:evenodd;stroke:#bdbb00;stroke-width:1.8799459pt;stroke-linecap:butt;stroke-linejoin:miter;stroke-opacity:1.0000000;" />
      <path
         transform="matrix(0.510585,1.662537e-3,-1.662537e-3,0.510585,13.69621,-1254.911)"
         d="M 75.590025,2486.5530 L 64.085177,2479.4847 L 57.282855,2489.3194 L 57.436151,2475.5257 L 50.473515,2474.9991 L 61.559465,2471.3460 L 63.615886,2459.1650 L 67.251693,2469.9192 L 75.340031,2466.1136 L 70.553222,2474.4100 L 75.590025,2486.5530 z "
         inkscape:randomized="0.19700000"
         inkscape:rounded="0.0000000"
         inkscape:flatsided="false"
         id="path3028"
         style="fill:#ffff00;fill-opacity:0.75000000;fill-rule:evenodd;stroke:#bdbb00;stroke-width:2.4481573;stroke-linecap:butt;stroke-linejoin:miter;stroke-miterlimit:4.0000000;stroke-opacity:1.0000000;" />
      <path
         transform="matrix(0.801727,2.612812e-3,-2.612812e-3,0.801727,-0.502632,-1983.714)"
         d="M 62.846537,2515.9566 L 58.145831,2512.4003 L 51.720610,2519.6358 L 52.690796,2510.1556 L 45.801241,2502.6067 L 53.722390,2501.2397 L 57.706608,2494.8828 L 61.298795,2503.6780 L 69.923487,2502.5956 L 63.826181,2512.2513 L 62.846537,2515.9566 z "
         inkscape:randomized="0.19700000"
         inkscape:rounded="0.0000000"
         inkscape:flatsided="false"
         id="path3029"
         style="fill:#ffff00;fill-opacity:0.75000000;fill-rule:evenodd;stroke:#bdbb00;stroke-width:1.5591273;stroke-linecap:butt;stroke-linejoin:miter;stroke-miterlimit:4.0000000;stroke-opacity:1.0000000;" />
      <path
         transform="matrix(0.435729,-0.305106,0.305106,0.435729,-744.6589,-1031.678)"
         d="M 33.994752,2474.0477 L 20.704295,2457.4658 L 7.8346761,2462.0862 L 17.498573,2446.9625 L 12.307118,2435.3343 L 26.561301,2440.9747 L 37.019268,2432.9210 L 35.353522,2447.6618 L 49.589290,2451.3144 L 32.847304,2457.9491 L 33.994752,2474.0477 z "
         inkscape:randomized="0.19700000"
         inkscape:rounded="0.0000000"
         inkscape:flatsided="false"
         id="path3030"
         style="fill:#ffff00;fill-opacity:0.75000000;fill-rule:evenodd;stroke:#bdbb00;stroke-width:1.8799459pt;stroke-linecap:butt;stroke-linejoin:miter;stroke-opacity:1.0000000;" />
      <path
         transform="matrix(0.164915,-0.505720,0.505720,0.164915,-1249.948,-402.1810)"
         d="M 12.399999,2503.0770 L 3.3354048,2500.8122 L -3.3046903,2506.3918 L -6.6587035,2495.5004 L -19.290663,2493.2132 L -4.3337654,2487.1292 L -6.8731938,2475.0983 L 4.2770325,2480.9489 L 12.671257,2481.3635 L 9.9072091,2489.1905 L 12.399999,2503.0770 z "
         inkscape:randomized="0.19700000"
         inkscape:rounded="0.0000000"
         inkscape:flatsided="false"
         id="path3031"
         style="fill:#ffff00;fill-opacity:0.75000000;fill-rule:evenodd;stroke:#bdbb00;stroke-width:1.8799459pt;stroke-linecap:butt;stroke-linejoin:miter;stroke-opacity:1.0000000;" />
    </pattern>
  </defs>
  <sodipodi:namedview
     inkscape:window-y="23"
     inkscape:window-x="2"
     inkscape:window-height="511"
     inkscape:window-width="755"
     inkscape:current-layer="layer1"
     inkscape:document-units="px"
     inkscape:cy="520.00000"
     inkscape:cx="375.00000"
     inkscape:zoom="0.35000000"
     inkscape:pageshadow="2"
     inkscape:pageopacity="0.0"
     borderopacity="1.0"
     bordercolor="#666666"
     pagecolor="#ffffff"
     id="base" />
  <metadata
     id="metadata4">
    <rdf:RDF
       id="RDF5">
      <cc:Work
         id="Work6"
         rdf:about="">
        <dc:format
           id="format7">image/svg+xml</dc:format>
        <dc:type
           rdf:resource="http://purl.org/dc/dcmitype/StillImage"
           id="type9" />
      </cc:Work>
    </rdf:RDF>
  </metadata>
  <g
     id="layer1"
     inkscape:groupmode="layer"
     inkscape:label="Layer 1">
    <rect
       id="rect3038"
       y="0.35475782"
       x="7.4958501"
       height="100.74789"
       width="305.30411"
       style="fill:url(#pattern2289);stroke:none" />
    <rect
       id="rect3018"
       y="0.32448438"
       x="7.6676483"
       height="100.60632"
       width="304.97748"
       style="fill:none;stroke:none" />
    <rect
       y="0.24928907"
       x="7.5752616"
       height="100.99377"
       width="305.15701"
       id="rect2174"
       style="fill:none;fill-rule:evenodd;stroke:#000000;stroke-width:0.49831799" />
  </g>
</svg>
