<?xml version="1.0" encoding="UTF-8" standalone="no"?>
<!-- Created with Inkscape (http://www.inkscape.org/) -->

<svg
   xmlns:dc="http://purl.org/dc/elements/1.1/"
   xmlns:cc="http://creativecommons.org/ns#"
   xmlns:rdf="http://www.w3.org/1999/02/22-rdf-syntax-ns#"
   xmlns:svg="http://www.w3.org/2000/svg"
   xmlns="http://www.w3.org/2000/svg"
   xmlns:sodipodi="http://sodipodi.sourceforge.net/DTD/sodipodi-0.dtd"
   xmlns:inkscape="http://www.inkscape.org/namespaces/inkscape"
   width="744.09448819"
   height="1052.3622047"
   id="svg2928"
   sodipodi:version="0.32"
   inkscape:version="0.48+devel r10003 custom"
   sodipodi:docname="basic-f05.svg"
   version="1.1">
  <defs
     id="defs3" />
  <sodipodi:namedview
     id="base"
     pagecolor="#ffffff"
     bordercolor="#666666"
     borderopacity="1.0"
     inkscape:pageopacity="0.0"
     inkscape:pageshadow="2"
     inkscape:zoom="2.8"
     inkscape:cx="110.3622"
     inkscape:cy="1044.0984"
     inkscape:document-units="px"
     inkscape:current-layer="layer1"
     inkscape:window-width="751"
     inkscape:window-height="513"
     inkscape:window-x="43"
     inkscape:window-y="76"
     showgrid="false"
     inkscape:window-maximized="0" />
  <metadata
     id="metadata4">
    <rdf:RDF>
      <cc:Work
         rdf:about="">
        <dc:format>image/svg+xml</dc:format>
        <dc:type
           rdf:resource="http://purl.org/dc/dcmitype/StillImage" />
      </cc:Work>
    </rdf:RDF>
  </metadata>
  <g
     inkscape:label="Layer 1"
     inkscape:groupmode="layer"
     id="layer1">
    <rect
       style="font-size:12.000000;fill:#0000ff;fill-opacity:0.75000000;fill-rule:evenodd;stroke:#000000;stroke-width:0.93523197pt"
       id="rect894"
       width="151.14369"
       height="39.698006"
       x="46.656612"
       y="1.7362769" />
    <path
       transform="matrix(0.707107,-0.707107,0.707107,0.707107,28.79286,65.47778)"
       style="color:#000000;fill:#ff0000;fill-opacity:0.75;fill-rule:evenodd;stroke:#000000;stroke-width:0.4869277pt;stroke-linecap:butt;stroke-linejoin:miter;stroke-miterlimit:4;stroke-dashoffset:0;stroke-opacity:1;marker:none;visibility:visible;display:inline;overflow:visible;font-family:sans-serif"
       d="m 94.642856,25.040749 c 0,6.903559 -2.958119,12.5 -6.607143,12.5 -3.649024,0 -6.607143,-5.596441 -6.607143,-12.5 0,-6.90356 2.958119,-12.5 6.607143,-12.5 3.649024,0 6.607143,5.59644 6.607143,12.5 z"
       id="path1290" />
    <path
       transform="matrix(0.707107,-0.707107,0.707107,0.707107,56.47143,65.83492)"
       style="color:#000000;fill:#ff0000;fill-opacity:0.75;fill-rule:evenodd;stroke:#000000;stroke-width:0.4869277pt;stroke-linecap:butt;stroke-linejoin:miter;stroke-miterlimit:4;stroke-dashoffset:0;stroke-opacity:1;marker:none;visibility:visible;display:inline;overflow:visible;font-family:sans-serif"
       d="m 94.642856,25.040749 c 0,6.903559 -2.958119,12.5 -6.607143,12.5 -3.649024,0 -6.607143,-5.596441 -6.607143,-12.5 0,-6.90356 2.958119,-12.5 6.607143,-12.5 3.649024,0 6.607143,5.59644 6.607143,12.5 z"
       id="path1292" />
  </g>
</svg>
