<?xml version="1.0" encoding="UTF-8" standalone="no"?>
<!-- Created with Inkscape (http://www.inkscape.org/) -->

<svg
   xmlns:dc="http://purl.org/dc/elements/1.1/"
   xmlns:cc="http://creativecommons.org/ns#"
   xmlns:rdf="http://www.w3.org/1999/02/22-rdf-syntax-ns#"
   xmlns:svg="http://www.w3.org/2000/svg"
   xmlns="http://www.w3.org/2000/svg"
   xmlns:sodipodi="http://sodipodi.sourceforge.net/DTD/sodipodi-0.dtd"
   xmlns:inkscape="http://www.inkscape.org/namespaces/inkscape"
   width="744.09448819"
   height="1052.3622047"
   id="svg2928"
   sodipodi:version="0.32"
   inkscape:version="0.48+devel r10003 custom"
   sodipodi:docname="basic-f04.svg"
   version="1.1">
  <defs
     id="defs3" />
  <sodipodi:namedview
     id="base"
     pagecolor="#ffffff"
     bordercolor="#666666"
     borderopacity="1.0"
     inkscape:pageopacity="0.0"
     inkscape:pageshadow="2"
     inkscape:zoom="1.979899"
     inkscape:cx="203.89554"
     inkscape:cy="1069.5021"
     inkscape:document-units="px"
     inkscape:current-layer="layer1"
     inkscape:window-width="751"
     inkscape:window-height="513"
     inkscape:window-x="491"
     inkscape:window-y="25"
     showgrid="false"
     inkscape:window-maximized="0" />
  <metadata
     id="metadata4">
    <rdf:RDF>
      <cc:Work
         rdf:about="">
        <dc:format>image/svg+xml</dc:format>
        <dc:type
           rdf:resource="http://purl.org/dc/dcmitype/StillImage" />
      </cc:Work>
    </rdf:RDF>
  </metadata>
  <g
     inkscape:label="Layer 1"
     inkscape:groupmode="layer"
     id="layer1">
    <rect
       style="font-size:12.000000;fill:#0000ff;fill-opacity:0.75000000;fill-rule:evenodd;stroke:#000000;stroke-width:0.80106297pt"
       id="rect878"
       width="25.253300"
       height="26.656260"
       x="58.427742"
       y="5.9826937" />
    <path
       transform="matrix(0.801064,0.000000,0.000000,0.801064,32.31095,-983.8304)"
       style="font-size:12px;fill:#ff0000;fill-opacity:0.75;fill-rule:evenodd;stroke:#000000;stroke-width:1pt"
       d="m 134.85646,1251.686 c 0,9.8339 -9.80151,17.8058 -21.89228,17.8058 -12.09077,0 -21.892282,-7.9719 -21.892282,-17.8058 0,-9.8338 9.801512,-17.8057 21.892282,-17.8057 12.09077,0 21.89228,7.9719 21.89228,17.8057 z"
       id="path879" />
    <path
       transform="matrix(0.873025,0.000000,0.000000,0.873025,27.59957,4.053390)"
       style="color:#000000;fill:#ffff00;fill-opacity:0.75;fill-rule:evenodd;stroke:#000000;stroke-width:0.91757278pt;stroke-linecap:butt;stroke-linejoin:miter;stroke-miterlimit:4;stroke-dashoffset:0;stroke-opacity:1;marker:none;visibility:visible;display:inline;overflow:visible;font-family:sans-serif"
       d="m 182.83762,29.582728 -13.18322,-3.2184 -10.12501,9.035462 -1.01296,-13.532529 -11.72204,-6.837346 12.55718,-5.1451625 2.88039,-13.2611738 8.77373,10.3526436 13.50221,-1.3585106 -7.13472,11.5434483 z"
       id="path1290" />
  </g>
</svg>
