<?xml version="1.0" encoding="UTF-8" standalone="no"?>
<!-- Created with Inkscape (http://www.inkscape.org/) -->

<svg
   xmlns:dc="http://purl.org/dc/elements/1.1/"
   xmlns:cc="http://creativecommons.org/ns#"
   xmlns:rdf="http://www.w3.org/1999/02/22-rdf-syntax-ns#"
   xmlns:svg="http://www.w3.org/2000/svg"
   xmlns="http://www.w3.org/2000/svg"
   xmlns:xlink="http://www.w3.org/1999/xlink"
   xmlns:sodipodi="http://sodipodi.sourceforge.net/DTD/sodipodi-0.dtd"
   xmlns:inkscape="http://www.inkscape.org/namespaces/inkscape"
   width="744.09448819"
   height="1052.3622047"
   id="svg1918"
   sodipodi:version="0.32"
   inkscape:version="0.48+devel r10003 custom"
   sodipodi:docname="_tutorial-footer.sl.svg"
   inkscape:output_extension="org.inkscape.output.svg.inkscape"
   version="1.1">
  <defs
     id="defs3">
    <linearGradient
       id="linearGradient841">
      <stop
         style="stop-color:#0082ab;stop-opacity:1;"
         offset="0.00000000"
         id="stop842" />
      <stop
         style="stop-color:white;stop-opacity:0;"
         offset="1"
         id="stop843" />
    </linearGradient>
    <linearGradient
       inkscape:collect="always"
       xlink:href="#linearGradient841"
       id="linearGradient2465"
       x1="76.846634"
       y1="-7656.4473"
       x2="76.846633"
       y2="-7528.6605"
       gradientTransform="matrix(2.149642,0.000000,0.000000,0.465194,-0.130153,3495.428)"
       gradientUnits="userSpaceOnUse" />
    <filter
       id="filter56"
       color-interpolation-filters="sRGB"
       height="1.2"
       width="1.2"
       y="-0.1"
       x="-0.1"
       inkscape:label="Drop shadow, custom">
      <feFlood
         id="feFlood58"
         flood-opacity="0.686275"
         flood-color="rgb(255,255,255)"
         result="flood" />
      <feComposite
         id="feComposite60"
         in2="SourceGraphic"
         in="flood"
         operator="in"
         result="composite1" />
      <feGaussianBlur
         id="feGaussianBlur62"
         in="composite1"
         stdDeviation="20"
         result="blur" />
      <feOffset
         id="feOffset64"
         dx="0"
         dy="0"
         result="offset" />
      <feComposite
         id="feComposite66"
         in2="offset"
         in="SourceGraphic"
         operator="over"
         result="composite2" />
    </filter>
  </defs>
  <sodipodi:namedview
     id="base"
     pagecolor="#ffffff"
     bordercolor="#666666"
     borderopacity="1.0"
     inkscape:pageopacity="0.0"
     inkscape:pageshadow="2"
     inkscape:zoom="2"
     inkscape:cx="155.89817"
     inkscape:cy="1003.9594"
     inkscape:document-units="px"
     inkscape:current-layer="layer1"
     inkscape:window-width="1235"
     inkscape:window-height="947"
     inkscape:window-x="0"
     inkscape:window-y="25"
     showgrid="false"
     inkscape:window-maximized="0" />
  <metadata
     id="metadata4">
    <rdf:RDF>
      <cc:Work
         rdf:about="">
        <dc:format>image/svg+xml</dc:format>
        <dc:type
           rdf:resource="http://purl.org/dc/dcmitype/StillImage" />
      </cc:Work>
    </rdf:RDF>
  </metadata>
  <g
     inkscape:label="Layer 1"
     inkscape:groupmode="layer"
     id="layer1">
    <rect
       style="font-size:12.000000;fill:url(#linearGradient2465);fill-opacity:1.0000000;fill-rule:evenodd;stroke:none;stroke-width:3.0611501"
       id="rect1494"
       width="319.99103"
       height="69.247704"
       x="-0.11217058"
       y="-70.334389"
       ry="6.1828303"
       rx="0.0000000"
       transform="scale(1.000000,-1.000000)" />
    <path
       style="fill:#ffffff;stroke-width:1pt"
       d="m 80.493022,57.97598 -4.95673,0 0,0.3171 0.148457,0 c 0.668048,0 0.74228,0.0338 0.74228,0.3172 l 0,0.1956 0,3.212 0,0.1957 c 0,0.2835 -0.07423,0.3172 -0.74228,0.3172 l -0.148457,0 0,0.3171 5.063943,0 0.164953,-1.8016 -0.362887,0 c -0.10722,0.4723 -0.296906,0.8907 -0.494854,1.0864 -0.255662,0.2699 -0.725769,0.3981 -1.418558,0.3981 l -0.544332,0 c -0.24742,0 -0.45361,-0.0405 -0.527835,-0.1012 -0.05773,-0.0406 -0.06598,-0.081 -0.06598,-0.2227 l 0,-1.7206 0.164946,0 c 0.503102,0 0.709279,0.0404 0.874233,0.1821 0.214431,0.1754 0.296905,0.3914 0.31341,0.7895 l 0.387627,0 0,-2.2133 -0.387627,0 c -0.04124,0.6612 -0.371145,0.9244 -1.154648,0.9244 l -0.197941,0 0,-1.5385 c 0,-0.2901 0.07423,-0.3374 0.519586,-0.3374 l 0.428871,0 c 0.725775,0 1.080415,0.0608 1.36083,0.2497 0.272166,0.1754 0.470107,0.5533 0.593825,1.1606 l 0.354632,0 -0.115462,-1.7274 z m -10.944379,2.7059 0.931964,0 c 0.74227,0 1.129898,-0.0472 1.459796,-0.1755 0.585576,-0.2294 0.915473,-0.6612 0.915473,-1.1943 0,-0.5129 -0.288663,-0.9043 -0.832995,-1.1269 -0.321655,-0.135 -0.832995,-0.2092 -1.402071,-0.2092 l -2.886609,0 0,0.3171 0.148455,0 c 0.668045,0 0.74227,0.0338 0.74227,0.3172 l 0,0.1956 0,3.212 0,0.1957 c 0,0.2835 -0.07422,0.3172 -0.74227,0.3172 l -0.148455,0 0,0.3171 2.771151,0 0,-0.3171 -0.21444,0 c -0.668044,0 -0.742269,-0.0337 -0.742269,-0.3172 l 0,-0.1957 0,-1.336 z m 0,-0.3172 0,-1.7274 c 0,-0.3104 0.04948,-0.3442 0.503097,-0.3442 l 0.527836,0 c 0.857735,0 1.261858,0.3307 1.261858,1.046 0,0.695 -0.42062,1.0256 -1.294849,1.0256 l -0.997942,0 z m -7.17529,-2.4832 -0.346394,0 -1.896921,3.9341 c -0.164946,0.3508 -0.197932,0.398 -0.321645,0.506 -0.13196,0.1281 -0.362889,0.2092 -0.585571,0.2092 l -0.03299,0 0,0.3171 2.185575,0 0,-0.3171 -0.164947,0 c -0.445363,0 -0.668044,-0.1282 -0.668044,-0.3846 0,-0.081 0.02474,-0.1755 0.07422,-0.2835 l 0.272168,-0.5938 2.18558,0 0.445362,0.9042 c 0.04948,0.1012 0.06598,0.1485 0.06598,0.1823 0,0.1079 -0.206187,0.1754 -0.511341,0.1754 l -0.346394,0 0,0.3171 2.556706,0 0,-0.3171 -0.115458,0 c -0.412377,0 -0.503098,-0.054 -0.692789,-0.4319 l -2.1031,-4.2174 z m -0.404129,1.1067 0.931964,1.9164 -1.847433,0 0.915469,-1.9164 z m -5.690746,-1.0594 -0.313402,0 -0.329899,0.3981 c -0.585571,-0.3509 -0.907221,-0.4521 -1.459801,-0.4521 -0.80001,0 -1.459806,0.2632 -2.020633,0.8097 -0.52784,0.5129 -0.77526,1.0797 -0.77526,1.7747 0,1.4508 1.162893,2.4899 2.787646,2.4899 1.319593,0 2.160836,-0.6342 2.350526,-1.7678 l -0.387628,-0.054 c -0.08248,0.3576 -0.181447,0.6005 -0.329898,0.803 -0.338151,0.4655 -0.865987,0.7017 -1.534031,0.7017 -1.22063,0 -1.797953,-0.695 -1.797953,-2.1457 0,-0.7626 0.123713,-1.2754 0.404129,-1.6804 0.255667,-0.3778 0.767006,-0.614 1.294855,-0.614 0.577323,0 1.088663,0.2497 1.402071,0.6816 0.156698,0.2226 0.280411,0.4858 0.470106,1.0053 l 0.362884,0 -0.123712,-1.95 z m -8.255714,0.0067 -0.305153,0 -0.329898,0.4049 c -0.387628,-0.3036 -0.915469,-0.4656 -1.501033,-0.4656 -1.080416,0 -1.806193,0.5668 -1.806193,1.4102 0,0.7356 0.445361,1.1 1.657742,1.3564 l 0.783502,0.1619 c 0.610314,0.1283 0.668044,0.1418 0.841244,0.2496 0.247424,0.1553 0.37938,0.3779 0.37938,0.6411 0,0.2699 -0.123712,0.4926 -0.371132,0.6749 -0.27217,0.1956 -0.544338,0.2699 -0.997949,0.2699 -0.610306,0 -1.047422,-0.1552 -1.435049,-0.5061 -0.346399,-0.3171 -0.519594,-0.6343 -0.643304,-1.1539 l -0.354641,0 0.03299,1.9231 0.321651,0 0.37113,-0.4588 c 0.552585,0.371 1.014438,0.506 1.731968,0.506 1.21238,0 1.98764,-0.5802 1.98764,-1.4845 0,-0.4183 -0.1732,-0.776 -0.494848,-1.0324 -0.222682,-0.1754 -0.544332,-0.2902 -1.204133,-0.4251 l -0.882476,-0.1822 c -0.734022,-0.1552 -1.080416,-0.4183 -1.080416,-0.83 0,-0.4724 0.470106,-0.7963 1.171142,-0.7963 0.577316,0 1.047422,0.2026 1.377325,0.5871 0.239178,0.2767 0.387628,0.5601 0.494845,0.9042 l 0.35464,0 -0.09897,-1.7544 z m -11.150561,2.7059 0,-1.8355 0,-0.1956 c 0,-0.2834 0.07423,-0.3172 0.742272,-0.3172 l 0.156703,0 0,-0.3171 -2.71342,0 0,0.3171 0.148457,0 c 0.668041,0 0.74227,0.0338 0.74227,0.3172 l 0,0.1956 0,3.212 0,0.1957 c 0,0.2835 -0.07423,0.3172 -0.74227,0.3172 l -0.148457,0 0,0.3171 2.71342,0 0,-0.3171 -0.156703,0 c -0.668043,0 -0.742272,-0.0337 -0.742272,-0.3172 l 0,-0.1957 0,-0.8569 0.956705,-0.7894 1.435061,1.7206 c 0.131959,0.1619 0.164948,0.216 0.164948,0.2834 0,0.108 -0.1567,0.1552 -0.560827,0.1552 l -0.255673,0 0,0.3171 2.820634,0 0,-0.3171 -0.156699,0 c -0.453611,0 -0.569074,-0.0472 -0.808256,-0.3373 l -1.995886,-2.3551 1.228871,-1.0054 c 0.395879,-0.3442 0.898976,-0.5399 1.39383,-0.5399 l 0,-0.3171 -2.540225,0 0,0.3171 0.206187,0 c 0.379381,0 0.536086,0.0608 0.536086,0.2025 0,0.0944 -0.16495,0.2901 -0.404127,0.4858 l -2.020629,1.66 z m -9.220686,-2.6654 -1.698977,0 0,0.3171 0.206185,0 c 0.42062,0 0.610315,0.054 0.758766,0.2227 l 0,2.8679 c 0,0.9245 -0.164948,1.1201 -0.956704,1.1471 l 0,0.3171 2.350547,0 0,-0.3171 c -0.783528,-0.027 -0.94848,-0.2226 -0.94848,-1.1471 l 0,-2.5035 3.67839,4.0622 0.346396,0 0,-3.5021 c 0,-0.9245 0.164951,-1.1202 0.956707,-1.1472 l 0,-0.3171 -2.35053,0 0,0.3171 c 0.783508,0.027 0.948456,0.2227 0.948456,1.1472 l 0,2.1189 -3.290756,-3.5832 z m -5.360855,0.8299 0,-0.1956 c 0,-0.2834 0.07423,-0.3172 0.734025,-0.3172 l 0.16495,0 0,-0.3171 -2.72991,0 0,0.3171 0.164951,0 c 0.668041,0 0.742271,0.0338 0.742271,0.3172 l 0,0.1956 0,3.212 0,0.1957 c 0,0.2835 -0.07423,0.3172 -0.742271,0.3172 l -0.164951,0 0,0.3171 2.72991,0 0,-0.3171 -0.16495,0 c -0.659794,0 -0.734025,-0.0337 -0.734025,-0.3172 l 0,-0.1957 0,-3.212 z"
       id="path1508" />
    <path
       style="fill:#ffffff;stroke-width:1.0000000pt"
       d="M 305.96725,58.203980 L 307.32296,58.203980 L 307.32296,61.021380 C 307.32296,61.553280 307.30413,61.882780 307.26647,62.009880 C 307.13938,62.494780 306.84988,62.828980 306.39797,63.012580 C 306.08729,63.139680 305.62832,63.203180 305.02108,63.203180 C 303.58534,63.203180 302.86748,62.774780 302.86748,61.918080 L 304.30086,61.911080 C 304.39500,62.179380 304.66332,62.313480 305.10581,62.313480 C 305.43062,62.313480 305.65892,62.212280 305.79073,62.009880 C 305.88958,61.854580 305.93901,61.600380 305.93901,61.247280 L 305.93901,61.127280 C 305.51064,61.470880 305.03991,61.642680 304.52681,61.642680 C 303.97135,61.642680 303.52650,61.466180 303.19228,61.113180 C 302.85806,60.755380 302.69095,60.298780 302.69095,59.743280 C 302.69095,59.258480 302.88160,58.853580 303.26289,58.528780 C 303.62065,58.227580 304.04902,58.076880 304.54799,58.076880 C 305.19290,58.076880 305.66598,58.286380 305.96725,58.705380 L 305.96725,58.203980 z M 305.90370,59.842180 C 305.90370,59.616180 305.81426,59.437380 305.63539,59.305480 C 305.46121,59.168980 305.25645,59.100780 305.02108,59.100780 C 304.76688,59.100780 304.55741,59.173680 304.39265,59.319680 C 304.23260,59.465580 304.15258,59.663280 304.15258,59.912780 C 304.15258,60.119880 304.23496,60.298780 304.39971,60.449380 C 304.47974,60.519980 304.56682,60.574180 304.66097,60.611780 C 304.75512,60.649480 304.85632,60.668280 304.96459,60.668280 C 305.23762,60.668280 305.45651,60.600080 305.62126,60.463480 C 305.80956,60.312880 305.90370,60.105780 305.90370,59.842180 z M 299.60530,58.203980 L 301.01750,58.203980 L 301.01750,58.818280 C 301.26228,58.366380 301.61768,58.140480 302.08371,58.140480 L 302.50737,58.182780 L 302.50737,59.474980 C 302.29554,59.437380 302.10960,59.418480 301.94955,59.418480 C 301.35172,59.418480 301.05280,59.773880 301.05280,60.484680 L 301.05280,61.854580 L 299.60530,61.854580 L 299.60530,58.203980 z M 296.93624,58.076880 C 297.56232,58.076880 298.08248,58.241680 298.49672,58.571180 C 298.93450,58.924280 299.15340,59.411480 299.15340,60.032780 C 299.15340,60.640080 298.93921,61.122580 298.51084,61.480280 C 298.10131,61.809780 297.58821,61.974580 296.97155,61.974580 C 296.28899,61.974580 295.74294,61.821580 295.33340,61.515580 C 294.87208,61.176680 294.64142,60.675380 294.64142,60.011580 C 294.64142,59.390280 294.87443,58.903080 295.34046,58.549980 C 295.76412,58.234580 296.29605,58.076880 296.93624,58.076880 z M 296.90094,60.943680 C 297.14101,60.943680 297.33637,60.854280 297.48700,60.675380 C 297.63764,60.496480 297.71295,60.282280 297.71295,60.032780 C 297.71295,59.783280 297.64234,59.569180 297.50112,59.390280 C 297.35990,59.211380 297.16690,59.121980 296.92212,59.121980 C 296.66793,59.121980 296.46316,59.208980 296.30782,59.383180 C 296.23250,59.472680 296.17601,59.569180 296.13835,59.672680 C 296.10069,59.771580 296.08186,59.891580 296.08186,60.032780 C 296.08186,60.291680 296.15247,60.508280 296.29369,60.682380 C 296.43491,60.856580 296.63733,60.943680 296.90094,60.943680 z M 292.85499,60.428180 L 294.30249,60.428180 L 294.30249,61.854580 L 292.85499,61.854580 L 292.85499,60.428180 z M 289.28919,60.414080 C 289.44453,60.790680 289.69167,60.978980 290.03059,60.978980 C 290.38835,60.978980 290.61430,60.880080 290.70845,60.682380 C 290.79318,60.682380 291.00501,60.696580 291.34394,60.724780 C 291.68287,60.752980 291.97943,60.767180 292.23362,60.767180 C 291.99355,61.233180 291.68993,61.557980 291.32275,61.741580 C 290.98853,61.901580 290.54605,61.981680 289.99529,61.981680 C 289.35038,61.981680 288.83258,61.814580 288.44187,61.480280 C 288.02292,61.127280 287.81344,60.632980 287.81344,59.997480 C 287.81344,59.390280 288.04175,58.910080 288.49836,58.557080 C 288.90790,58.246380 289.43276,58.091080 290.07296,58.091080 C 290.69903,58.091080 291.21213,58.251080 291.61226,58.571180 C 292.01238,58.886580 292.24068,59.352580 292.29717,59.969280 L 292.31129,60.414080 L 289.28919,60.414080 z M 290.81436,59.552680 C 290.75788,59.223180 290.52016,59.058380 290.10120,59.058380 C 289.94115,59.058380 289.77404,59.103080 289.59987,59.192580 C 289.43041,59.281980 289.33862,59.401980 289.32449,59.552680 L 290.81436,59.552680 z M 283.04727,58.203980 L 284.48771,58.203980 L 284.48065,58.662980 C 284.87607,58.281680 285.32327,58.091080 285.82224,58.091080 C 286.37771,58.091080 286.81784,58.265180 287.14265,58.613580 C 287.47216,58.957180 287.63692,59.409080 287.63692,59.969280 C 287.63692,60.548280 287.47687,61.021380 287.15677,61.388480 C 286.82255,61.779180 286.37300,61.974580 285.80812,61.974580 C 285.50214,61.974580 285.25972,61.939280 285.08084,61.868680 C 284.90667,61.798080 284.70896,61.654480 284.48771,61.437980 L 284.48771,63.125480 L 283.04727,63.125480 L 283.04727,58.203980 z M 285.32091,60.950780 C 285.57981,60.950780 285.78929,60.861280 285.94934,60.682380 C 286.10939,60.498880 286.18941,60.277580 286.18941,60.018680 C 286.18941,59.755080 286.11410,59.540880 285.96346,59.376180 C 285.82224,59.206680 285.61983,59.121980 285.35622,59.121980 C 285.12085,59.121980 284.91608,59.206680 284.74191,59.376180 C 284.56774,59.545580 284.48065,59.752680 284.48065,59.997480 C 284.48065,60.251680 284.55832,60.475280 284.71367,60.668280 C 284.86901,60.856580 285.07142,60.950780 285.32091,60.950780 z M 278.50705,59.305480 C 278.62474,58.830080 278.88599,58.493480 279.29082,58.295780 C 279.58739,58.154580 280.01811,58.083980 280.58299,58.083980 C 281.11021,58.083980 281.53622,58.187580 281.86103,58.394680 C 282.25173,58.644180 282.44709,59.018380 282.44709,59.517380 L 282.44709,61.204980 C 282.44709,61.313180 282.45650,61.412080 282.47533,61.501480 C 282.49416,61.590980 282.53182,61.708580 282.58831,61.854580 L 281.09844,61.854580 L 281.04901,61.430880 C 280.70538,61.783980 280.29349,61.960480 279.81334,61.960480 C 279.42263,61.960480 279.08606,61.868680 278.80362,61.685080 C 278.48823,61.468580 278.33053,61.171980 278.33053,60.795380 C 278.33053,60.385880 278.46469,60.082280 278.73301,59.884480 C 278.92601,59.743280 279.23434,59.639780 279.65800,59.573880 L 280.68184,59.453780 C 280.90308,59.416180 281.01371,59.357280 281.01371,59.277280 C 281.01371,59.093680 280.87484,59.001880 280.59711,59.001880 C 280.43706,59.001880 280.30761,59.020780 280.20875,59.058380 C 280.10990,59.091380 280.03223,59.173680 279.97574,59.305480 L 278.50705,59.305480 z M 279.77803,60.661280 C 279.77803,60.858980 279.94514,60.957780 280.27936,60.957780 C 280.48649,60.957780 280.67007,60.891880 280.83012,60.760080 C 280.99488,60.628280 281.07726,60.463480 281.07726,60.265780 L 280.12402,60.385880 C 280.05812,60.390580 279.98280,60.421180 279.89807,60.477680 C 279.81805,60.529480 279.77803,60.590580 279.77803,60.661280 z M 278.20343,59.623280 L 276.76299,59.693880 C 276.67355,59.500880 276.58646,59.361980 276.50173,59.277280 C 276.38876,59.178380 276.23342,59.128980 276.03571,59.128980 C 275.77210,59.128980 275.56733,59.223180 275.42140,59.411480 C 275.28018,59.594980 275.20957,59.823380 275.20957,60.096380 C 275.20957,60.331680 275.28960,60.531780 275.44964,60.696580 C 275.60969,60.856580 275.80740,60.936580 276.04277,60.936580 C 276.41935,60.936580 276.66414,60.727180 276.77711,60.308180 L 278.23168,60.371780 C 277.99160,61.440280 277.25726,61.974580 276.02865,61.974580 C 275.37433,61.974580 274.84475,61.814580 274.43992,61.494480 C 273.98802,61.146080 273.76207,60.656480 273.76207,60.025780 C 273.76207,59.385580 274.00685,58.891280 274.49641,58.542980 C 274.92949,58.232280 275.47789,58.076880 276.14162,58.076880 C 276.66884,58.076880 277.11369,58.208680 277.47615,58.472280 C 277.84332,58.731280 278.08575,59.114880 278.20343,59.623280 z M 270.79645,60.661280 C 270.89531,60.825980 271.02240,60.934280 271.17774,60.986080 C 271.28601,61.018980 271.45312,61.035480 271.67908,61.035480 C 271.74027,61.035480 271.78499,61.033080 271.81323,61.028380 C 271.84148,61.018980 271.87914,61.002480 271.92621,60.978980 C 272.02977,60.936580 272.08155,60.873080 272.08155,60.788380 C 272.08155,60.661280 271.85795,60.574180 271.41076,60.527080 C 270.80351,60.456480 270.38927,60.376480 270.16802,60.286980 C 269.72083,60.108080 269.49723,59.799780 269.49723,59.361980 C 269.49723,58.886580 269.72553,58.540580 270.18214,58.324080 C 270.52578,58.159280 270.96356,58.076880 271.49549,58.076880 C 272.60642,58.076880 273.25368,58.455880 273.43726,59.213780 L 272.06743,59.305480 C 271.99682,59.183180 271.90738,59.093680 271.79911,59.037180 C 271.70026,59.004280 271.57316,58.987780 271.41782,58.987780 C 271.06006,58.987780 270.88118,59.072480 270.88118,59.241980 C 270.88118,59.298480 270.94238,59.347880 271.06477,59.390280 C 271.19187,59.432580 271.50490,59.484380 272.00388,59.545580 C 272.50286,59.606780 272.84885,59.696280 273.04185,59.813880 C 273.33841,59.983380 273.48669,60.261080 273.48669,60.647080 C 273.48669,61.089580 273.28427,61.433280 272.87944,61.677980 C 272.54522,61.875680 272.13569,61.974580 271.65083,61.974580 C 271.04829,61.974580 270.58227,61.906280 270.25275,61.769780 C 269.78673,61.581480 269.49488,61.240280 269.37719,60.745980 L 270.79645,60.661280 z M 264.87228,56.876580 L 266.31272,56.876580 L 266.31272,59.157280 L 267.48485,58.203980 L 269.48311,58.203980 L 267.73198,59.573880 L 269.49017,61.861580 L 267.78847,61.861580 L 266.70814,60.371780 L 266.31272,60.661280 L 266.31272,61.854580 L 264.87228,61.854580 L 264.87228,56.876580 z M 260.02138,58.196980 L 261.46888,58.196980 L 261.46888,58.677080 C 261.84076,58.291080 262.29502,58.098080 262.83165,58.098080 C 263.26002,58.098080 263.60601,58.218180 263.86962,58.458180 C 264.13794,58.693580 264.27209,59.027780 264.27209,59.460880 L 264.27209,61.868680 L 262.85284,61.868680 L 262.83871,59.813880 C 262.83871,59.625580 262.77987,59.472680 262.66219,59.354980 C 262.54451,59.237280 262.39387,59.178380 262.21028,59.178380 C 261.97492,59.178380 261.79133,59.270180 261.65953,59.453780 C 261.53243,59.637380 261.46888,59.851580 261.46888,60.096380 L 261.46888,61.854580 L 260.02138,61.854580 L 260.02138,58.196980 z M 258.03724,58.203980 L 259.47768,58.203980 L 259.47768,61.840380 L 258.03724,61.840380 L 258.03724,58.203980 z M 258.04430,56.869480 L 259.48474,56.869480 L 259.48474,57.850980 L 258.04430,57.850980 L 258.04430,56.869480 z M 255.91894,60.428180 L 257.36644,60.428180 L 257.36644,61.854580 L 255.91894,61.854580 L 255.91894,60.428180 z M 250.22072,58.203980 L 250.83503,60.477680 C 250.87739,60.204580 250.97154,59.825680 251.11747,59.340880 C 251.17866,59.124280 251.23750,58.903080 251.29399,58.677080 C 251.33636,58.517080 251.37402,58.359380 251.40697,58.203980 L 252.88978,58.211080 L 253.22164,59.347880 C 253.32991,59.766880 253.40994,60.155180 253.46172,60.512980 C 253.48996,60.324680 253.52291,60.145780 253.56057,59.976280 C 253.59823,59.802180 253.65472,59.592680 253.73003,59.347880 C 253.78652,59.159580 253.84066,58.980680 253.89244,58.811280 C 253.94422,58.637080 254.00777,58.434680 254.08308,58.203980 L 255.55883,58.203980 L 254.27373,61.861580 L 252.71325,61.861580 L 252.15543,59.764480 L 251.55525,61.861580 L 250.00183,61.861580 L 248.71673,58.203980 L 250.22072,58.203980 z M 243.68930,58.203980 L 244.30361,60.477680 C 244.34598,60.204580 244.44012,59.825680 244.58605,59.340880 C 244.64724,59.124280 244.70609,58.903080 244.76257,58.677080 C 244.80494,58.517080 244.84260,58.359380 244.87555,58.203980 L 246.35836,58.211080 L 246.69022,59.347880 C 246.79849,59.766880 246.87852,60.155180 246.93030,60.512980 C 246.95854,60.324680 246.99149,60.145780 247.02915,59.976280 C 247.06681,59.802180 247.12330,59.592680 247.19862,59.347880 C 247.25510,59.159580 247.30924,58.980680 247.36102,58.811280 C 247.41280,58.637080 247.47635,58.434680 247.55167,58.203980 L 249.02741,58.203980 L 247.74231,61.861580 L 246.18183,61.861580 L 245.62401,59.764480 L 245.02383,61.861580 L 243.47041,61.861580 L 242.18531,58.203980 L 243.68930,58.203980 z M 237.15789,58.203980 L 237.77219,60.477680 C 237.81456,60.204580 237.90870,59.825680 238.05463,59.340880 C 238.11583,59.124280 238.17467,58.903080 238.23116,58.677080 C 238.27352,58.517080 238.31118,58.359380 238.34413,58.203980 L 239.82694,58.211080 L 240.15881,59.347880 C 240.26708,59.766880 240.34710,60.155180 240.39888,60.512980 C 240.42712,60.324680 240.46008,60.145780 240.49773,59.976280 C 240.53539,59.802180 240.59188,59.592680 240.66720,59.347880 C 240.72369,59.159580 240.77782,58.980680 240.82960,58.811280 C 240.88138,58.637080 240.94493,58.434680 241.02025,58.203980 L 242.49600,58.203980 L 241.21089,61.861580 L 239.65042,61.861580 L 239.09260,59.764480 L 238.49241,61.861580 L 236.93899,61.861580 L 235.65389,58.203980 L 237.15789,58.203980 z "
       id="path1517" />
    <g
       transform="matrix(0.0294185,0,0,0.0294185,0.1569075,53.985559)"
       id="g1515"
       style="filter:url(#filter56)">
      <path
         id="path1516"
         d="M 397.64309,320.25301 280.39197,282.517 l -29.6497,-157.68253 94.33998,-95.687687 48.51771,17.520281 90.29683,88.949126 -86.2537,184.63682 z"
         style="font-size:12px;fill:#ffffff;fill-rule:evenodd;stroke:#000000;stroke-width:0.93619299pt" />
      <path
         id="path1518"
         d="m 476.95792,339.17168 c 18.82405,3.76439 22.5905,16.94193 18.82405,20.70634 -3.76341,3.76538 -13.17547,7.52979 -20.70534,1.88212 -7.53185,-5.64653 -7.53185,-18.82407 1.88129,-22.58846 z"
         style="font-size:12px;fill:#000000;fill-opacity:1;fill-rule:evenodd;stroke-width:1pt" />
      <path
         id="path1519"
         d="m 286.46194,340.42914 c -1.83424,0.48921 -17.15789,-12.71577 -29.29285,-6.59534 -12.13187,6.11956 -20.27633,19.82286 -8.94233,25.44602 11.33508,5.62316 19.43757,-0.86115 29.37437,-7.83863 9.9379,-6.97642 9.57933,-8.32059 8.86081,-11.01205 z"
         style="font-size:12px;fill:#000000;fill-opacity:1;fill-rule:evenodd;stroke-width:1pt" />
      <path
         id="path1520"
         d="m 510.35756,306.92856 c 10.23738,-2.55977 33.88577,0 30.11932,15.05778 -3.76334,15.06172 -35.76391,9.41193 -56.47317,1.88522 -1.8823,-15.06073 21.52866,-15.73733 26.35385,-16.943 z"
         style="font-size:12px;fill:#000000;fill-opacity:1;fill-rule:evenodd;stroke-width:1pt" />
      <path
         id="path1521"
         d="m 359.2403,21.362537 c -11.31337,0 -22.6056,4.320558 -31.27474,12.989693 L 173.87387,188.41466 c -8.4969,8.49674 -12.76227,19.54347 -12.93118,30.63111 l -0.0585,0 c 0,0.0395 0.0566,0.0774 0.0585,0.11702 -0.002,0.18609 -0.0585,0.36977 -0.0585,0.55586 l 0.2633,0 c 2.94912,11.22052 79.14951,25.52333 87.65118,34.02481 12.83905,12.83917 -49.23346,22.26805 -36.39456,35.10728 12.83906,12.83905 77.59023,24.84256 90.4305,37.6818 12.83908,12.83907 -26.2385,26.51035 -13.39928,39.34942 12.83907,12.83922 55.96669,-3.20939 48.15548,30.28002 17.33829,17.33828 53.51222,9.05882 77.73337,-8.27946 12.83906,-12.83907 -24.62937,-11.70675 -11.7902,-24.54584 12.83907,-12.83923 45.24731,-12.90848 72.55505,-43.62079 -10.99163,-17.09473 -46.98101,-24.37453 -34.14183,-37.21372 12.83906,-12.83906 37.79989,-6.31794 91.65925,-30.77738 26.29193,-11.94081 24.11992,-21.0102 24.01923,-32.00614 -0.002,-0.23138 0,-0.43973 0,-0.67288 l -0.0585,0 C 557.3983,207.95812 553.10345,196.9114 544.60673,188.41466 L 390.54428,34.35223 C 381.87515,25.683095 370.55366,21.362537 359.2403,21.362537 z m -1.31652,20.040402 c 5.02949,0.131024 9.09163,3.965079 17.05628,9.127893 l 72.78909,53.977438 c 0.79681,0.51671 1.55569,1.05573 2.25272,1.60908 0.69703,0.55327 1.33373,1.1401 1.9309,1.72612 0.5972,0.58495 1.14004,1.17206 1.63834,1.78461 0.49726,0.61244 0.94845,1.23853 1.34577,1.8724 0.39844,0.6349 0.75476,1.27981 1.05322,1.93089 0.29867,0.65226 0.53281,1.32502 0.7314,1.98941 0.19976,0.66341 0.36832,1.31895 0.46811,1.98941 0.0999,0.67165 0.14627,1.34516 0.14627,2.01867 l -43.12343,-20.830311 -4.30065,32.562001 -23.72668,-11.11731 -36.62858,24.45807 -14.01366,-48.33101 -18.05098,42.275 -50.40821,5.03205 0.55587,-22.4394 c 0,-5.38972 29.05729,-43.122051 46.75119,-52.105048 l 32.38646,-23.258575 c 4.77873,-3.097693 8.12887,-4.35 11.14657,-4.271388 z m -66.9964,220.210391 c 22.94411,5.95032 48.47561,13.75705 68.95655,13.89664 l 0.87768,9.21566 c -17.53811,-1.80778 -54.64815,-10.27551 -63.39789,-14.74506 l -6.43634,-8.36724 z"
         style="font-size:12px;fill:#000000;fill-opacity:1;fill-rule:evenodd;stroke-width:1pt" />
    </g>
    <use
       style="color:#000000;fill:#ffffff;fill-opacity:0.06461535;fill-rule:nonzero;stroke:none;stroke-width:1pt;marker:none;visibility:visible;display:inline;overflow:visible;font-family:sans-serif"
       height="1052.3622"
       width="744.09448"
       transform="matrix(5.176729,0,0,5.176729,-102.7023,-256.6246)"
       id="use1328"
       xlink:href="#path1508"
       y="0"
       x="0" />
    <text
       xml:space="preserve"
       style="font-size:6.96932268px;font-style:normal;font-variant:normal;font-weight:normal;font-stretch:normal;text-align:start;line-height:125%;writing-mode:lr-tb;text-anchor:start;opacity:0.5;fill:#000000;fill-opacity:1;stroke:none;font-family:sans-serif"
       x="-70.83046"
       y="-6.5672836"
       id="text7519"
       sodipodi:linespacing="125%"
       transform="matrix(0,-1,1,0,0,0)"><tspan
         sodipodi:role="line"
         id="tspan7521"
         x="-70.83046"
         y="-6.5672836"
         style="letter-spacing:0.29056421">Uporabite <tspan
   style="font-weight:bold"
   id="tspan7523">Ctrl+puščica navzgor</tspan> za drsenje </tspan></text>
    <path
       transform="matrix(-0.614962,-4.549602e-2,-6.191898e-2,0.451855,207.7892,-179.1536)"
       style="opacity:0.5;color:#000000;fill:#000000;fill-opacity:1;fill-rule:evenodd;stroke:none;stroke-width:4.32172871;marker:none;visibility:visible;display:inline;overflow:visible"
       d="m 338.52736,197.82364 -13.1081,-1.27087 7.65466,-10.71652 z"
       id="path7527" />
  </g>
</svg>
