<?xml version="1.0" encoding="UTF-8" standalone="no"?>
<!-- Created with Inkscape (http://www.inkscape.org/) -->
<svg
   xmlns:dc="http://purl.org/dc/elements/1.1/"
   xmlns:cc="http://web.resource.org/cc/"
   xmlns:rdf="http://www.w3.org/1999/02/22-rdf-syntax-ns#"
   xmlns:svg="http://www.w3.org/2000/svg"
   xmlns="http://www.w3.org/2000/svg"
   xmlns:xlink="http://www.w3.org/1999/xlink"
   xmlns:sodipodi="http://sodipodi.sourceforge.net/DTD/sodipodi-0.dtd"
   xmlns:inkscape="http://www.inkscape.org/namespaces/inkscape"
   width="750.00000px"
   height="180.00000px"
   id="svg4143"
   sodipodi:version="0.32"
   inkscape:version="0.41+cvs"
   sodipodi:docbase="/home/turnip/data/Websites/inkscape/doc-docbook"
   sodipodi:docname="tutorial-html-footer.svg"
   inkscape:export-filename="/home/turnip/data/Websites/inkscape/doc-docbook/tutorial-html-footer.png"
   inkscape:export-xdpi="90.000000"
   inkscape:export-ydpi="90.000000">
  <defs
     id="defs3">
    <linearGradient
       id="linearGradient841">
      <stop
         style="stop-color:#0082ab;stop-opacity:1;"
         offset="0.00000000"
         id="stop842" />
      <stop
         style="stop-color:#0082ab;stop-opacity:0.5;"
         offset="0.34999999"
         id="stop1842" />
      <stop
         style="stop-color:#0082ab;stop-opacity:0.22;"
         offset="0.63000000"
         id="stop1843" />
      <stop
         style="stop-color:#0082ab;stop-opacity:0;"
         offset="1.00000000"
         id="stop843" />
    </linearGradient>
    <linearGradient
       inkscape:collect="always"
       xlink:href="#linearGradient841"
       id="linearGradient2465"
       x1="76.846633"
       y1="-7640.3043"
       x2="76.846633"
       y2="-7528.6605"
       gradientTransform="matrix(5.052420,0.000000,0.000000,1.093371,1.822604e-2,8200.759)"
       gradientUnits="userSpaceOnUse" />
    <radialGradient
       inkscape:collect="always"
       xlink:href="#linearGradient666"
       id="radialGradient2456"
       cx="233.92318"
       cy="1036.4888"
       fx="233.92318"
       fy="1036.4888"
       r="98.260411"
       gradientTransform="scale(1.825742,0.547723)"
       gradientUnits="userSpaceOnUse" />
    <radialGradient
       inkscape:collect="always"
       xlink:href="#linearGradient666"
       id="radialGradient2455"
       cx="233.92318"
       cy="1036.4888"
       fx="233.92318"
       fy="1036.4888"
       r="98.260411"
       gradientTransform="scale(1.825742,0.547723)"
       gradientUnits="userSpaceOnUse" />
    <radialGradient
       inkscape:collect="always"
       xlink:href="#linearGradient666"
       id="radialGradient2454"
       cx="233.92318"
       cy="1036.4888"
       fx="233.92318"
       fy="1036.4888"
       r="98.260411"
       gradientTransform="scale(1.825742,0.547723)"
       gradientUnits="userSpaceOnUse" />
    <radialGradient
       inkscape:collect="always"
       xlink:href="#linearGradient666"
       id="radialGradient2453"
       cx="233.92318"
       cy="1036.4888"
       fx="233.92318"
       fy="1036.4888"
       r="98.260411"
       gradientTransform="scale(1.825742,0.547723)"
       gradientUnits="userSpaceOnUse" />
    <radialGradient
       inkscape:collect="always"
       xlink:href="#linearGradient666"
       id="radialGradient2452"
       cx="233.92318"
       cy="1036.4888"
       fx="233.92318"
       fy="1036.4888"
       r="98.260411"
       gradientTransform="scale(1.825742,0.547723)"
       gradientUnits="userSpaceOnUse" />
    <radialGradient
       inkscape:collect="always"
       xlink:href="#linearGradient666"
       id="radialGradient2451"
       cx="233.92318"
       cy="1036.4888"
       fx="233.92318"
       fy="1036.4888"
       r="98.260411"
       gradientTransform="scale(1.825742,0.547723)"
       gradientUnits="userSpaceOnUse" />
    <radialGradient
       inkscape:collect="always"
       xlink:href="#linearGradient666"
       id="radialGradient2450"
       cx="233.92318"
       cy="1036.4888"
       fx="233.92318"
       fy="1036.4888"
       r="98.260411"
       gradientTransform="scale(1.825742,0.547723)"
       gradientUnits="userSpaceOnUse" />
    <radialGradient
       inkscape:collect="always"
       xlink:href="#linearGradient666"
       id="radialGradient2449"
       cx="233.92318"
       cy="1036.4888"
       fx="233.92318"
       fy="1036.4888"
       r="98.260411"
       gradientTransform="scale(1.825742,0.547723)"
       gradientUnits="userSpaceOnUse" />
    <radialGradient
       inkscape:collect="always"
       xlink:href="#linearGradient666"
       id="radialGradient2448"
       cx="233.92318"
       cy="1036.4888"
       fx="233.92318"
       fy="1036.4888"
       r="98.260411"
       gradientTransform="scale(1.825742,0.547723)"
       gradientUnits="userSpaceOnUse" />
    <linearGradient
       id="linearGradient666">
      <stop
         style="stop-color:#ffffff;stop-opacity:0.336;"
         offset="0.00000000"
         id="stop667" />
      <stop
         style="stop-color:#ffffff;stop-opacity:0;"
         offset="1.00000000"
         id="stop668" />
    </linearGradient>
    <radialGradient
       inkscape:collect="always"
       xlink:href="#linearGradient666"
       id="radialGradient2447"
       cx="233.92318"
       cy="1036.4888"
       fx="233.92318"
       fy="1036.4888"
       r="98.260411"
       gradientTransform="scale(1.825742,0.547723)"
       gradientUnits="userSpaceOnUse" />
  </defs>
  <sodipodi:namedview
     id="base"
     pagecolor="#ffffff"
     bordercolor="#666666"
     borderopacity="1.0"
     inkscape:pageopacity="1.0000000"
     inkscape:pageshadow="2"
     inkscape:zoom="1.5733333"
     inkscape:cx="375.00000"
     inkscape:cy="89.999984"
     inkscape:document-units="px"
     inkscape:current-layer="layer1"
     inkscape:window-width="1272"
     inkscape:window-height="967"
     inkscape:window-x="0"
     inkscape:window-y="24" />
  <metadata
     id="metadata4">
    <rdf:RDF
       id="RDF5">
      <cc:Work
         rdf:about=""
         id="Work6">
        <dc:format
           id="format7">image/svg+xml</dc:format>
        <dc:type
           id="type9"
           rdf:resource="http://purl.org/dc/dcmitype/StillImage" />
      </cc:Work>
    </rdf:RDF>
  </metadata>
  <g
     inkscape:label="Layer 1"
     inkscape:groupmode="layer"
     id="layer1">
    <rect
       style="font-size:12.000000;fill:url(#linearGradient2465);fill-opacity:1.0000000;fill-rule:evenodd;stroke:none;stroke-width:3.0611501"
       id="rect1494"
       width="752.09210"
       height="162.75659"
       x="0.060408790"
       y="-180.04362"
       ry="6.1828303"
       rx="0.0000000"
       transform="scale(1.000000,-1.000000)" />
    <path
       style="fill:#ffffff;fill-opacity:1.0000000;stroke-width:1.0000000pt"
       d="M 189.27733,151.67269 L 177.67276,151.67269 L 177.67276,152.41507 L 178.02032,152.41507 C 179.58434,152.41507 179.75813,152.49421 179.75813,153.15769 L 179.75813,153.61563 L 179.75813,161.13548 L 179.75813,161.59365 C 179.75813,162.25737 179.58434,162.33627 178.02032,162.33627 L 177.67276,162.33627 L 177.67276,163.07866 L 189.52834,163.07866 L 189.91452,158.86080 L 189.06494,158.86080 C 188.81392,159.96653 188.36983,160.94608 187.90640,161.40425 C 187.30785,162.03614 186.20725,162.33627 184.58531,162.33627 L 183.31093,162.33627 C 182.73168,162.33627 182.24895,162.24145 182.07518,162.09934 C 181.94001,162.00429 181.92070,161.90971 181.92070,161.57796 L 181.92070,157.54974 L 182.30687,157.54974 C 183.48471,157.54974 183.96741,157.64432 184.35359,157.97606 C 184.85562,158.38671 185.04870,158.89240 185.08734,159.82442 L 185.99484,159.82442 L 185.99484,154.64270 L 185.08734,154.64270 C 184.99078,156.19069 184.21843,156.80688 182.38411,156.80688 L 181.92070,156.80688 L 181.92070,153.20498 C 181.92070,152.52581 182.09449,152.41507 183.13714,152.41507 L 184.14120,152.41507 C 185.84037,152.41507 186.67064,152.55742 187.32714,152.99966 C 187.96433,153.41031 188.42774,154.29504 188.71740,155.71684 L 189.54765,155.71684 L 189.27733,151.67269 z M 163.65462,158.00768 L 165.83652,158.00768 C 167.57430,158.00768 168.48180,157.89717 169.25415,157.59680 C 170.62508,157.05973 171.39743,156.04881 171.39743,154.80073 C 171.39743,153.59994 170.72162,152.68361 169.44725,152.16246 C 168.69420,151.84640 167.49706,151.67269 166.16475,151.67269 L 159.40669,151.67269 L 159.40669,152.41507 L 159.75426,152.41507 C 161.31826,152.41507 161.49204,152.49421 161.49204,153.15769 L 161.49204,153.61563 L 161.49204,161.13548 L 161.49204,161.59365 C 161.49204,162.25737 161.31826,162.33627 159.75426,162.33627 L 159.40669,162.33627 L 159.40669,163.07866 L 165.89445,163.07866 L 165.89445,162.33627 L 165.39240,162.33627 C 163.82839,162.33627 163.65462,162.25737 163.65462,161.59365 L 163.65462,161.13548 L 163.65462,158.00768 z M 163.65462,157.26505 L 163.65462,153.22091 C 163.65462,152.49421 163.77047,152.41507 164.83247,152.41507 L 166.06822,152.41507 C 168.07632,152.41507 169.02244,153.18930 169.02244,154.86394 C 169.02244,156.49106 168.03770,157.26505 165.99098,157.26505 L 163.65462,157.26505 z M 146.85601,151.45144 L 146.04504,151.45144 L 141.60402,160.66186 C 141.21785,161.48315 141.14063,161.59365 140.85099,161.84650 C 140.54205,162.14640 140.00140,162.33627 139.48007,162.33627 L 139.40283,162.33627 L 139.40283,163.07866 L 144.51965,163.07866 L 144.51965,162.33627 L 144.13347,162.33627 C 143.09080,162.33627 142.56946,162.03614 142.56946,161.43585 C 142.56946,161.24622 142.62739,161.02497 142.74324,160.77214 L 143.38043,159.38194 L 148.49725,159.38194 L 149.53993,161.49884 C 149.65578,161.73576 149.69440,161.84650 149.69440,161.92563 C 149.69440,162.17824 149.21167,162.33627 148.49725,162.33627 L 147.68628,162.33627 L 147.68628,163.07866 L 153.67198,163.07866 L 153.67198,162.33627 L 153.40168,162.33627 C 152.43623,162.33627 152.22384,162.20985 151.77974,161.32511 L 146.85601,151.45144 z M 145.90987,154.04242 L 148.09177,158.52905 L 143.76660,158.52905 L 145.90987,154.04242 z M 132.58685,151.56218 L 131.85310,151.56218 L 131.08077,152.49421 C 129.70982,151.67269 128.95678,151.43576 127.66310,151.43576 C 125.79014,151.43576 124.24545,152.05196 122.93245,153.33141 C 121.69669,154.53220 121.11743,155.85918 121.11743,157.48629 C 121.11743,160.88287 123.83996,163.31558 127.64381,163.31558 C 130.73320,163.31558 132.70269,161.83081 133.14678,159.17686 L 132.23930,159.05043 C 132.04620,159.88764 131.81450,160.45631 131.46694,160.93039 C 130.67527,162.02021 129.43951,162.57320 127.87551,162.57320 C 125.01781,162.57320 123.66617,160.94608 123.66617,157.54974 C 123.66617,155.76436 123.95582,154.56380 124.61231,153.61563 C 125.21088,152.73113 126.40802,152.17814 127.64381,152.17814 C 128.99541,152.17814 130.19255,152.76273 130.92630,153.77389 C 131.29316,154.29504 131.58278,154.91123 132.02689,156.12747 L 132.87648,156.12747 L 132.58685,151.56218 z M 113.25876,151.57787 L 112.54435,151.57787 L 111.77200,152.52581 C 110.86449,151.81503 109.62873,151.43576 108.25782,151.43576 C 105.72837,151.43576 104.02922,152.76273 104.02922,154.73729 C 104.02922,156.45945 105.07188,157.31258 107.91028,157.91285 L 109.74459,158.29189 C 111.17343,158.59227 111.30859,158.62387 111.71408,158.87625 C 112.29336,159.23983 112.60227,159.76097 112.60227,160.37718 C 112.60227,161.00906 112.31265,161.53044 111.73339,161.95723 C 111.09619,162.41517 110.45900,162.58911 109.39701,162.58911 C 107.96820,162.58911 106.94482,162.22577 106.03731,161.40425 C 105.22633,160.66186 104.82086,159.91924 104.53124,158.70276 L 103.70096,158.70276 L 103.77820,163.20508 L 104.53124,163.20508 L 105.40012,162.13095 C 106.69380,162.99953 107.77509,163.31558 109.45496,163.31558 C 112.29336,163.31558 114.10837,161.95723 114.10837,159.84011 C 114.10837,158.86080 113.70288,158.02336 112.94985,157.42308 C 112.42851,157.01244 111.67547,156.74367 110.13076,156.42785 L 108.06473,156.00129 C 106.34626,155.63793 105.53527,155.02197 105.53527,154.05811 C 105.53527,152.95213 106.63588,152.19383 108.27714,152.19383 C 109.62873,152.19383 110.72933,152.66815 111.50169,153.56834 C 112.06164,154.21613 112.40920,154.87963 112.66021,155.68522 L 113.49049,155.68522 L 113.25876,151.57787 z M 87.153352,157.91285 L 87.153352,153.61563 L 87.153352,153.15769 C 87.153352,152.49421 87.327137,152.41507 88.891136,152.41507 L 89.258022,152.41507 L 89.258022,151.67269 L 82.905430,151.67269 L 82.905430,152.41507 L 83.252977,152.41507 C 84.816976,152.41507 84.990762,152.49421 84.990762,153.15769 L 84.990762,153.61563 L 84.990762,161.13548 L 84.990762,161.59365 C 84.990762,162.25737 84.816976,162.33627 83.252977,162.33627 L 82.905430,162.33627 L 82.905430,163.07866 L 89.258022,163.07866 L 89.258022,162.33627 L 88.891136,162.33627 C 87.327137,162.33627 87.153352,162.25737 87.153352,161.59365 L 87.153352,161.13548 L 87.153352,159.12932 L 89.393181,157.28121 L 92.752900,161.30944 C 93.061844,161.68847 93.139085,161.81512 93.139085,161.97292 C 93.139085,162.22577 92.772220,162.33627 91.826079,162.33627 L 91.227512,162.33627 L 91.227512,163.07866 L 97.831100,163.07866 L 97.831100,162.33627 L 97.464235,162.33627 C 96.402253,162.33627 96.131940,162.22577 95.571953,161.54659 L 90.899258,156.03289 L 93.776252,153.67908 C 94.703073,152.87324 95.880927,152.41507 97.039451,152.41507 L 97.039451,151.67269 L 91.092330,151.67269 L 91.092330,152.41507 L 91.575056,152.41507 C 92.463256,152.41507 92.830141,152.55742 92.830141,152.88916 C 92.830141,153.11017 92.443967,153.56834 91.884000,154.02650 L 87.153352,157.91285 z M 65.566125,151.67269 L 61.588515,151.67269 L 61.588515,152.41507 L 62.071218,152.41507 C 63.055964,152.41507 63.500084,152.54150 63.847632,152.93645 L 63.847632,159.65071 C 63.847632,161.81512 63.461455,162.27306 61.607829,162.33627 L 61.607829,163.07866 L 67.110855,163.07866 L 67.110855,162.33627 C 65.276475,162.27306 64.890298,161.81512 64.890298,159.65071 L 64.890298,153.78957 L 73.502053,163.29990 L 74.313036,163.29990 L 74.313036,155.10087 C 74.313036,152.93645 74.699213,152.47828 76.552862,152.41507 L 76.552862,151.67269 L 71.049860,151.67269 L 71.049860,152.41507 C 72.884170,152.47828 73.270347,152.93645 73.270347,155.10087 L 73.270347,160.06158 L 65.566125,151.67269 z M 53.015413,153.61563 L 53.015413,153.15769 C 53.015413,152.49421 53.189198,152.41507 54.733905,152.41507 L 55.120082,152.41507 L 55.120082,151.67269 L 48.728885,151.67269 L 48.728885,152.41507 L 49.115061,152.41507 C 50.679061,152.41507 50.852846,152.49421 50.852846,153.15769 L 50.852846,153.61563 L 50.852846,161.13548 L 50.852846,161.59365 C 50.852846,162.25737 50.679061,162.33627 49.115061,162.33627 L 48.728885,162.33627 L 48.728885,163.07866 L 55.120082,163.07866 L 55.120082,162.33627 L 54.733905,162.33627 C 53.189198,162.33627 53.015413,162.25737 53.015413,161.59365 L 53.015413,161.13548 L 53.015413,153.61563 z "
       id="path1508" />
    <path
       style="fill:#ffffff;fill-opacity:0.064615376;stroke-width:1.0000000pt"
       d="M 654.33710,108.01796 L 599.85893,108.01796 L 599.85893,111.50374 L 601.49057,111.50374 C 608.83286,111.50374 609.64869,111.87458 609.64869,114.98952 L 609.64869,117.14011 L 609.64869,152.44223 L 609.64869,154.59307 C 609.64869,157.70777 608.83286,158.07861 601.49057,158.07861 L 599.85893,158.07861 L 599.85893,161.56438 L 655.51548,161.56438 L 657.32843,141.76273 L 653.33998,141.76273 C 652.16160,146.95405 650.07676,151.55235 647.90123,153.70295 C 645.09123,156.66946 639.92442,158.07861 632.31015,158.07861 L 626.32753,158.07861 C 623.60818,158.07861 621.34200,157.63355 620.52619,156.96608 C 619.89166,156.52126 619.80101,156.07621 619.80101,154.51885 L 619.80101,135.60707 L 621.61395,135.60707 C 627.14338,135.60707 629.40945,136.05213 631.22239,137.60948 C 633.57918,139.53767 634.48564,141.91092 634.66698,146.28658 L 638.92732,146.28658 L 638.92732,121.96083 L 634.66698,121.96083 C 634.21369,129.22877 630.58786,132.12130 621.97655,132.12130 L 619.80101,132.12130 L 619.80101,115.21193 C 619.80101,112.02301 620.61684,111.50374 625.51167,111.50374 L 630.22530,111.50374 C 638.20211,111.50374 642.09989,112.17120 645.18188,114.24783 C 648.17317,116.17602 650.34867,120.32927 651.70840,127.00396 L 655.60613,127.00396 L 654.33710,108.01796 z M 534.05004,137.75791 L 544.29304,137.75791 C 552.45114,137.75791 556.71147,137.23864 560.33732,135.82948 C 566.77323,133.30780 570.39906,128.56154 570.39906,122.70252 C 570.39906,117.06614 567.22644,112.76447 561.24379,110.31723 C 557.70858,108.83387 552.08853,108.01796 545.83397,108.01796 L 514.10793,108.01796 L 514.10793,111.50374 L 515.73957,111.50374 C 523.08189,111.50374 523.89767,111.87458 523.89767,114.98952 L 523.89767,117.14011 L 523.89767,152.44223 L 523.89767,154.59307 C 523.89767,157.70777 523.08189,158.07861 515.73957,158.07861 L 514.10793,158.07861 L 514.10793,161.56438 L 544.56498,161.56438 L 544.56498,158.07861 L 542.20815,158.07861 C 534.86582,158.07861 534.05004,157.70777 534.05004,154.59307 L 534.05004,152.44223 L 534.05004,137.75791 z M 534.05004,134.27214 L 534.05004,115.28614 C 534.05004,111.87458 534.59388,111.50374 539.57945,111.50374 L 545.38079,111.50374 C 554.80793,111.50374 559.24956,115.13771 559.24956,122.99914 C 559.24956,130.63793 554.62662,134.27214 545.01818,134.27214 L 534.05004,134.27214 z M 455.18812,106.97989 L 451.38097,106.97989 L 430.53236,150.21718 C 428.71949,154.07379 428.35693,154.59307 426.99725,155.77957 C 425.54690,157.18873 423.00881,158.07861 420.56136,158.07861 L 420.19876,158.07861 L 420.19876,161.56438 L 444.21990,161.56438 L 444.21990,158.07861 L 442.40701,158.07861 C 437.51215,158.07861 435.06471,156.66946 435.06471,153.85138 C 435.06471,152.96127 435.33666,151.92296 435.88049,150.73645 L 438.87183,144.20996 L 462.89302,144.20996 L 467.78790,154.14801 C 468.33175,155.26054 468.51305,155.77957 468.51305,156.15041 C 468.51305,157.33693 466.24692,158.07861 462.89302,158.07861 L 459.08589,158.07861 L 459.08589,161.56438 L 487.18606,161.56438 L 487.18606,158.07861 L 485.91707,158.07861 C 481.38472,158.07861 480.38764,157.48536 478.30280,153.33211 L 455.18812,106.97989 z M 450.74642,119.14253 L 460.98943,140.20514 L 440.68472,140.20514 L 450.74642,119.14253 z M 388.20078,107.49892 L 384.75625,107.49892 L 381.13040,111.87458 C 374.69454,108.01796 371.15936,106.90567 365.08609,106.90567 C 356.29343,106.90567 349.04178,109.79796 342.87785,115.80518 C 337.07651,121.44180 334.35716,127.67143 334.35716,135.31045 C 334.35716,151.25549 347.13824,162.67668 364.99545,162.67668 C 379.49876,162.67668 388.74468,155.70536 390.82952,143.24586 L 386.56918,142.65260 C 385.66269,146.58320 384.57495,149.25309 382.94336,151.47814 C 379.22682,156.59547 373.42550,159.19114 366.08318,159.19114 C 352.66761,159.19114 346.32240,151.55235 346.32240,135.60707 C 346.32240,127.22637 347.68207,121.58999 350.76407,117.14011 C 353.57404,112.98711 359.19406,110.39121 364.99545,110.39121 C 371.34066,110.39121 376.96067,113.13531 380.40527,117.88180 C 382.12751,120.32927 383.48719,123.22155 385.57210,128.93215 L 389.56045,128.93215 L 388.20078,107.49892 z M 297.46424,107.57314 L 294.11040,107.57314 L 290.48454,112.02301 C 286.22422,108.68543 280.42285,106.90567 273.98706,106.90567 C 262.11245,106.90567 254.13563,113.13531 254.13563,122.40589 C 254.13563,130.48973 259.03048,134.49455 272.35547,137.31285 L 280.96675,139.09285 C 287.67458,140.50177 288.30906,140.65020 290.21267,141.83670 C 292.93206,143.54249 294.38234,145.98995 294.38234,148.88224 C 294.38234,151.84898 293.02263,154.29620 290.30332,156.29885 C 287.31197,158.44945 284.32063,159.26535 279.33510,159.26535 C 272.62735,159.26535 267.82315,157.55958 263.56281,153.70295 C 259.75561,150.21718 257.85208,146.73164 256.49239,141.02104 L 252.59461,141.02104 L 252.95722,162.15764 L 256.49239,162.15764 L 260.57142,157.11452 C 266.64473,161.19354 271.72084,162.67668 279.60705,162.67668 C 292.93206,162.67668 301.45274,156.29885 301.45274,146.36080 C 301.45274,141.76273 299.54915,137.83190 296.01398,135.01382 C 293.56654,133.08540 290.03136,131.82467 282.77964,130.34130 L 273.08055,128.33889 C 265.01310,126.63312 261.20595,123.74083 261.20595,119.21674 C 261.20595,114.02542 266.37278,110.46543 274.07771,110.46543 C 280.42285,110.46543 285.58969,112.69048 289.21556,116.91771 C 291.84430,119.95843 293.47589,123.07336 294.65430,126.85576 L 298.55205,126.85576 L 297.46424,107.57314 z M 174.91111,137.31285 L 174.91111,117.14011 L 174.91111,114.98952 C 174.91111,111.87458 175.72693,111.50374 183.06925,111.50374 L 184.79151,111.50374 L 184.79151,108.01796 L 154.96899,108.01796 L 154.96899,111.50374 L 156.60064,111.50374 C 163.94292,111.50374 164.75874,111.87458 164.75874,114.98952 L 164.75874,117.14011 L 164.75874,152.44223 L 164.75874,154.59307 C 164.75874,157.70777 163.94292,158.07861 156.60064,158.07861 L 154.96899,158.07861 L 154.96899,161.56438 L 184.79151,161.56438 L 184.79151,158.07861 L 183.06925,158.07861 C 175.72693,158.07861 174.91111,157.70777 174.91111,154.59307 L 174.91111,152.44223 L 174.91111,143.02345 L 185.42601,134.34636 L 201.19843,153.25789 C 202.64874,155.03789 203.01133,155.63115 203.01133,156.37283 C 203.01133,157.55958 201.28908,158.07861 196.84741,158.07861 L 194.03736,158.07861 L 194.03736,161.56438 L 225.03826,161.56438 L 225.03826,158.07861 L 223.31603,158.07861 C 218.33052,158.07861 217.06147,157.55958 214.43268,154.37042 L 192.49640,128.48733 L 206.00260,117.43674 C 210.35364,113.65457 215.88304,111.50374 221.32184,111.50374 L 221.32184,108.01796 L 193.40286,108.01796 L 193.40286,111.50374 L 195.66901,111.50374 C 199.83870,111.50374 201.56100,112.17120 201.56100,113.72856 C 201.56100,114.76687 199.74807,116.91771 197.11933,119.06854 L 174.91111,137.31285 z M 73.568730,108.01796 L 54.895680,108.01796 L 54.895680,111.50374 L 57.161798,111.50374 C 61.784752,111.50374 63.869639,112.09699 65.501228,113.95120 L 65.501228,145.47091 C 65.501228,155.63115 63.688338,157.78198 54.986331,158.07861 L 54.986331,161.56438 L 80.820637,161.56438 L 80.820637,158.07861 C 72.209069,157.78198 70.396110,155.63115 70.396110,145.47091 L 70.396110,117.95602 L 110.82443,162.60269 L 114.63158,162.60269 L 114.63158,124.11167 C 114.63158,113.95120 116.44451,111.80036 125.14652,111.50374 L 125.14652,108.01796 L 99.312411,108.01796 L 99.312411,111.50374 C 107.92377,111.80036 109.73665,113.95120 109.73665,124.11167 L 109.73665,147.39911 L 73.568730,108.01796 z M 14.648842,117.14011 L 14.648842,114.98952 C 14.648842,111.87458 15.464695,111.50374 22.716345,111.50374 L 24.529280,111.50374 L 24.529280,108.01796 L -5.4745419,108.01796 L -5.4745419,111.50374 L -3.6616061,111.50374 C 3.6806938,111.50374 4.4965224,111.87458 4.4965224,114.98952 L 4.4965224,117.14011 L 4.4965224,152.44223 L 4.4965224,154.59307 C 4.4965224,157.70777 3.6806938,158.07861 -3.6616061,158.07861 L -5.4745419,158.07861 L -5.4745419,161.56438 L 24.529280,161.56438 L 24.529280,158.07861 L 22.716345,158.07861 C 15.464695,158.07861 14.648842,157.70777 14.648842,154.59307 L 14.648842,152.44223 L 14.648842,117.14011 z "
       id="path1509" />
    <path
       style="fill:#ffffff;stroke-width:1.0000000pt"
       d="M 717.15200,152.20648 L 720.32594,152.20648 L 720.32594,158.80250 C 720.32594,160.04777 720.28187,160.81918 720.19369,161.11675 C 719.89616,162.25199 719.21838,163.03441 718.16039,163.46425 C 717.43303,163.76182 716.35850,163.91048 714.93684,163.91048 C 711.57552,163.91048 709.89489,162.90752 709.89489,160.90183 L 713.25069,160.88544 C 713.47108,161.51358 714.09926,161.82754 715.13521,161.82754 C 715.89565,161.82754 716.43014,161.59061 716.73873,161.11675 C 716.97015,160.75317 717.08588,160.15804 717.08588,159.33137 L 717.08588,159.05043 C 716.08299,159.85486 714.98093,160.25708 713.77967,160.25708 C 712.47924,160.25708 711.43777,159.84385 710.65530,159.01742 C 709.87283,158.17974 709.48160,157.11076 709.48160,155.81024 C 709.48160,154.67524 709.92794,153.72730 710.82062,152.96689 C 711.65819,152.26172 712.66108,151.90891 713.82925,151.90891 C 715.33910,151.90891 716.44666,152.39939 717.15200,153.38034 L 717.15200,152.20648 z M 717.00321,156.04178 C 717.00321,155.51268 716.79381,155.09408 716.37505,154.78528 C 715.96726,154.46571 715.48789,154.30604 714.93684,154.30604 C 714.34172,154.30604 713.85131,154.47671 713.46558,154.81852 C 713.09087,155.16010 712.90354,155.62295 712.90354,156.20708 C 712.90354,156.69193 713.09640,157.11076 713.48210,157.46335 C 713.66948,157.62863 713.87334,157.75553 714.09377,157.84356 C 714.31419,157.93182 714.55112,157.97583 714.80459,157.97583 C 715.44380,157.97583 715.95626,157.81617 716.34197,157.49636 C 716.78282,157.14378 717.00321,156.65892 717.00321,156.04178 z M 702.25756,152.20648 L 705.56376,152.20648 L 705.56376,153.64466 C 706.13684,152.58668 706.96889,152.05781 708.05994,152.05781 L 709.05181,152.15684 L 709.05181,155.18210 C 708.55588,155.09408 708.12056,155.04983 707.74586,155.04983 C 706.34623,155.04983 705.64640,155.88189 705.64640,157.54600 L 705.64640,160.75317 L 702.25756,160.75317 L 702.25756,152.20648 z M 696.00882,151.90891 C 697.47458,151.90891 698.69236,152.29473 699.66217,153.06615 C 700.68710,153.89282 701.19958,155.03344 701.19958,156.48802 C 701.19958,157.90981 700.69812,159.03943 699.69523,159.87687 C 698.73645,160.64828 697.53520,161.03411 696.09148,161.03411 C 694.49349,161.03411 693.21510,160.67591 692.25629,159.95951 C 691.17625,159.16609 690.63625,157.99245 690.63625,156.43838 C 690.63625,154.98381 691.18176,153.84318 692.27282,153.01653 C 693.26468,152.27811 694.51002,151.90891 696.00882,151.90891 z M 695.92618,158.62059 C 696.48822,158.62059 696.94560,158.41129 697.29824,157.99245 C 697.65092,157.57362 697.82723,157.07213 697.82723,156.48802 C 697.82723,155.90389 697.66192,155.40265 697.33130,154.98381 C 697.00068,154.56498 696.54883,154.35568 695.97576,154.35568 C 695.38065,154.35568 694.90125,154.55936 694.53758,154.96718 C 694.36124,155.17673 694.22899,155.40265 694.14081,155.64496 C 694.05265,155.87650 694.00856,156.15744 694.00856,156.48802 C 694.00856,157.09414 694.17388,157.60124 694.50449,158.00884 C 694.83512,158.41667 695.30902,158.62059 695.92618,158.62059 z M 686.45389,157.41371 L 689.84275,157.41371 L 689.84275,160.75317 L 686.45389,160.75317 L 686.45389,157.41371 z M 678.10573,157.38070 C 678.46941,158.26239 679.04801,158.70323 679.84148,158.70323 C 680.67906,158.70323 681.20805,158.47169 681.42847,158.00884 C 681.62684,158.00884 682.12277,158.04209 682.91626,158.10811 C 683.70976,158.17413 684.40406,158.20737 684.99916,158.20737 C 684.43712,159.29836 683.72629,160.05877 682.86665,160.48862 C 682.08419,160.86320 681.04826,161.05073 679.75884,161.05073 C 678.24899,161.05073 677.03673,160.65952 676.12201,159.87687 C 675.14117,159.05043 674.65075,157.89318 674.65075,156.40537 C 674.65075,154.98381 675.18526,153.85957 676.25426,153.03314 C 677.21307,152.30574 678.44185,151.94216 679.94068,151.94216 C 681.40641,151.94216 682.60768,152.31674 683.54445,153.06615 C 684.48120,153.80456 685.01569,154.89555 685.14794,156.33935 L 685.18100,157.38070 L 678.10573,157.38070 z M 681.67642,155.36402 C 681.54419,154.59260 680.98765,154.20677 680.00680,154.20677 C 679.63208,154.20677 679.24086,154.31143 678.83309,154.52096 C 678.43636,154.73026 678.22146,155.01120 678.18838,155.36402 L 681.67642,155.36402 z M 663.49231,152.20648 L 666.86463,152.20648 L 666.84810,153.28108 C 667.77385,152.38838 668.82082,151.94216 669.98900,151.94216 C 671.28945,151.94216 672.31987,152.34975 673.08031,153.16542 C 673.85175,153.96985 674.23748,155.02782 674.23748,156.33935 C 674.23748,157.69489 673.86277,158.80250 673.11336,159.66195 C 672.33090,160.57664 671.27842,161.03411 669.95593,161.03411 C 669.23959,161.03411 668.67204,160.95147 668.25324,160.78618 C 667.84549,160.62089 667.38261,160.28469 666.86463,159.77783 L 666.86463,163.72857 L 663.49231,163.72857 L 663.49231,152.20648 z M 668.81529,158.63722 C 669.42142,158.63722 669.91186,158.42767 670.28656,158.00884 C 670.66127,157.57924 670.84861,157.06113 670.84861,156.45501 C 670.84861,155.83787 670.67229,155.33639 670.31961,154.95080 C 669.98900,154.55397 669.51511,154.35568 668.89796,154.35568 C 668.34692,154.35568 667.86752,154.55397 667.45975,154.95080 C 667.05199,155.34740 666.84810,155.83225 666.84810,156.40537 C 666.84810,157.00050 667.02993,157.52399 667.39364,157.97583 C 667.75731,158.41667 668.23120,158.63722 668.81529,158.63722 z M 652.86286,154.78528 C 653.13839,153.67228 653.75002,152.88424 654.69780,152.42140 C 655.39212,152.09082 656.40052,151.92554 657.72299,151.92554 C 658.95731,151.92554 659.95468,152.16808 660.71511,152.65294 C 661.62981,153.23706 662.08718,154.11312 662.08718,155.28137 L 662.08718,159.23234 C 662.08718,159.48565 662.10921,159.71720 662.15330,159.92650 C 662.19738,160.13603 662.28555,160.41136 662.41780,160.75317 L 658.92975,160.75317 L 658.81403,159.76121 C 658.00953,160.58788 657.04523,161.00110 655.92111,161.00110 C 655.00638,161.00110 654.21842,160.78618 653.55717,160.35634 C 652.81880,159.84947 652.44959,159.15508 652.44959,158.27340 C 652.44959,157.31469 652.76369,156.60390 653.39187,156.14082 C 653.84371,155.81024 654.56556,155.56793 655.55743,155.41365 L 657.95442,155.13248 C 658.47238,155.04445 658.73139,154.90655 658.73139,154.71926 C 658.73139,154.28942 658.40627,154.07450 657.75606,154.07450 C 657.38134,154.07450 657.07828,154.11874 656.84683,154.20677 C 656.61541,154.28403 656.43357,154.47671 656.30132,154.78528 L 652.86286,154.78528 z M 655.83844,157.95944 C 655.83844,158.42229 656.22967,158.65361 657.01214,158.65361 C 657.49707,158.65361 657.92687,158.49932 658.30157,158.19075 C 658.68730,157.88218 658.88017,157.49636 658.88017,157.03351 L 656.64847,157.31469 C 656.49419,157.32569 656.31785,157.39732 656.11947,157.52961 C 655.93214,157.65087 655.83844,157.79393 655.83844,157.95944 z M 652.15203,155.52930 L 648.77970,155.69460 C 648.57031,155.24274 648.36642,154.91755 648.16805,154.71926 C 647.90357,154.48771 647.53989,154.37206 647.07701,154.37206 C 646.45986,154.37206 645.98046,154.59260 645.63880,155.03344 C 645.30819,155.46304 645.14287,155.99777 645.14287,156.63691 C 645.14287,157.18779 645.33024,157.65626 645.70492,158.04209 C 646.07962,158.41667 646.54250,158.60397 647.09354,158.60397 C 647.97518,158.60397 648.54828,158.11373 648.81276,157.13277 L 652.21816,157.28168 C 651.65610,159.78322 649.93688,161.03411 647.06049,161.03411 C 645.52861,161.03411 644.28877,160.65952 643.34099,159.91011 C 642.28301,159.09445 641.75403,157.94820 641.75403,156.47163 C 641.75403,154.97280 642.32710,153.81557 643.47325,153.00014 C 644.48716,152.27273 645.77107,151.90891 647.32497,151.90891 C 648.55929,151.90891 649.60075,152.21747 650.44934,152.83461 C 651.30895,153.44098 651.87652,154.33905 652.15203,155.52930 z M 634.81099,157.95944 C 635.04244,158.34504 635.33998,158.59859 635.70365,158.71985 C 635.95714,158.79688 636.34836,158.83551 636.87738,158.83551 C 637.02063,158.83551 637.12534,158.82989 637.19145,158.81889 C 637.25759,158.79688 637.34575,158.75825 637.45596,158.70323 C 637.69841,158.60397 637.81963,158.45530 637.81963,158.25701 C 637.81963,157.95944 637.29615,157.75553 636.24920,157.64525 C 634.82752,157.47997 633.85771,157.29268 633.33973,157.08314 C 632.29278,156.66431 631.76929,155.94252 631.76929,154.91755 C 631.76929,153.80456 632.30378,152.99452 633.37278,152.48765 C 634.17730,152.10182 635.20222,151.90891 636.44756,151.90891 C 639.04844,151.90891 640.56380,152.79621 640.99358,154.57059 L 637.78657,154.78528 C 637.62127,154.49895 637.41187,154.28942 637.15839,154.15714 C 636.92697,154.08012 636.62941,154.04149 636.26573,154.04149 C 635.42815,154.04149 635.00935,154.23978 635.00935,154.63661 C 635.00935,154.76889 635.15264,154.88455 635.43917,154.98381 C 635.73673,155.08284 636.46959,155.20411 637.63779,155.34740 C 638.80600,155.49067 639.61602,155.70021 640.06787,155.97553 C 640.76217,156.37236 641.10931,157.02251 641.10931,157.92620 C 641.10931,158.96216 640.63541,159.76683 639.68764,160.33971 C 638.90517,160.80257 637.94639,161.03411 636.81124,161.03411 C 635.40059,161.03411 634.30956,160.87420 633.53809,160.55463 C 632.44706,160.11379 631.76378,159.31498 631.48826,158.15774 L 634.81099,157.95944 z M 620.94147,149.09880 L 624.31379,149.09880 L 624.31379,154.43831 L 627.05795,152.20648 L 631.73623,152.20648 L 627.63653,155.41365 L 631.75276,160.76956 L 627.76878,160.76956 L 625.23954,157.28168 L 624.31379,157.95944 L 624.31379,160.75317 L 620.94147,160.75317 L 620.94147,149.09880 z M 609.58466,152.19009 L 612.97351,152.19009 L 612.97351,153.31408 C 613.84415,152.41039 614.90765,151.95854 616.16399,151.95854 C 617.16689,151.95854 617.97691,152.23971 618.59407,152.80160 C 619.22225,153.35271 619.53632,154.13513 619.53632,155.14910 L 619.53632,160.78618 L 616.21361,160.78618 L 616.18052,155.97553 C 616.18052,155.53469 616.04277,155.17673 615.76726,154.90117 C 615.49175,154.62561 615.13908,154.48771 614.70926,154.48771 C 614.15824,154.48771 613.72843,154.70263 613.41986,155.13248 C 613.12229,155.56231 612.97351,156.06379 612.97351,156.63691 L 612.97351,160.75317 L 609.58466,160.75317 L 609.58466,152.19009 z M 604.93947,152.20648 L 608.31177,152.20648 L 608.31177,160.71992 L 604.93947,160.71992 L 604.93947,152.20648 z M 604.95600,149.08217 L 608.32829,149.08217 L 608.32829,151.38004 L 604.95600,151.38004 L 604.95600,149.08217 z M 599.98016,157.41371 L 603.36901,157.41371 L 603.36901,160.75317 L 599.98016,160.75317 L 599.98016,157.41371 z M 586.63963,152.20648 L 588.07784,157.52961 C 588.17700,156.89023 588.39743,156.00315 588.73907,154.86816 C 588.88233,154.36106 589.02008,153.84318 589.15233,153.31408 C 589.25153,152.93950 589.33971,152.57029 589.41685,152.20648 L 592.88836,152.22309 L 593.66530,154.88455 C 593.91878,155.86550 594.10614,156.77458 594.22737,157.61224 C 594.29348,157.17140 594.37063,156.75257 594.45880,156.35574 C 594.54697,155.94814 594.67922,155.45766 594.85553,154.88455 C 594.98779,154.44370 595.11453,154.02487 595.23576,153.62827 C 595.35699,153.22044 595.50577,152.74659 595.68209,152.20648 L 599.13707,152.20648 L 596.12843,160.76956 L 592.47508,160.76956 L 591.16912,155.85988 L 589.76399,160.76956 L 586.12717,160.76956 L 583.11852,152.20648 L 586.63963,152.20648 z M 571.34843,152.20648 L 572.78663,157.52961 C 572.88583,156.89023 573.10623,156.00315 573.44788,154.86816 C 573.59113,154.36106 573.72891,153.84318 573.86114,153.31408 C 573.96033,152.93950 574.04850,152.57029 574.12564,152.20648 L 577.59716,152.22309 L 578.37410,154.88455 C 578.62759,155.86550 578.81495,156.77458 578.93618,157.61224 C 579.00229,157.17140 579.07943,156.75257 579.16760,156.35574 C 579.25577,155.94814 579.38802,155.45766 579.56436,154.88455 C 579.69659,154.44370 579.82334,154.02487 579.94457,153.62827 C 580.06580,153.22044 580.21457,152.74659 580.39091,152.20648 L 583.84588,152.20648 L 580.83723,160.76956 L 577.18387,160.76956 L 575.87792,155.85988 L 574.47279,160.76956 L 570.83596,160.76956 L 567.82732,152.20648 L 571.34843,152.20648 z M 556.05725,152.20648 L 557.49543,157.52961 C 557.59463,156.89023 557.81503,156.00315 558.15668,154.86816 C 558.29995,154.36106 558.43771,153.84318 558.56996,153.31408 C 558.66914,152.93950 558.75730,152.57029 558.83444,152.20648 L 562.30597,152.22309 L 563.08293,154.88455 C 563.33641,155.86550 563.52375,156.77458 563.64498,157.61224 C 563.71109,157.17140 563.78825,156.75257 563.87641,156.35574 C 563.96457,155.94814 564.09682,155.45766 564.27316,154.88455 C 564.40541,154.44370 564.53214,154.02487 564.65337,153.62827 C 564.77460,153.22044 564.92338,152.74659 565.09972,152.20648 L 568.55470,152.20648 L 565.54603,160.76956 L 561.89270,160.76956 L 560.58675,155.85988 L 559.18159,160.76956 L 555.54476,160.76956 L 552.53613,152.20648 L 556.05725,152.20648 z "
       id="path1517" />
    <g
       id="g1495"
       transform="matrix(1.170587,0.000000,0.000000,1.170587,6.778889,146.1894)">
      <path
         sodipodi:type="arc"
         style="fill:url(#radialGradient2447);fill-opacity:0.75000000;fill-rule:evenodd;stroke:none;stroke-width:1.0000000pt"
         id="path1496"
         sodipodi:cx="427.08334"
         sodipodi:cy="567.70831"
         sodipodi:rx="179.39815"
         sodipodi:ry="53.819443"
         d="M 606.48149 567.70831 A 179.39815 53.819443 0 1 1  247.68520,567.70831 A 179.39815 53.819443 0 1 1  606.48149 567.70831 z"
         transform="matrix(3.198050e-2,0.000000,0.000000,0.109292,5.149671,-45.83576)" />
      <path
         sodipodi:type="arc"
         style="fill:url(#radialGradient2448);fill-opacity:0.75000000;fill-rule:evenodd;stroke:none;stroke-width:1.0000000pt"
         id="path1497"
         sodipodi:cx="427.08334"
         sodipodi:cy="567.70831"
         sodipodi:rx="179.39815"
         sodipodi:ry="53.819443"
         d="M 606.48149 567.70831 A 179.39815 53.819443 0 1 1  247.68520,567.70831 A 179.39815 53.819443 0 1 1  606.48149 567.70831 z"
         transform="matrix(3.198050e-2,0.000000,0.000000,0.109292,2.022526,-44.58496)" />
      <path
         sodipodi:type="arc"
         style="fill:url(#radialGradient2449);fill-opacity:0.75000000;fill-rule:evenodd;stroke:none;stroke-width:1.0000000pt"
         id="path1498"
         sodipodi:cx="427.08334"
         sodipodi:cy="567.70831"
         sodipodi:rx="179.39815"
         sodipodi:ry="53.819443"
         d="M 606.48149 567.70831 A 179.39815 53.819443 0 1 1  247.68520,567.70831 A 179.39815 53.819443 0 1 1  606.48149 567.70831 z"
         transform="matrix(3.198050e-2,0.000000,0.000000,0.109292,-3.397884,-48.75451)" />
      <path
         sodipodi:type="arc"
         style="fill:url(#radialGradient2450);fill-opacity:0.75000000;fill-rule:evenodd;stroke:none;stroke-width:1.0000000pt"
         id="path1499"
         sodipodi:cx="427.08334"
         sodipodi:cy="567.70831"
         sodipodi:rx="179.39815"
         sodipodi:ry="53.819443"
         d="M 606.48149 567.70831 A 179.39815 53.819443 0 1 1  247.68520,567.70831 A 179.39815 53.819443 0 1 1  606.48149 567.70831 z"
         transform="matrix(3.198050e-2,0.000000,0.000000,0.109292,8.068429,-48.33756)" />
      <path
         sodipodi:type="arc"
         style="fill:url(#radialGradient2451);fill-opacity:0.75000000;fill-rule:evenodd;stroke:none;stroke-width:1.0000000pt"
         id="path1500"
         sodipodi:cx="427.08334"
         sodipodi:cy="567.70831"
         sodipodi:rx="179.39815"
         sodipodi:ry="53.819443"
         d="M 606.48149 567.70831 A 179.39815 53.819443 0 1 1  247.68520,567.70831 A 179.39815 53.819443 0 1 1  606.48149 567.70831 z"
         transform="matrix(3.198050e-2,0.000000,0.000000,0.109292,12.02955,-53.13256)" />
      <path
         sodipodi:type="arc"
         style="fill:url(#radialGradient2452);fill-opacity:0.75000000;fill-rule:evenodd;stroke:none;stroke-width:1.0000000pt"
         id="path1501"
         sodipodi:cx="427.08334"
         sodipodi:cy="567.70831"
         sodipodi:rx="179.39815"
         sodipodi:ry="53.819443"
         d="M 606.48149 567.70831 A 179.39815 53.819443 0 1 1  247.68520,567.70831 A 179.39815 53.819443 0 1 1  606.48149 567.70831 z"
         transform="matrix(3.198050e-2,0.000000,0.000000,0.109292,9.855679,-58.05951)" />
      <path
         sodipodi:type="arc"
         style="fill:url(#radialGradient2453);fill-opacity:0.75000000;fill-rule:evenodd;stroke:none;stroke-width:1.0000000pt"
         id="path1511"
         sodipodi:cx="427.08334"
         sodipodi:cy="567.70831"
         sodipodi:rx="179.39815"
         sodipodi:ry="53.819443"
         d="M 606.48149 567.70831 A 179.39815 53.819443 0 1 1  247.68520,567.70831 A 179.39815 53.819443 0 1 1  606.48149 567.70831 z"
         transform="matrix(3.198050e-2,0.000000,0.000000,0.109292,5.269166,-61.39511)" />
      <path
         sodipodi:type="arc"
         style="fill:url(#radialGradient2454);fill-opacity:0.75000000;fill-rule:evenodd;stroke:none;stroke-width:1.0000000pt"
         id="path1512"
         sodipodi:cx="427.08334"
         sodipodi:cy="567.70831"
         sodipodi:rx="179.39815"
         sodipodi:ry="53.819443"
         d="M 606.48149 567.70831 A 179.39815 53.819443 0 1 1  247.68520,567.70831 A 179.39815 53.819443 0 1 1  606.48149 567.70831 z"
         transform="matrix(3.198050e-2,0.000000,0.000000,0.109292,0.265717,-60.76966)" />
      <path
         sodipodi:type="arc"
         style="fill:url(#radialGradient2455);fill-opacity:0.75000000;fill-rule:evenodd;stroke:none;stroke-width:1.0000000pt"
         id="path1513"
         sodipodi:cx="427.08334"
         sodipodi:cy="567.70831"
         sodipodi:rx="179.39815"
         sodipodi:ry="53.819443"
         d="M 606.48149 567.70831 A 179.39815 53.819443 0 1 1  247.68520,567.70831 A 179.39815 53.819443 0 1 1  606.48149 567.70831 z"
         transform="matrix(3.198050e-2,0.000000,0.000000,0.109292,-3.903834,-56.18316)" />
      <path
         sodipodi:type="arc"
         style="fill:url(#radialGradient2456);fill-opacity:0.75000000;fill-rule:evenodd;stroke:none;stroke-width:1.0000000pt"
         id="path1514"
         sodipodi:cx="427.08334"
         sodipodi:cy="567.70831"
         sodipodi:rx="179.39815"
         sodipodi:ry="53.819443"
         d="M 606.48149 567.70831 A 179.39815 53.819443 0 1 1  247.68520,567.70831 A 179.39815 53.819443 0 1 1  606.48149 567.70831 z"
         transform="matrix(3.198050e-2,0.000000,0.000000,0.109292,-6.614049,-53.47301)" />
      <g
         id="g1515"
         transform="matrix(5.883700e-2,0.000000,0.000000,5.883700e-2,-4.768899,-3.296641)">
        <path
           style="font-size:12.000000;fill:#ffffff;fill-rule:evenodd;stroke:#000000;stroke-width:0.93619299pt"
           d="M 397.64309,320.25301 L 280.39197,282.51700 L 250.74227,124.83447 L 345.08225,29.146783 L 393.59996,46.667064 L 483.89679,135.61619 L 397.64309,320.25301 z "
           id="path1516" />
        <path
           style="font-size:12.000000;fill:#000000;fill-opacity:1.0000000;fill-rule:evenodd;stroke-width:1.0000000pt"
           d="M 476.95792,339.17168 C 495.78197,342.93607 499.54842,356.11361 495.78197,359.87802 C 492.01856,363.64340 482.60650,367.40781 475.07663,361.76014 C 467.54478,356.11361 467.54478,342.93607 476.95792,339.17168 z "
           id="path1518" />
        <path
           style="font-size:12.000000;fill:#000000;fill-opacity:1.0000000;fill-rule:evenodd;stroke-width:1.0000000pt"
           d="M 286.46194,340.42914 C 284.62770,340.91835 269.30405,327.71337 257.16909,333.83380 C 245.03722,339.95336 236.89276,353.65666 248.22676,359.27982 C 259.56184,364.90298 267.66433,358.41867 277.60113,351.44119 C 287.53903,344.46477 287.18046,343.12060 286.46194,340.42914 z "
           id="path1519" />
        <path
           style="font-size:12.000000;fill:#000000;fill-opacity:1.0000000;fill-rule:evenodd;stroke-width:1.0000000pt"
           d="M 510.35756,306.92856 C 520.59494,304.36879 544.24333,306.92856 540.47688,321.98634 C 536.71354,337.04806 504.71297,331.39827 484.00371,323.87156 C 482.12141,308.81083 505.53237,308.13423 510.35756,306.92856 z "
           id="path1520" />
        <path
           style="font-size:12.000000;fill:#000000;fill-opacity:1.0000000;fill-rule:evenodd;stroke-width:1.0000000pt"
           d="M 359.24030,21.362537 C 347.92693,21.362537 336.63470,25.683095 327.96556,34.352230 L 173.87387,188.41466 C 165.37697,196.91140 161.11160,207.95813 160.94269,219.04577 L 160.88418,219.04577 C 160.88418,219.08524 160.94076,219.12322 160.94269,219.16279 C 160.94033,219.34888 160.88418,219.53256 160.88418,219.71865 L 161.14748,219.71865 C 164.09660,230.93917 240.29699,245.24198 248.79866,253.74346 C 261.63771,266.58263 199.56520,276.01151 212.40410,288.85074 C 225.24316,301.68979 289.99433,313.69330 302.83460,326.53254 C 315.67368,339.37161 276.59610,353.04289 289.43532,365.88196 C 302.27439,378.72118 345.40201,362.67257 337.59080,396.16198 C 354.92909,413.50026 391.10302,405.22080 415.32417,387.88252 C 428.16323,375.04345 390.69480,376.17577 403.53397,363.33668 C 416.37304,350.49745 448.78128,350.42820 476.08902,319.71589 C 465.09739,302.62116 429.10801,295.34136 441.94719,282.50217 C 454.78625,269.66311 479.74708,276.18423 533.60644,251.72479 C 559.89837,239.78398 557.72636,230.71459 557.62567,219.71865 C 557.62356,219.48727 557.62567,219.27892 557.62567,219.04577 L 557.56716,219.04577 C 557.39830,207.95812 553.10345,196.91140 544.60673,188.41466 L 390.54428,34.352230 C 381.87515,25.683095 370.55366,21.362537 359.24030,21.362537 z M 357.92378,41.402939 C 362.95327,41.533963 367.01541,45.368018 374.98006,50.530832 L 447.76915,104.50827 C 448.56596,105.02498 449.32484,105.56400 450.02187,106.11735 C 450.71890,106.67062 451.35560,107.25745 451.95277,107.84347 C 452.54997,108.42842 453.09281,109.01553 453.59111,109.62808 C 454.08837,110.24052 454.53956,110.86661 454.93688,111.50048 C 455.33532,112.13538 455.69164,112.78029 455.99010,113.43137 C 456.28877,114.08363 456.52291,114.75639 456.72150,115.42078 C 456.92126,116.08419 457.08982,116.73973 457.18961,117.41019 C 457.28949,118.08184 457.33588,118.75535 457.33588,119.42886 L 414.21245,98.598549 L 409.91180,131.16055 L 386.18512,120.04324 L 349.55654,144.50131 L 335.54288,96.170300 L 317.49190,138.44530 L 267.08369,143.47735 L 267.63956,121.03795 C 267.63956,115.64823 296.69685,77.915899 314.39075,68.932902 L 346.77721,45.674327 C 351.55594,42.576634 354.90608,41.324327 357.92378,41.402939 z M 290.92738,261.61333 C 313.87149,267.56365 339.40299,275.37038 359.88393,275.50997 L 360.76161,284.72563 C 343.22350,282.91785 306.11346,274.45012 297.36372,269.98057 L 290.92738,261.61333 z "
           id="path1521" />
      </g>
    </g>
  </g>
</svg>
