<?xml version="1.0" encoding="UTF-8" standalone="no"?>
<!-- Created with Inkscape (http://www.inkscape.org/) -->
<svg
   xmlns:dc="http://purl.org/dc/elements/1.1/"
   xmlns:cc="http://web.resource.org/cc/"
   xmlns:rdf="http://www.w3.org/1999/02/22-rdf-syntax-ns#"
   xmlns:svg="http://www.w3.org/2000/svg"
   xmlns="http://www.w3.org/2000/svg"
   xmlns:xlink="http://www.w3.org/1999/xlink"
   xmlns:sodipodi="http://sodipodi.sourceforge.net/DTD/sodipodi-0.dtd"
   xmlns:inkscape="http://www.inkscape.org/namespaces/inkscape"
   inkscape:export-ydpi="90.000000"
   inkscape:export-xdpi="90.000000"
   inkscape:export-filename="/home/turnip/data/Websites/inkscape/doc-docbook/tutorial-html-header.png"
   width="750.00000px"
   height="180.00000px"
   id="svg1928"
   sodipodi:version="0.32"
   inkscape:version="0.41+cvs"
   sodipodi:docbase="/home/turnip/data/Websites/inkscape/doc-docbook"
   sodipodi:docname="tutorial-html-header.svg">
  <defs
     id="defs3">
    <linearGradient
       id="linearGradient841">
      <stop
         style="stop-color:#0082ab;stop-opacity:1;"
         offset="0.00000000"
         id="stop842" />
      <stop
         style="stop-color:#0082ab;stop-opacity:0.5;"
         offset="0.34999999"
         id="stop1842" />
      <stop
         style="stop-color:#0082ab;stop-opacity:0.22;"
         offset="0.63000000"
         id="stop1843" />
      <stop
         style="stop-color:#0082ab;stop-opacity:0;"
         offset="1.00000000"
         id="stop843" />
    </linearGradient>
    <linearGradient
       xlink:href="#linearGradient841"
       id="linearGradient1657"
       x1="76.911163"
       y1="25.401895"
       x2="76.911163"
       y2="137.02844"
       gradientTransform="matrix(2.149311,0.000000,0.000000,0.465265,180.6434,120.2152)"
       gradientUnits="userSpaceOnUse" />
    <linearGradient
       id="linearGradient666">
      <stop
         style="stop-color:#ffffff;stop-opacity:0.336;"
         offset="0.00000000"
         id="stop667" />
      <stop
         style="stop-color:#ffffff;stop-opacity:0;"
         offset="1.00000000"
         id="stop668" />
    </linearGradient>
    <radialGradient
       xlink:href="#linearGradient666"
       id="radialGradient669"
       cx="233.92318"
       cy="1036.4888"
       r="98.260411"
       fx="233.92318"
       fy="1036.4888"
       gradientTransform="scale(1.825742,0.547723)"
       gradientUnits="userSpaceOnUse" />
    <radialGradient
       inkscape:collect="always"
       xlink:href="#linearGradient666"
       id="radialGradient1972"
       cx="233.92318"
       cy="1036.4888"
       fx="233.92318"
       fy="1036.4888"
       r="98.260411"
       gradientTransform="scale(1.825742,0.547723)"
       gradientUnits="userSpaceOnUse" />
    <radialGradient
       inkscape:collect="always"
       xlink:href="#linearGradient666"
       id="radialGradient1974"
       cx="233.92318"
       cy="1036.4888"
       fx="233.92318"
       fy="1036.4888"
       r="98.260411"
       gradientTransform="scale(1.825742,0.547723)"
       gradientUnits="userSpaceOnUse" />
    <radialGradient
       inkscape:collect="always"
       xlink:href="#linearGradient666"
       id="radialGradient1976"
       cx="233.92318"
       cy="1036.4888"
       fx="233.92318"
       fy="1036.4888"
       r="98.260411"
       gradientTransform="scale(1.825742,0.547723)"
       gradientUnits="userSpaceOnUse" />
    <radialGradient
       inkscape:collect="always"
       xlink:href="#linearGradient666"
       id="radialGradient1978"
       cx="233.92318"
       cy="1036.4888"
       fx="233.92318"
       fy="1036.4888"
       r="98.260411"
       gradientTransform="scale(1.825742,0.547723)"
       gradientUnits="userSpaceOnUse" />
    <radialGradient
       inkscape:collect="always"
       xlink:href="#linearGradient666"
       id="radialGradient1980"
       cx="233.92318"
       cy="1036.4888"
       fx="233.92318"
       fy="1036.4888"
       r="98.260411"
       gradientTransform="scale(1.825742,0.547723)"
       gradientUnits="userSpaceOnUse" />
    <radialGradient
       inkscape:collect="always"
       xlink:href="#linearGradient666"
       id="radialGradient1982"
       cx="233.92318"
       cy="1036.4888"
       fx="233.92318"
       fy="1036.4888"
       r="98.260411"
       gradientTransform="scale(1.825742,0.547723)"
       gradientUnits="userSpaceOnUse" />
    <radialGradient
       inkscape:collect="always"
       xlink:href="#linearGradient666"
       id="radialGradient1984"
       cx="233.92318"
       cy="1036.4888"
       fx="233.92318"
       fy="1036.4888"
       r="98.260411"
       gradientTransform="scale(1.825742,0.547723)"
       gradientUnits="userSpaceOnUse" />
    <radialGradient
       inkscape:collect="always"
       xlink:href="#linearGradient666"
       id="radialGradient1986"
       cx="233.92318"
       cy="1036.4888"
       fx="233.92318"
       fy="1036.4888"
       r="98.260411"
       gradientTransform="scale(1.825742,0.547723)"
       gradientUnits="userSpaceOnUse" />
    <radialGradient
       inkscape:collect="always"
       xlink:href="#linearGradient666"
       id="radialGradient1988"
       cx="233.92318"
       cy="1036.4888"
       fx="233.92318"
       fy="1036.4888"
       r="98.260411"
       gradientTransform="scale(1.825742,0.547723)"
       gradientUnits="userSpaceOnUse" />
    <linearGradient
       inkscape:collect="always"
       xlink:href="#linearGradient841"
       id="linearGradient2016"
       gradientUnits="userSpaceOnUse"
       gradientTransform="matrix(2.149311,0.000000,0.000000,0.465265,180.6434,120.2152)"
       x1="76.911163"
       y1="25.401895"
       x2="76.911163"
       y2="137.02844" />
    <radialGradient
       inkscape:collect="always"
       xlink:href="#linearGradient666"
       id="radialGradient2018"
       gradientUnits="userSpaceOnUse"
       gradientTransform="scale(1.825742,0.547723)"
       cx="233.92318"
       cy="1036.4888"
       fx="233.92318"
       fy="1036.4888"
       r="98.260411" />
    <radialGradient
       inkscape:collect="always"
       xlink:href="#linearGradient666"
       id="radialGradient2020"
       gradientUnits="userSpaceOnUse"
       gradientTransform="scale(1.825742,0.547723)"
       cx="233.92318"
       cy="1036.4888"
       fx="233.92318"
       fy="1036.4888"
       r="98.260411" />
    <radialGradient
       inkscape:collect="always"
       xlink:href="#linearGradient666"
       id="radialGradient2022"
       gradientUnits="userSpaceOnUse"
       gradientTransform="scale(1.825742,0.547723)"
       cx="233.92318"
       cy="1036.4888"
       fx="233.92318"
       fy="1036.4888"
       r="98.260411" />
    <radialGradient
       inkscape:collect="always"
       xlink:href="#linearGradient666"
       id="radialGradient2024"
       gradientUnits="userSpaceOnUse"
       gradientTransform="scale(1.825742,0.547723)"
       cx="233.92318"
       cy="1036.4888"
       fx="233.92318"
       fy="1036.4888"
       r="98.260411" />
    <radialGradient
       inkscape:collect="always"
       xlink:href="#linearGradient666"
       id="radialGradient2026"
       gradientUnits="userSpaceOnUse"
       gradientTransform="scale(1.825742,0.547723)"
       cx="233.92318"
       cy="1036.4888"
       fx="233.92318"
       fy="1036.4888"
       r="98.260411" />
    <radialGradient
       inkscape:collect="always"
       xlink:href="#linearGradient666"
       id="radialGradient2028"
       gradientUnits="userSpaceOnUse"
       gradientTransform="scale(1.825742,0.547723)"
       cx="233.92318"
       cy="1036.4888"
       fx="233.92318"
       fy="1036.4888"
       r="98.260411" />
    <radialGradient
       inkscape:collect="always"
       xlink:href="#linearGradient666"
       id="radialGradient2030"
       gradientUnits="userSpaceOnUse"
       gradientTransform="scale(1.825742,0.547723)"
       cx="233.92318"
       cy="1036.4888"
       fx="233.92318"
       fy="1036.4888"
       r="98.260411" />
    <radialGradient
       inkscape:collect="always"
       xlink:href="#linearGradient666"
       id="radialGradient2032"
       gradientUnits="userSpaceOnUse"
       gradientTransform="scale(1.825742,0.547723)"
       cx="233.92318"
       cy="1036.4888"
       fx="233.92318"
       fy="1036.4888"
       r="98.260411" />
    <radialGradient
       inkscape:collect="always"
       xlink:href="#linearGradient666"
       id="radialGradient2034"
       gradientUnits="userSpaceOnUse"
       gradientTransform="scale(1.825742,0.547723)"
       cx="233.92318"
       cy="1036.4888"
       fx="233.92318"
       fy="1036.4888"
       r="98.260411" />
    <radialGradient
       inkscape:collect="always"
       xlink:href="#linearGradient666"
       id="radialGradient2036"
       gradientUnits="userSpaceOnUse"
       gradientTransform="scale(1.825742,0.547723)"
       cx="233.92318"
       cy="1036.4888"
       fx="233.92318"
       fy="1036.4888"
       r="98.260411" />
    <radialGradient
       r="98.260411"
       fy="1036.4888"
       fx="233.92318"
       cy="1036.4888"
       cx="233.92318"
       gradientTransform="scale(1.825742,0.547723)"
       gradientUnits="userSpaceOnUse"
       id="radialGradient1507"
       xlink:href="#linearGradient666"
       inkscape:collect="always" />
    <radialGradient
       r="98.260411"
       fy="1036.4888"
       fx="233.92318"
       cy="1036.4888"
       cx="233.92318"
       gradientTransform="scale(1.825742,0.547723)"
       gradientUnits="userSpaceOnUse"
       id="radialGradient1509"
       xlink:href="#linearGradient666"
       inkscape:collect="always" />
    <radialGradient
       r="98.260411"
       fy="1036.4888"
       fx="233.92318"
       cy="1036.4888"
       cx="233.92318"
       gradientTransform="scale(1.825742,0.547723)"
       gradientUnits="userSpaceOnUse"
       id="radialGradient1511"
       xlink:href="#linearGradient666"
       inkscape:collect="always" />
    <radialGradient
       r="98.260411"
       fy="1036.4888"
       fx="233.92318"
       cy="1036.4888"
       cx="233.92318"
       gradientTransform="scale(1.825742,0.547723)"
       gradientUnits="userSpaceOnUse"
       id="radialGradient1513"
       xlink:href="#linearGradient666"
       inkscape:collect="always" />
    <radialGradient
       r="98.260411"
       fy="1036.4888"
       fx="233.92318"
       cy="1036.4888"
       cx="233.92318"
       gradientTransform="scale(1.825742,0.547723)"
       gradientUnits="userSpaceOnUse"
       id="radialGradient1515"
       xlink:href="#linearGradient666"
       inkscape:collect="always" />
    <radialGradient
       r="98.260411"
       fy="1036.4888"
       fx="233.92318"
       cy="1036.4888"
       cx="233.92318"
       gradientTransform="scale(1.825742,0.547723)"
       gradientUnits="userSpaceOnUse"
       id="radialGradient1517"
       xlink:href="#linearGradient666"
       inkscape:collect="always" />
    <radialGradient
       r="98.260411"
       fy="1036.4888"
       fx="233.92318"
       cy="1036.4888"
       cx="233.92318"
       gradientTransform="scale(1.825742,0.547723)"
       gradientUnits="userSpaceOnUse"
       id="radialGradient1519"
       xlink:href="#linearGradient666"
       inkscape:collect="always" />
    <radialGradient
       r="98.260411"
       fy="1036.4888"
       fx="233.92318"
       cy="1036.4888"
       cx="233.92318"
       gradientTransform="scale(1.825742,0.547723)"
       gradientUnits="userSpaceOnUse"
       id="radialGradient1521"
       xlink:href="#linearGradient666"
       inkscape:collect="always" />
    <radialGradient
       r="98.260411"
       fy="1036.4888"
       fx="233.92318"
       cy="1036.4888"
       cx="233.92318"
       gradientTransform="scale(1.825742,0.547723)"
       gradientUnits="userSpaceOnUse"
       id="radialGradient1523"
       xlink:href="#linearGradient666"
       inkscape:collect="always" />
    <radialGradient
       r="98.260411"
       fy="1036.4888"
       fx="233.92318"
       cy="1036.4888"
       cx="233.92318"
       gradientTransform="scale(1.825742,0.547723)"
       gradientUnits="userSpaceOnUse"
       id="radialGradient1525"
       xlink:href="#linearGradient666"
       inkscape:collect="always" />
    <linearGradient
       y2="137.02844"
       x2="76.911163"
       y1="25.401895"
       x1="76.911163"
       gradientTransform="matrix(5.043488,0.000000,0.000000,1.095173,-0.427525,9.346840)"
       gradientUnits="userSpaceOnUse"
       id="linearGradient1548"
       xlink:href="#linearGradient841"
       inkscape:collect="always" />
  </defs>
  <sodipodi:namedview
     inkscape:guide-bbox="true"
     showguides="true"
     id="base"
     pagecolor="#ffffff"
     bordercolor="#666666"
     borderopacity="1.0"
     inkscape:pageopacity="1.0000000"
     inkscape:pageshadow="2"
     inkscape:zoom="2.2250293"
     inkscape:cx="250.10429"
     inkscape:cy="71.111576"
     inkscape:document-units="px"
     inkscape:current-layer="layer1"
     inkscape:window-width="1272"
     inkscape:window-height="967"
     inkscape:window-x="0"
     inkscape:window-y="24" />
  <metadata
     id="metadata4">
    <rdf:RDF
       id="RDF5">
      <cc:Work
         rdf:about=""
         id="Work6">
        <dc:format
           id="format7">image/svg+xml</dc:format>
        <dc:type
           id="type9"
           rdf:resource="http://purl.org/dc/dcmitype/StillImage" />
      </cc:Work>
    </rdf:RDF>
  </metadata>
  <g
     inkscape:label="Layer 1"
     inkscape:groupmode="layer"
     id="layer1">
    <rect
       style="font-size:12.000000;fill:url(#linearGradient1548);fill-opacity:1.0000000;fill-rule:evenodd;stroke:none;stroke-width:3.0611501"
       id="rect582"
       width="750.64673"
       height="163.00000"
       x="0.0000000"
       y="10.000000"
       ry="6.1828299"
       rx="0.0000000" />
    <g
       id="g1456">
      <path
         id="path675"
         d="M 654.75618,1.5011354 L 600.15268,1.5011354 L 600.15268,4.9948354 L 601.78807,4.9948354 C 609.14728,4.9948354 609.96499,5.3665540 609.96499,8.4885588 L 609.96499,10.644273 L 609.96499,46.027378 L 609.96499,48.183091 C 609.96499,51.305144 609.14728,51.676815 601.78807,51.676815 L 600.15268,51.676815 L 600.15268,55.170538 L 655.93727,55.170538 L 657.75440,35.323260 L 653.75678,35.323260 C 652.57569,40.526641 650.48605,45.135402 648.30551,47.291071 C 645.48905,50.264467 640.31035,51.676815 632.67857,51.676815 L 626.68219,51.676815 C 623.95659,51.676815 621.68519,51.230805 620.86751,50.561776 C 620.23151,50.115766 620.14066,49.669802 620.14066,48.108753 L 620.14066,29.153520 L 621.95776,29.153520 C 627.49992,29.153520 629.77120,29.599530 631.58830,31.160533 C 633.95052,33.093253 634.85906,35.471915 635.04082,39.857684 L 639.31095,39.857684 L 639.31095,15.476006 L 635.04082,15.476006 C 634.58648,22.760762 630.95232,25.659796 622.32120,25.659796 L 620.14066,25.659796 L 620.14066,8.7115759 C 620.14066,5.5152087 620.95836,4.9948354 625.86446,4.9948354 L 630.58893,4.9948354 C 638.58408,4.9948354 642.49083,5.6638633 645.57991,7.7452388 C 648.57809,9.6779128 650.75857,13.840641 652.12144,20.530731 L 656.02813,20.530731 L 654.75618,1.5011354 z M 534.19242,31.309234 L 544.45897,31.309234 C 552.63584,31.309234 556.90597,30.788861 560.54016,29.376513 C 566.99088,26.849127 570.62505,22.091781 570.62505,16.219326 C 570.62505,10.569934 567.44512,6.2585286 561.44872,3.8055047 C 557.90537,2.3188179 552.27241,1.5011354 546.00345,1.5011354 L 514.20444,1.5011354 L 514.20444,4.9948354 L 515.83982,4.9948354 C 523.19904,4.9948354 524.01670,5.3665540 524.01670,8.4885588 L 524.01670,10.644273 L 524.01670,46.027378 L 524.01670,48.183091 C 524.01670,51.305144 523.19904,51.676815 515.83982,51.676815 L 514.20444,51.676815 L 514.20444,55.170538 L 544.73155,55.170538 L 544.73155,51.676815 L 542.36929,51.676815 C 535.01007,51.676815 534.19242,51.305144 534.19242,48.183091 L 534.19242,46.027378 L 534.19242,31.309234 z M 534.19242,27.815510 L 534.19242,8.7859149 C 534.19242,5.3665540 534.73750,4.9948354 539.73455,4.9948354 L 545.54923,4.9948354 C 554.99806,4.9948354 559.44990,8.6372603 559.44990,16.516681 C 559.44990,24.173109 554.81634,27.815510 545.18580,27.815510 L 534.19242,27.815510 z M 455.14910,0.46048282 L 451.33318,0.46048282 L 430.43662,43.797347 C 428.61958,47.662743 428.25620,48.183091 426.89339,49.372446 C 425.43969,50.784794 422.89576,51.676815 420.44269,51.676815 L 420.07925,51.676815 L 420.07925,55.170538 L 444.15565,55.170538 L 444.15565,51.676815 L 442.33859,51.676815 C 437.43246,51.676815 434.97940,50.264467 434.97940,47.439772 C 434.97940,46.547751 435.25198,45.507074 435.79706,44.317720 L 438.79528,37.776308 L 462.87171,37.776308 L 467.77786,47.737081 C 468.32297,48.852120 468.50469,49.372446 468.50469,49.744118 C 468.50469,50.933448 466.23333,51.676815 462.87171,51.676815 L 459.05583,51.676815 L 459.05583,55.170538 L 487.22064,55.170538 L 487.22064,51.676815 L 485.94873,51.676815 C 481.40596,51.676815 480.40658,51.082150 478.31694,46.919398 L 455.14910,0.46048282 z M 450.69718,12.651310 L 460.96376,33.762258 L 440.61234,33.762258 L 450.69718,12.651310 z M 388.00766,0.98080912 L 384.55522,0.98080912 L 380.92103,5.3665540 C 374.47036,1.5011354 370.92706,0.38614387 364.83981,0.38614387 C 356.02693,0.38614387 348.75861,3.2851784 342.58048,9.3062412 C 336.76580,14.955679 334.04020,21.199736 334.04020,28.856210 C 334.04020,44.838047 346.85068,56.285530 364.74896,56.285530 C 379.28564,56.285530 388.55281,49.298083 390.64245,36.809971 L 386.37232,36.215258 C 385.46373,40.154993 384.37350,42.831034 382.73815,45.061040 C 379.01307,50.190129 373.19841,52.791807 365.83919,52.791807 C 352.39277,52.791807 346.03296,45.135402 346.03296,29.153520 C 346.03296,20.753725 347.39576,15.104334 350.48484,10.644273 C 353.30129,6.4815456 358.93423,3.8798672 364.74896,3.8798672 C 371.10877,3.8798672 376.74171,6.6302002 380.19422,11.387617 C 381.92043,13.840641 383.28324,16.739699 385.37295,22.463429 L 389.37048,22.463429 L 388.00766,0.98080912 z M 297.06243,1.0551717 L 293.70085,1.0551717 L 290.06667,5.5152087 C 285.79654,2.1701633 279.98183,0.38614387 273.53123,0.38614387 C 261.62931,0.38614387 253.63413,6.6302002 253.63413,15.922016 C 253.63413,24.024455 258.54026,28.038528 271.89589,30.863224 L 280.52698,32.647242 C 287.25024,34.059591 287.88617,34.208245 289.79416,35.397576 C 292.51981,37.107280 293.97343,39.560304 293.97343,42.459362 C 293.97343,45.432712 292.61060,47.885759 289.88502,49.892795 C 286.88679,52.048487 283.88857,52.866169 278.89157,52.866169 C 272.16840,52.866169 267.35314,51.156465 263.08301,47.291071 C 259.26706,43.797347 257.35913,40.303647 255.99633,34.579941 L 252.08958,34.579941 L 252.45302,55.765204 L 255.99633,55.765204 L 260.08474,50.710478 C 266.17202,54.798844 271.25980,56.285530 279.16415,56.285530 C 292.51981,56.285530 301.06009,49.892795 301.06009,39.931976 C 301.06009,35.323260 299.15213,31.383549 295.60882,28.558830 C 293.15575,26.626133 289.61244,25.362487 282.34404,23.875777 L 272.62265,21.868763 C 264.53663,20.159059 260.72072,17.260001 260.72072,12.725649 C 260.72072,7.5222218 265.89944,3.9541593 273.62209,3.9541593 C 279.98183,3.9541593 285.16055,6.1842365 288.79476,10.421280 C 291.42955,13.468992 293.06489,16.591045 294.24600,20.382077 L 298.15273,20.382077 L 297.06243,1.0551717 z M 174.22737,30.863224 L 174.22737,10.644273 L 174.22737,8.4885588 C 174.22737,5.3665540 175.04509,4.9948354 182.40430,4.9948354 L 184.13052,4.9948354 L 184.13052,1.5011354 L 154.23940,1.5011354 L 154.23940,4.9948354 L 155.87481,4.9948354 C 163.23398,4.9948354 164.05168,5.3665540 164.05168,8.4885588 L 164.05168,10.644273 L 164.05168,46.027378 L 164.05168,48.183091 C 164.05168,51.305144 163.23398,51.676815 155.87481,51.676815 L 154.23940,51.676815 L 154.23940,55.170538 L 184.13052,55.170538 L 184.13052,51.676815 L 182.40430,51.676815 C 175.04509,51.676815 174.22737,51.305144 174.22737,48.183091 L 174.22737,46.027378 L 174.22737,36.586953 L 184.76648,27.889826 L 200.57519,46.845060 C 202.02882,48.629126 202.39225,49.223791 202.39225,49.967111 C 202.39225,51.156465 200.66605,51.676815 196.21416,51.676815 L 193.39764,51.676815 L 193.39764,55.170538 L 224.46987,55.170538 L 224.46987,51.676815 L 222.74366,51.676815 C 217.74668,51.676815 216.47471,51.156465 213.83987,47.960098 L 191.85314,22.017419 L 205.39040,10.941606 C 209.75143,7.1505735 215.29356,4.9948354 220.74489,4.9948354 L 220.74489,1.5011354 L 192.76168,1.5011354 L 192.76168,4.9948354 L 195.03306,4.9948354 C 199.21233,4.9948354 200.93860,5.6638633 200.93860,7.2248891 C 200.93860,8.2655651 199.12149,10.421280 196.48671,12.576948 L 174.22737,30.863224 z M 72.651909,1.5011354 L 53.935884,1.5011354 L 53.935884,4.9948354 L 56.207237,4.9948354 C 60.840826,4.9948354 62.930509,5.5895242 64.565850,7.4478827 L 64.565850,39.040001 C 64.565850,49.223791 62.748768,51.379459 54.026744,51.676815 L 54.026744,55.170538 L 79.920474,55.170538 L 79.920474,51.676815 C 71.289097,51.379459 69.471968,49.223791 69.471968,39.040001 L 69.471968,11.461956 L 109.99329,56.211215 L 113.80922,56.211215 L 113.80922,17.631673 C 113.80922,7.4478827 115.62632,5.2922150 124.34835,4.9948354 L 124.34835,1.5011354 L 98.454808,1.5011354 L 98.454808,4.9948354 C 107.08595,5.2922150 108.90303,7.4478827 108.90303,17.631673 L 108.90303,40.972651 L 72.651909,1.5011354 z M 13.596493,10.644273 L 13.596493,8.4885588 C 13.596493,5.3665540 14.414222,4.9948354 21.682553,4.9948354 L 23.499635,4.9948354 L 23.499635,1.5011354 L -6.5731793,1.5011354 L -6.5731793,4.9948354 L -4.7560733,4.9948354 C 2.6030920,4.9948354 3.4208215,5.3665540 3.4208215,8.4885588 L 3.4208215,10.644273 L 3.4208215,46.027378 L 3.4208215,48.183091 C 3.4208215,51.305144 2.6030920,51.676815 -4.7560733,51.676815 L -6.5731793,51.676815 L -6.5731793,55.170538 L 23.499635,55.170538 L 23.499635,51.676815 L 21.682553,51.676815 C 14.414222,51.676815 13.596493,51.305144 13.596493,48.183091 L 13.596493,46.027378 L 13.596493,10.644273 z "
         style="fill:#ffffff;fill-opacity:0.064615376;stroke-width:1.0000000pt" />
      <path
         id="path1123"
         d="M 722.38348,22.906694 L 723.48149,18.697622 C 732.63165,18.331629 743.00180,17.721617 754.59198,16.867609 C 753.61595,20.161641 752.88394,22.540678 752.39594,24.004720 C 751.05392,27.786766 749.16288,33.520867 746.72286,41.206979 L 731.89963,89.519725 C 724.82351,112.57808 721.28546,126.73029 721.28546,131.97637 C 721.28546,135.75844 722.38348,137.64946 724.57952,137.64946 C 727.62955,137.64946 731.41162,134.35541 735.92567,127.76729 C 738.24373,124.35125 740.86675,119.83719 743.79479,114.22508 L 748.00387,116.23813 C 744.34382,122.94823 741.59877,127.70631 739.76875,130.51235 C 734.15665,138.93047 727.75155,143.13954 720.55346,143.13954 C 716.89338,143.13954 713.90436,141.79752 711.58631,139.11348 C 709.26828,136.42944 708.10927,133.01339 708.10927,128.86533 C 708.10927,123.74123 710.18330,114.40810 714.33136,100.86588 L 730.43559,48.344089 C 733.97367,36.753912 735.74269,30.226813 735.74269,28.762794 C 735.74269,26.566742 734.88866,25.102722 733.18065,24.370713 C 731.47261,23.516706 727.87357,23.028691 722.38348,22.906694 z M 678.82882,62.984304 L 691.82200,62.984304 C 688.77196,71.158429 684.62390,83.114623 679.37782,98.852864 C 673.76573,115.81113 670.95969,127.34029 670.95969,133.44039 C 670.95969,136.00244 671.93570,137.28344 673.88773,137.28344 C 678.15779,137.28344 684.13589,128.98733 691.82200,112.39508 L 695.84807,114.04210 C 690.72400,125.14427 686.33192,132.76939 682.67187,136.91745 C 679.01180,141.06552 674.86373,143.13954 670.22767,143.13954 C 662.66355,143.13954 658.88150,139.72350 658.88150,132.89139 C 658.88150,131.06135 659.43050,127.34029 660.52853,121.72821 C 651.86639,136.12443 642.59424,143.32256 632.71210,143.32256 C 626.49001,143.32256 621.42692,141.24852 617.52286,137.10046 C 613.61879,132.95237 611.66676,127.52331 611.66676,120.81319 C 611.66676,106.90500 617.15684,93.423767 628.13703,80.369570 C 639.11720,67.193375 650.40237,60.605266 661.99255,60.605266 C 668.09265,60.605266 672.72872,63.960332 675.90075,70.670439 L 678.82882,62.984304 z M 663.45657,65.180332 C 659.79652,64.936336 655.52644,67.071378 650.64636,71.585433 C 645.88829,75.977513 641.43523,81.894600 637.28717,89.336716 C 628.99104,104.09895 624.84298,116.48212 624.84298,126.48629 C 624.84298,134.29440 627.89302,138.19846 633.99311,138.19846 C 643.87527,138.19846 653.20842,128.49931 661.99255,109.10102 C 667.97065,95.924825 671.32569,85.005646 672.05769,76.343506 C 672.30169,73.171473 671.63069,70.548418 670.04467,68.474387 C 668.45863,66.400356 666.26261,65.302353 663.45657,65.180332 z M 598.85659,115.32311 L 602.51663,117.15315 C 594.34250,134.47741 585.43636,143.13954 575.79822,143.13954 C 572.38217,143.13954 569.57613,141.91952 567.38008,139.47950 C 565.18405,136.91745 564.08605,133.68441 564.08605,129.78034 C 564.08605,127.09630 564.45204,124.59527 565.18405,122.27721 C 565.91606,119.95919 567.92911,114.77411 571.22316,106.72198 L 578.17726,90.068726 C 582.32532,80.186562 584.39936,73.537466 584.39936,70.121414 C 584.39936,67.681390 583.36234,66.461366 581.28830,66.461366 C 577.01825,66.461366 571.16215,73.171473 563.72003,86.591663 L 560.05998,84.395635 C 568.72210,68.535397 577.01825,60.605266 584.94836,60.605266 C 588.24240,60.605266 590.92645,61.825290 593.00048,64.265337 C 595.07451,66.705362 596.11153,69.877419 596.11153,73.781485 C 596.11153,78.417537 593.61049,87.018690 588.60842,99.584873 L 580.92229,118.80017 C 577.75026,126.73029 576.16421,131.91536 576.16421,134.35541 C 576.16421,136.55144 577.14024,137.64946 579.09228,137.64946 C 581.41030,137.64946 584.39936,135.57543 588.05940,131.42737 C 591.84147,127.15729 595.44053,121.78923 598.85659,115.32311 z M 596.11153,19.246646 C 598.42955,19.246646 600.38159,20.100654 601.96763,21.808668 C 603.67565,23.394708 604.52965,25.346742 604.52965,27.664768 C 604.52965,29.982794 603.67565,31.995837 601.96763,33.703852 C 600.38159,35.411890 598.42955,36.265897 596.11153,36.265897 C 593.79350,36.265897 591.78046,35.411890 590.07244,33.703852 C 588.36440,31.995837 587.51040,29.982794 587.51040,27.664768 C 587.51040,25.346742 588.36440,23.394708 590.07244,21.808668 C 591.78046,20.100654 593.79350,19.246646 596.11153,19.246646 z M 492.71494,89.519725 L 488.87189,87.872698 C 492.04392,80.064564 495.88698,73.598476 500.40105,68.474387 C 504.91513,63.228322 508.94120,60.605266 512.47925,60.605266 C 520.40936,60.605266 524.37443,66.400356 524.37443,77.990533 C 524.37443,80.064564 524.00842,84.212626 523.27640,90.434742 C 531.69453,70.548418 540.66167,60.605266 550.17782,60.605266 C 552.86186,60.605266 555.11890,61.459274 556.94894,63.167311 C 558.90094,64.753328 559.87698,66.705362 559.87698,69.023411 C 559.87698,70.975420 559.20596,72.622449 557.86393,73.964470 C 556.52191,75.306491 554.87490,75.977513 552.92288,75.977513 C 548.77482,75.977513 546.70076,73.598476 546.70076,68.840403 C 546.70076,67.498382 546.27375,66.827359 545.41975,66.827359 C 544.19972,66.827359 542.49171,67.925385 540.29568,70.121414 C 538.09963,72.317442 536.20861,74.879487 534.62259,77.807526 C 529.74251,86.591663 521.81238,107.57599 510.83222,140.76050 L 497.10700,140.76050 C 502.84111,123.55825 506.56216,110.99204 508.27017,103.06194 C 510.95422,90.617728 512.29624,81.589594 512.29624,75.977513 C 512.29624,69.999416 511.32024,67.010367 509.36820,67.010367 C 507.66017,67.010367 505.15913,69.206396 501.86507,73.598476 C 498.69302,77.990533 495.64298,83.297632 492.71494,89.519725 z M 454.46734,60.605266 C 461.66547,60.605266 467.52155,63.472317 472.03562,69.206396 C 476.54967,74.818501 478.80672,82.138595 478.80672,91.166752 C 478.80672,102.26892 474.84166,113.49308 466.91153,124.83926 C 458.37141,137.03945 448.00126,143.13954 435.80107,143.13954 C 428.35895,143.13954 422.25886,140.57750 417.50078,135.45343 C 412.74271,130.20735 410.36367,123.55825 410.36367,115.50612 C 410.36367,101.84191 415.36574,88.909713 425.36990,76.709523 C 434.15405,65.973352 443.85317,60.605266 454.46734,60.605266 z M 454.65036,64.814338 C 445.86622,64.326325 438.05809,73.110462 431.22598,91.166752 C 426.46790,103.73294 424.08887,115.01810 424.08887,125.02227 C 424.08887,134.29440 428.17595,138.93047 436.35007,138.93047 C 442.93818,138.93047 448.67226,134.72142 453.55232,126.30327 C 456.72438,120.93519 459.46942,113.85910 461.78747,105.07496 C 464.10549,96.168821 465.44751,87.811687 465.81353,80.003577 C 466.30152,70.365432 462.58046,65.302353 454.65036,64.814338 z M 386.20728,37.180915 L 399.01749,37.180915 L 391.14837,62.984304 L 405.60560,62.984304 L 404.32457,67.193375 L 389.86736,67.193375 L 386.39030,77.807526 C 383.46226,86.835682 380.35122,97.754838 377.05716,110.56504 C 373.76310,123.25325 372.11607,130.63435 372.11607,132.70838 C 372.11607,135.51442 373.39709,136.91745 375.95913,136.91745 C 380.47321,136.91745 385.90228,130.69536 392.24640,118.25115 C 392.85641,116.90913 393.77140,115.26213 394.99143,113.31009 L 398.65149,115.14010 C 393.89343,125.02227 390.35535,131.36636 388.03732,134.17240 C 383.03526,140.15050 377.72816,143.13954 372.11607,143.13954 C 368.33403,143.13954 365.28397,141.98054 362.96595,139.66248 C 360.64790,137.22246 359.48888,134.11141 359.48888,130.32935 C 359.48888,126.91329 360.03788,123.07023 361.13591,118.80017 C 362.35593,114.04210 366.25997,100.37789 372.84809,77.807526 L 375.95913,67.193375 L 361.31892,67.193375 L 362.78293,62.984304 L 377.42315,62.984304 L 386.20728,37.180915 z M 327.82939,61.520284 L 341.55462,61.520284 C 329.96443,98.486847 324.16935,121.91123 324.16935,131.79336 C 324.16935,135.45343 325.14535,137.28344 327.09739,137.28344 C 329.41541,137.28344 332.16047,135.08742 335.33252,130.69536 C 338.62655,126.18129 341.49360,120.63019 343.93365,114.04210 L 347.95972,115.68913 C 341.49360,133.98942 333.44147,143.13954 323.80333,143.13954 C 315.50720,143.13954 311.35914,138.50347 311.35914,129.23134 C 311.35914,126.79129 311.66415,122.82624 312.27416,117.33616 C 307.51609,124.65625 303.67303,129.96335 300.74497,133.25738 C 294.88889,139.84549 288.23978,143.13954 280.79766,143.13954 C 276.40560,143.13954 272.74556,141.61452 269.81749,138.56448 C 266.88945,135.51442 265.42543,131.73237 265.42543,127.21829 C 265.42543,125.02227 267.25547,117.64114 270.91552,105.07496 L 274.20958,93.728773 C 277.86962,81.162590 279.69966,73.415468 279.69966,70.487430 C 279.69966,68.169381 278.90664,67.010367 277.32062,67.010367 C 272.19653,67.010367 265.42543,75.062496 257.00729,91.166752 L 252.98125,89.153708 C 262.25338,70.121414 271.58652,60.605266 280.98066,60.605266 C 284.39672,60.605266 287.14178,61.886301 289.21580,64.448322 C 291.41183,67.010367 292.50986,70.365432 292.50986,74.513494 C 292.50986,79.637560 291.28984,86.042662 288.84979,93.728773 L 283.90870,109.28402 C 279.88266,121.97221 277.86962,129.35334 277.86962,131.42737 C 277.86962,135.69743 280.06565,137.83247 284.45773,137.83247 C 288.36180,137.83247 292.63186,135.45343 297.26793,130.69536 C 302.02601,125.93729 306.29607,119.65418 310.07811,111.84606 C 315.81222,100.01188 321.72930,83.236621 327.82939,61.520284 z M 231.56992,37.180915 L 244.38010,37.180915 L 236.51097,62.984304 L 250.96820,62.984304 L 249.68720,67.193375 L 235.22997,67.193375 L 231.75291,77.807526 C 228.82487,86.835682 225.71382,97.754838 222.41976,110.56504 C 219.12572,123.25325 217.47868,130.63435 217.47868,132.70838 C 217.47868,135.51442 218.75972,136.91745 221.32176,136.91745 C 225.83582,136.91745 231.26491,130.69536 237.60901,118.25115 C 238.21902,116.90913 239.13403,115.26213 240.35406,113.31009 L 244.01410,115.14010 C 239.25603,125.02227 235.71798,131.36636 233.39993,134.17240 C 228.39787,140.15050 223.09079,143.13954 217.47868,143.13954 C 213.69664,143.13954 210.64658,141.98054 208.32855,139.66248 C 206.01053,137.22246 204.85149,134.11141 204.85149,130.32935 C 204.85149,126.91329 205.40052,123.07023 206.49852,118.80017 C 207.71854,114.04210 211.62260,100.37789 218.21072,77.807526 L 221.32176,67.193375 L 206.68153,67.193375 L 208.14555,62.984304 L 222.78578,62.984304 L 231.56992,37.180915 z "
         style="fill:#ffffff;fill-opacity:0.11076898;stroke-width:1.0000000pt" />
    </g>
    <g
       id="g1798"
       transform="matrix(2.346561,0.000000,0.000000,2.346561,6.951127e-2,8.648172)">
      <path
         sodipodi:type="arc"
         style="stroke-width:1.0000000pt;stroke:none;fill-rule:evenodd;fill-opacity:0.75000000;fill:url(#radialGradient1507)"
         id="path691"
         sodipodi:cx="427.08334"
         sodipodi:cy="567.70831"
         sodipodi:rx="179.39815"
         sodipodi:ry="53.819443"
         d="M 606.48149 567.70831 A 179.39815 53.819443 0 1 1  247.68520,567.70831 A 179.39815 53.819443 0 1 1  606.48149 567.70831 z"
         transform="matrix(3.198050e-2,0.000000,0.000000,0.109292,5.149671,-45.83576)" />
      <path
         sodipodi:type="arc"
         style="stroke-width:1.0000000pt;stroke:none;fill-rule:evenodd;fill-opacity:0.75000000;fill:url(#radialGradient1509)"
         id="path690"
         sodipodi:cx="427.08334"
         sodipodi:cy="567.70831"
         sodipodi:rx="179.39815"
         sodipodi:ry="53.819443"
         d="M 606.48149 567.70831 A 179.39815 53.819443 0 1 1  247.68520,567.70831 A 179.39815 53.819443 0 1 1  606.48149 567.70831 z"
         transform="matrix(3.198050e-2,0.000000,0.000000,0.109292,2.022526,-44.58496)" />
      <path
         sodipodi:type="arc"
         style="stroke-width:1.0000000pt;stroke:none;fill-rule:evenodd;fill-opacity:0.75000000;fill:url(#radialGradient1511)"
         id="path689"
         sodipodi:cx="427.08334"
         sodipodi:cy="567.70831"
         sodipodi:rx="179.39815"
         sodipodi:ry="53.819443"
         d="M 606.48149 567.70831 A 179.39815 53.819443 0 1 1  247.68520,567.70831 A 179.39815 53.819443 0 1 1  606.48149 567.70831 z"
         transform="matrix(3.198050e-2,0.000000,0.000000,0.109292,-3.397884,-48.75451)" />
      <path
         sodipodi:type="arc"
         style="stroke-width:1.0000000pt;stroke:none;fill-rule:evenodd;fill-opacity:0.75000000;fill:url(#radialGradient1513)"
         id="path688"
         sodipodi:cx="427.08334"
         sodipodi:cy="567.70831"
         sodipodi:rx="179.39815"
         sodipodi:ry="53.819443"
         d="M 606.48149 567.70831 A 179.39815 53.819443 0 1 1  247.68520,567.70831 A 179.39815 53.819443 0 1 1  606.48149 567.70831 z"
         transform="matrix(3.198050e-2,0.000000,0.000000,0.109292,8.068429,-48.33756)" />
      <path
         sodipodi:type="arc"
         style="stroke-width:1.0000000pt;stroke:none;fill-rule:evenodd;fill-opacity:0.75000000;fill:url(#radialGradient1515)"
         id="path674"
         sodipodi:cx="427.08334"
         sodipodi:cy="567.70831"
         sodipodi:rx="179.39815"
         sodipodi:ry="53.819443"
         d="M 606.48149 567.70831 A 179.39815 53.819443 0 1 1  247.68520,567.70831 A 179.39815 53.819443 0 1 1  606.48149 567.70831 z"
         transform="matrix(3.198050e-2,0.000000,0.000000,0.109292,12.02955,-53.13256)" />
      <path
         sodipodi:type="arc"
         style="stroke-width:1.0000000pt;stroke:none;fill-rule:evenodd;fill-opacity:0.75000000;fill:url(#radialGradient1517)"
         id="path673"
         sodipodi:cx="427.08334"
         sodipodi:cy="567.70831"
         sodipodi:rx="179.39815"
         sodipodi:ry="53.819443"
         d="M 606.48149 567.70831 A 179.39815 53.819443 0 1 1  247.68520,567.70831 A 179.39815 53.819443 0 1 1  606.48149 567.70831 z"
         transform="matrix(3.198050e-2,0.000000,0.000000,0.109292,9.855679,-58.05951)" />
      <path
         sodipodi:type="arc"
         style="stroke-width:1.0000000pt;stroke:none;fill-rule:evenodd;fill-opacity:0.75000000;fill:url(#radialGradient1519)"
         id="path672"
         sodipodi:cx="427.08334"
         sodipodi:cy="567.70831"
         sodipodi:rx="179.39815"
         sodipodi:ry="53.819443"
         d="M 606.48149 567.70831 A 179.39815 53.819443 0 1 1  247.68520,567.70831 A 179.39815 53.819443 0 1 1  606.48149 567.70831 z"
         transform="matrix(3.198050e-2,0.000000,0.000000,0.109292,5.269166,-61.39511)" />
      <path
         sodipodi:type="arc"
         style="stroke-width:1.0000000pt;stroke:none;fill-rule:evenodd;fill-opacity:0.75000000;fill:url(#radialGradient1521)"
         id="path671"
         sodipodi:cx="427.08334"
         sodipodi:cy="567.70831"
         sodipodi:rx="179.39815"
         sodipodi:ry="53.819443"
         d="M 606.48149 567.70831 A 179.39815 53.819443 0 1 1  247.68520,567.70831 A 179.39815 53.819443 0 1 1  606.48149 567.70831 z"
         transform="matrix(3.198050e-2,0.000000,0.000000,0.109292,0.265717,-60.76966)" />
      <path
         sodipodi:type="arc"
         style="stroke-width:1.0000000pt;stroke:none;fill-rule:evenodd;fill-opacity:0.75000000;fill:url(#radialGradient1523)"
         id="path670"
         sodipodi:cx="427.08334"
         sodipodi:cy="567.70831"
         sodipodi:rx="179.39815"
         sodipodi:ry="53.819443"
         d="M 606.48149 567.70831 A 179.39815 53.819443 0 1 1  247.68520,567.70831 A 179.39815 53.819443 0 1 1  606.48149 567.70831 z"
         transform="matrix(3.198050e-2,0.000000,0.000000,0.109292,-3.903834,-56.18316)" />
      <path
         sodipodi:type="arc"
         style="stroke-width:1.0000000pt;stroke:none;fill-rule:evenodd;fill-opacity:0.75000000;fill:url(#radialGradient1525)"
         id="path665"
         sodipodi:cx="427.08334"
         sodipodi:cy="567.70831"
         sodipodi:rx="179.39815"
         sodipodi:ry="53.819443"
         d="M 606.48149 567.70831 A 179.39815 53.819443 0 1 1  247.68520,567.70831 A 179.39815 53.819443 0 1 1  606.48149 567.70831 z"
         transform="matrix(3.198050e-2,0.000000,0.000000,0.109292,-6.614049,-53.47301)" />
      <g
         id="g839"
         transform="matrix(5.883700e-2,0.000000,0.000000,5.883700e-2,-4.768899,-3.296641)">
        <path
           style="font-size:12.000000;fill:#ffffff;fill-rule:evenodd;stroke:#000000;stroke-width:0.93619299pt"
           d="M 397.64309,320.25301 L 280.39197,282.51700 L 250.74227,124.83447 L 345.08225,29.146783 L 393.59996,46.667064 L 483.89679,135.61619 L 397.64309,320.25301 z "
           id="path805" />
        <path
           style="font-size:12.000000;fill:#000000;fill-opacity:1.0000000;fill-rule:evenodd;stroke-width:1.0000000pt"
           d="M 476.95792,339.17168 C 495.78197,342.93607 499.54842,356.11361 495.78197,359.87802 C 492.01856,363.64340 482.60650,367.40781 475.07663,361.76014 C 467.54478,356.11361 467.54478,342.93607 476.95792,339.17168 z "
           id="path1791" />
        <path
           style="font-size:12.000000;fill:#000000;fill-opacity:1.0000000;fill-rule:evenodd;stroke-width:1.0000000pt"
           d="M 286.46194,340.42914 C 284.62770,340.91835 269.30405,327.71337 257.16909,333.83380 C 245.03722,339.95336 236.89276,353.65666 248.22676,359.27982 C 259.56184,364.90298 267.66433,358.41867 277.60113,351.44119 C 287.53903,344.46477 287.18046,343.12060 286.46194,340.42914 z "
           id="path1792" />
        <path
           style="font-size:12.000000;fill:#000000;fill-opacity:1.0000000;fill-rule:evenodd;stroke-width:1.0000000pt"
           d="M 510.35756,306.92856 C 520.59494,304.36879 544.24333,306.92856 540.47688,321.98634 C 536.71354,337.04806 504.71297,331.39827 484.00371,323.87156 C 482.12141,308.81083 505.53237,308.13423 510.35756,306.92856 z "
           id="path1793" />
        <path
           style="font-size:12.000000;fill:#000000;fill-opacity:1.0000000;fill-rule:evenodd;stroke-width:1.0000000pt"
           d="M 359.24030,21.362537 C 347.92693,21.362537 336.63470,25.683095 327.96556,34.352230 L 173.87387,188.41466 C 165.37697,196.91140 161.11160,207.95813 160.94269,219.04577 L 160.88418,219.04577 C 160.88418,219.08524 160.94076,219.12322 160.94269,219.16279 C 160.94033,219.34888 160.88418,219.53256 160.88418,219.71865 L 161.14748,219.71865 C 164.09660,230.93917 240.29699,245.24198 248.79866,253.74346 C 261.63771,266.58263 199.56520,276.01151 212.40410,288.85074 C 225.24316,301.68979 289.99433,313.69330 302.83460,326.53254 C 315.67368,339.37161 276.59610,353.04289 289.43532,365.88196 C 302.27439,378.72118 345.40201,362.67257 337.59080,396.16198 C 354.92909,413.50026 391.10302,405.22080 415.32417,387.88252 C 428.16323,375.04345 390.69480,376.17577 403.53397,363.33668 C 416.37304,350.49745 448.78128,350.42820 476.08902,319.71589 C 465.09739,302.62116 429.10801,295.34136 441.94719,282.50217 C 454.78625,269.66311 479.74708,276.18423 533.60644,251.72479 C 559.89837,239.78398 557.72636,230.71459 557.62567,219.71865 C 557.62356,219.48727 557.62567,219.27892 557.62567,219.04577 L 557.56716,219.04577 C 557.39830,207.95812 553.10345,196.91140 544.60673,188.41466 L 390.54428,34.352230 C 381.87515,25.683095 370.55366,21.362537 359.24030,21.362537 z M 357.92378,41.402939 C 362.95327,41.533963 367.01541,45.368018 374.98006,50.530832 L 447.76915,104.50827 C 448.56596,105.02498 449.32484,105.56400 450.02187,106.11735 C 450.71890,106.67062 451.35560,107.25745 451.95277,107.84347 C 452.54997,108.42842 453.09281,109.01553 453.59111,109.62808 C 454.08837,110.24052 454.53956,110.86661 454.93688,111.50048 C 455.33532,112.13538 455.69164,112.78029 455.99010,113.43137 C 456.28877,114.08363 456.52291,114.75639 456.72150,115.42078 C 456.92126,116.08419 457.08982,116.73973 457.18961,117.41019 C 457.28949,118.08184 457.33588,118.75535 457.33588,119.42886 L 414.21245,98.598549 L 409.91180,131.16055 L 386.18512,120.04324 L 349.55654,144.50131 L 335.54288,96.170300 L 317.49190,138.44530 L 267.08369,143.47735 L 267.63956,121.03795 C 267.63956,115.64823 296.69685,77.915899 314.39075,68.932902 L 346.77721,45.674327 C 351.55594,42.576634 354.90608,41.324327 357.92378,41.402939 z M 290.92738,261.61333 C 313.87149,267.56365 339.40299,275.37038 359.88393,275.50997 L 360.76161,284.72563 C 343.22350,282.91785 306.11346,274.45012 297.36372,269.98057 L 290.92738,261.61333 z "
           id="path831" />
      </g>
    </g>
    <path
       style="fill:#ffffff;fill-opacity:1.0000000;stroke-width:1.0000000pt"
       d="M 373.61929,20.202987 L 349.15279,20.202987 L 349.15279,21.768439 L 349.88558,21.768439 C 353.18304,21.768439 353.54944,21.934990 353.54944,23.333894 L 353.54944,24.299809 L 353.54944,40.154117 L 353.54944,41.120058 C 353.54944,42.518962 353.18304,42.685510 349.88558,42.685510 L 349.15279,42.685510 L 349.15279,44.250937 L 374.14851,44.250937 L 374.96272,35.357868 L 373.17149,35.357868 C 372.64226,37.689383 371.70594,39.754460 370.72889,40.720348 C 369.46692,42.052670 367.14646,42.685510 363.72686,42.685510 L 361.04001,42.685510 C 359.81875,42.685510 358.80100,42.485656 358.43459,42.185887 C 358.14962,41.986034 358.10891,41.786204 358.10891,41.086726 L 358.10891,32.593340 L 358.92311,32.593340 C 361.40642,32.593340 362.42414,32.793195 363.23834,33.492648 C 364.29679,34.358650 364.70388,35.424479 364.78532,37.389614 L 366.69865,37.389614 L 366.69865,26.464799 L 364.78532,26.464799 C 364.58175,29.728898 362.95334,31.027888 359.08596,31.027888 L 358.10891,31.027888 L 358.10891,23.433809 C 358.10891,22.001600 358.47530,21.768439 360.67360,21.768439 L 362.79054,21.768439 C 366.37297,21.768439 368.12349,22.068209 369.50763,23.000820 C 370.85103,23.866797 371.82807,25.732018 372.43873,28.729679 L 374.18924,28.729679 L 373.61929,20.202987 z M 319.59758,33.559283 L 324.19778,33.559283 C 327.86164,33.559283 329.77498,33.326124 331.40337,32.693280 C 334.29378,31.560817 335.92217,29.429155 335.92217,26.797847 C 335.92217,24.266503 334.49733,22.334672 331.81048,21.235513 C 330.22279,20.569367 327.69882,20.202987 324.88984,20.202987 L 310.64147,20.202987 L 310.64147,21.768439 L 311.37423,21.768439 C 314.67172,21.768439 315.03810,21.934990 315.03810,23.333894 L 315.03810,24.299809 L 315.03810,40.154117 L 315.03810,41.120058 C 315.03810,42.518962 314.67172,42.685510 311.37423,42.685510 L 310.64147,42.685510 L 310.64147,44.250937 L 324.31993,44.250937 L 324.31993,42.685510 L 323.26143,42.685510 C 319.96398,42.685510 319.59758,42.518962 319.59758,41.120058 L 319.59758,40.154117 L 319.59758,33.559283 z M 319.59758,31.993829 L 319.59758,23.467138 C 319.59758,21.934990 319.84184,21.768439 322.08088,21.768439 L 324.68630,21.768439 C 328.92009,21.768439 330.91487,23.400528 330.91487,26.931091 C 330.91487,30.361742 328.83866,31.993829 324.52346,31.993829 L 319.59758,31.993829 z M 284.18018,19.736694 L 282.47039,19.736694 L 273.10714,39.154896 C 272.29296,40.886899 272.13012,41.120058 271.51948,41.652959 C 270.86813,42.285804 269.72826,42.685510 268.62909,42.685510 L 268.46626,42.685510 L 268.46626,44.250937 L 279.25431,44.250937 L 279.25431,42.685510 L 278.44011,42.685510 C 276.24179,42.685510 275.14264,42.052670 275.14264,40.786984 C 275.14264,40.387276 275.26477,39.920984 275.50902,39.388055 L 276.85244,36.457003 L 287.64051,36.457003 L 289.83884,40.920203 C 290.08307,41.419826 290.16451,41.652959 290.16451,41.819510 C 290.16451,42.352411 289.14677,42.685510 287.64051,42.685510 L 285.93071,42.685510 L 285.93071,44.250937 L 298.55066,44.250937 L 298.55066,42.685510 L 297.98076,42.685510 C 295.94526,42.685510 295.49747,42.419047 294.56114,40.553825 L 284.18018,19.736694 z M 282.18540,25.199115 L 286.78560,34.658417 L 277.66661,34.658417 L 282.18540,25.199115 z M 254.09576,19.969853 L 252.54878,19.969853 L 250.92040,21.934990 C 248.03002,20.202987 246.44233,19.703390 243.71479,19.703390 C 239.76590,19.703390 236.50913,21.002379 233.74086,23.700272 C 231.13546,26.231640 229.91418,29.029447 229.91418,32.460122 C 229.91418,39.621214 235.65424,44.750559 243.67407,44.750559 C 250.18760,44.750559 254.34001,41.619655 255.27633,36.024015 L 253.36299,35.757552 C 252.95587,37.522833 252.46736,38.721908 251.73459,39.721129 C 250.06548,42.019338 247.46007,43.185108 244.16259,43.185108 C 238.13751,43.185108 235.28783,39.754460 235.28783,32.593340 C 235.28783,28.829619 235.89849,26.298249 237.28262,24.299809 C 238.54461,22.434587 241.06860,21.268842 243.67407,21.268842 C 246.52375,21.268842 249.04775,22.501197 250.59471,24.632882 C 251.36821,25.732018 251.97883,27.031006 252.91519,29.595680 L 254.70638,29.595680 L 254.09576,19.969853 z M 213.34532,20.003160 L 211.83908,20.003160 L 210.21071,22.001600 C 208.29737,20.502756 205.69192,19.703390 202.80159,19.703390 C 197.46863,19.703390 193.88617,22.501197 193.88617,26.664629 C 193.88617,30.295131 196.08450,32.093744 202.06883,33.359428 L 205.93620,34.158794 C 208.94872,34.791636 209.23367,34.858244 210.08861,35.391173 C 211.30990,36.157236 211.96122,37.256396 211.96122,38.555384 C 211.96122,39.887677 211.35058,40.986812 210.12930,41.886119 C 208.78588,42.852034 207.44243,43.218412 205.20341,43.218412 C 202.19094,43.218412 200.03333,42.452325 198.11998,40.720348 C 196.41016,39.154896 195.55526,37.589443 194.94462,35.024795 L 193.19411,35.024795 L 193.35695,44.517404 L 194.94462,44.517404 L 196.77654,42.252497 C 199.50409,44.084389 201.78382,44.750559 205.32555,44.750559 C 211.30990,44.750559 215.13660,41.886119 215.13660,37.422921 C 215.13660,35.357868 214.28169,33.592561 212.69401,32.326903 C 211.59483,31.460901 210.00717,30.894668 206.75037,30.228521 L 202.39447,29.329242 C 198.77132,28.563154 197.06152,27.264166 197.06152,25.232420 C 197.06152,22.900906 199.38196,21.302124 202.84230,21.302124 C 205.69192,21.302124 208.01238,22.301368 209.64080,24.199895 C 210.82137,25.565495 211.55414,26.964398 212.08335,28.663069 L 213.83389,28.663069 L 213.34532,20.003160 z M 158.30589,33.359428 L 158.30589,24.299809 L 158.30589,23.333894 C 158.30589,21.934990 158.67230,21.768439 161.96978,21.768439 L 162.74327,21.768439 L 162.74327,20.202987 L 149.34975,20.202987 L 149.34975,21.768439 L 150.08254,21.768439 C 153.38000,21.768439 153.74641,21.934990 153.74641,23.333894 L 153.74641,24.299809 L 153.74641,40.154117 L 153.74641,41.120058 C 153.74641,42.518962 153.38000,42.685510 150.08254,42.685510 L 149.34975,42.685510 L 149.34975,44.250937 L 162.74327,44.250937 L 162.74327,42.685510 L 161.96978,42.685510 C 158.67230,42.685510 158.30589,42.518962 158.30589,41.120058 L 158.30589,40.154117 L 158.30589,35.924102 L 163.02823,32.027109 L 170.11172,40.520495 C 170.76307,41.319886 170.92591,41.586350 170.92591,41.919424 C 170.92591,42.452325 170.15244,42.685510 168.15766,42.685510 L 166.89564,42.685510 L 166.89564,44.250937 L 180.81835,44.250937 L 180.81835,42.685510 L 180.04489,42.685510 C 177.80586,42.685510 177.23592,42.452325 176.05531,41.020118 L 166.20358,29.395851 L 172.26930,24.433028 C 174.22338,22.734356 176.70667,21.768439 179.14929,21.768439 L 179.14929,20.202987 L 166.61070,20.202987 L 166.61070,21.768439 L 167.62843,21.768439 C 169.50106,21.768439 170.27456,22.068209 170.27456,22.767661 C 170.27456,23.233953 169.46036,24.199895 168.27976,25.165784 L 158.30589,33.359428 z M 112.79236,20.202987 L 104.40619,20.202987 L 104.40619,21.768439 L 105.42391,21.768439 C 107.50012,21.768439 108.43646,22.034904 109.16921,22.867575 L 109.16921,37.023236 C 109.16921,41.586350 108.35503,42.552267 104.44691,42.685510 L 104.44691,44.250937 L 116.04926,44.250937 L 116.04926,42.685510 C 112.18173,42.552267 111.36754,41.586350 111.36754,37.023236 L 111.36754,24.666188 L 129.52413,44.717256 L 131.23396,44.717256 L 131.23396,27.430689 C 131.23396,22.867575 132.04818,21.901686 135.95631,21.768439 L 135.95631,20.202987 L 124.35403,20.202987 L 124.35403,21.768439 C 128.22145,21.901686 129.03563,22.867575 129.03563,27.430689 L 129.03563,37.889211 L 112.79236,20.202987 z M 86.331061,24.299809 L 86.331061,23.333894 C 86.331061,21.934990 86.697465,21.768439 89.954236,21.768439 L 90.768440,21.768439 L 90.768440,20.202987 L 77.293535,20.202987 L 77.293535,21.768439 L 78.107739,21.768439 C 81.405197,21.768439 81.771599,21.934990 81.771599,23.333894 L 81.771599,24.299809 L 81.771599,40.154117 L 81.771599,41.120058 C 81.771599,42.518962 81.405197,42.685510 78.107739,42.685510 L 77.293535,42.685510 L 77.293535,44.250937 L 90.768440,44.250937 L 90.768440,42.685510 L 89.954236,42.685510 C 86.697465,42.685510 86.331061,42.518962 86.331061,41.120058 L 86.331061,40.154117 L 86.331061,24.299809 z "
       id="path93" />
  </g>
</svg>
