<?xml version="1.0" encoding="UTF-8" standalone="no"?>
<!-- Created with Inkscape (http://www.inkscape.org/) -->
<svg
   xmlns:xml="http://www.w3.org/XML/1998/namespace"
   xmlns:dc="http://purl.org/dc/elements/1.1/"
   xmlns:cc="http://web.resource.org/cc/"
   xmlns:rdf="http://www.w3.org/1999/02/22-rdf-syntax-ns#"
   xmlns:svg="http://www.w3.org/2000/svg"
   xmlns="http://www.w3.org/2000/svg"
   xmlns:xlink="http://www.w3.org/1999/xlink"
   xmlns:sodipodi="http://sodipodi.sourceforge.net/DTD/sodipodi-0.dtd"
   xmlns:inkscape="http://www.inkscape.org/namespaces/inkscape"
   sodipodi:docname="tracing-f02.svg"
   sodipodi:docbase="/home/aaron/notes/inkdoc/tracing"
   inkscape:version="0.41+cvs"
   sodipodi:version="0.32"
   id="svg3129"
   height="1052.3622047"
   width="744.09448819">
  <defs
     id="defs3" />
  <sodipodi:namedview
     inkscape:window-y="21"
     inkscape:window-x="4"
     inkscape:window-height="513"
     inkscape:window-width="753"
     inkscape:current-layer="layer1"
     inkscape:document-units="px"
     inkscape:cy="795.57614"
     inkscape:cx="281.12123"
     inkscape:zoom="0.98994949"
     inkscape:pageshadow="2"
     inkscape:pageopacity="0.0"
     borderopacity="1.0"
     bordercolor="#666666"
     pagecolor="#ffffff"
     id="base" />
  <metadata
     id="metadata4">
    <rdf:RDF
       id="RDF5">
      <cc:Work
         id="Work6"
         rdf:about="">
        <dc:format
           id="format7">image/svg+xml</dc:format>
        <dc:type
           rdf:resource="http://purl.org/dc/dcmitype/StillImage"
           id="type9" />
      </cc:Work>
    </rdf:RDF>
  </metadata>
  <g
     id="layer1"
     inkscape:groupmode="layer"
     inkscape:label="Layer 1">
    <text
       sodipodi:insensitive="true"
       sodipodi:linespacing="100.00000%"
       id="text1823"
       y="97.154671"
       x="69.581543"
       style="font-size:6.0000000;font-style:normal;font-variant:normal;font-weight:bold;font-stretch:normal;line-height:100.00000%;writing-mode:lr-tb;text-anchor:middle;fill:#000000;fill-opacity:1.0000000;stroke:none;stroke-width:1.0000000pt;stroke-linecap:butt;stroke-linejoin:miter;stroke-opacity:1.0000000;display:block;font-family:sans-serif"
       xml:space="preserve"><tspan
         y="97.154671"
         x="69.581543"
         id="tspan1824"
         sodipodi:role="line">Original Image</tspan></text>
    <text
       sodipodi:insensitive="true"
       sodipodi:linespacing="100.00000%"
       id="text1826"
       y="97.37867"
       x="158.69894"
       style="font-size:6.0000000;font-style:normal;font-variant:normal;font-weight:bold;font-stretch:normal;line-height:100.00000%;writing-mode:lr-tb;text-anchor:middle;fill:#000000;fill-opacity:1.0000000;stroke:none;stroke-width:1.0000000pt;stroke-linecap:butt;stroke-linejoin:miter;stroke-opacity:1.0000000;display:block;font-family:sans-serif"
       xml:space="preserve"><tspan
         y="97.378670"
         x="158.69894"
         id="tspan1827"
         sodipodi:role="line">Brightness Threshold</tspan><tspan
         y="103.37867"
         x="158.69894"
         id="tspan1829"
         sodipodi:role="line">Fill, no Stroke</tspan></text>
    <text
       sodipodi:linespacing="100.00000%"
       id="text1483"
       y="97.37867"
       x="244.99974"
       style="font-size:6.0000000;font-style:normal;font-variant:normal;font-weight:bold;font-stretch:normal;line-height:100.00000%;writing-mode:lr-tb;text-anchor:middle;fill:#000000;fill-opacity:1.0000000;stroke:none;stroke-width:1.0000000pt;stroke-linecap:butt;stroke-linejoin:miter;stroke-opacity:1.0000000;display:block;font-family:sans-serif"
       xml:space="preserve"><tspan
         id="tspan1488"
         sodipodi:role="line"
         y="97.378670"
         x="244.99974">Brightness Threshold</tspan><tspan
         id="tspan1490"
         sodipodi:role="line"
         y="103.37867"
         x="244.99974">Stroke, no Fill</tspan></text>
    <image
       y="-3.0566407e-05"
       x="31.098881"
       id="image1881"
       height="91.143097"
       width="76.965286"
       sodipodi:absref="/tux.png"
       xlink:href="tux.png" />
    <path
       id="path1510"
       d="M 143.51820,88.292440 C 142.54347,87.829510 138.23052,86.502180 133.93387,85.342820 C 129.23583,84.075150 125.92102,82.916640 125.61816,82.436520 C 125.26576,81.877840 125.38755,80.770220 126.02383,78.747320 C 126.65095,76.753550 126.83372,75.131410 126.61283,73.519830 C 126.37994,71.820720 126.44450,71.335110 126.84944,71.740050 C 127.42740,72.318020 127.24347,77.525520 126.55306,80.131070 C 126.22213,81.379990 126.36507,81.600350 127.93028,82.254350 C 128.89085,82.655690 130.91126,83.131940 132.42009,83.312660 C 133.92892,83.493390 137.58655,84.213070 140.54816,84.911960 C 145.71327,86.130830 146.00598,86.147980 147.72453,85.332480 C 149.94988,84.276480 151.24339,81.792330 150.77843,79.467530 C 150.59621,78.556440 148.85238,75.285180 146.90326,72.198050 C 140.78188,62.502690 139.46983,61.248790 136.84775,62.588250 C 135.55179,63.250280 135.48040,63.218020 135.17615,61.832760 C 134.74276,59.859540 135.25289,58.017200 137.22519,54.432690 C 138.14460,52.761740 139.46913,49.635770 140.16859,47.486100 C 141.75042,42.624590 142.14523,41.879240 144.80351,38.735830 C 145.98107,37.343360 147.64081,35.099020 148.49181,33.748390 L 150.03909,31.292710 L 149.73859,21.493920 C 149.47374,12.857690 149.54485,11.415560 150.33798,9.3387900 C 152.35989,4.0444900 156.18416,1.7074000 162.12492,2.1355400 C 167.55612,2.5269500 171.24846,4.7620100 173.75981,9.1783900 C 175.15006,11.623250 175.41126,12.994890 175.86288,20.222450 C 176.23723,26.213360 176.30119,26.462440 178.66221,31.124980 C 179.99114,33.749330 182.20426,37.183060 183.58025,38.755480 C 188.31925,44.171000 190.84531,50.947170 190.84020,58.230320 C 190.83689,62.960490 190.80446,63.089350 188.89419,65.962960 C 186.43700,69.659300 185.38327,70.382730 182.45653,70.382730 C 178.82421,70.382730 178.71413,70.081500 178.68080,60.050580 C 178.64892,50.458530 178.06113,47.806350 174.99913,43.438280 C 174.16221,42.244390 173.32392,40.470080 173.13626,39.495350 C 172.77582,37.623250 168.92249,29.337360 168.16181,28.798700 C 167.91601,28.624640 167.96709,28.326370 168.27532,28.135880 C 168.97678,27.702340 169.01374,24.980970 168.32395,24.554660 C 168.00000,24.354440 168.09292,23.837520 168.57712,23.146230 C 169.62094,21.655970 169.53708,19.583230 168.33787,17.232570 C 167.18138,14.965670 165.81237,14.345470 163.80259,15.177950 C 161.97813,15.933660 161.03232,17.737850 161.35515,19.846580 C 161.63748,21.690800 161.39632,22.785780 160.70781,22.785780 C 160.46127,22.785780 160.40417,22.408920 160.58092,21.948310 C 160.85685,21.229260 160.61187,21.149790 158.84845,21.386310 L 156.79461,21.661790 L 157.04035,19.818620 C 157.22465,18.436270 157.01166,17.627320 156.18842,16.582990 C 153.98076,13.782420 151.61981,15.556910 151.61981,20.016740 C 151.61981,22.721110 152.57426,24.713540 153.57382,24.095780 C 154.00652,23.828360 153.95981,23.442740 153.39746,22.639880 C 152.48956,21.343670 152.39785,19.172180 153.21643,18.353600 C 154.03154,17.538490 155.47820,18.405770 155.86338,19.940460 C 156.03348,20.618170 156.31192,21.535610 156.48215,21.979220 C 156.65739,22.435870 156.53280,22.785780 156.19497,22.785780 C 155.37481,22.785780 154.44428,23.789070 153.41077,25.787660 C 152.57535,27.403180 152.57919,27.514660 153.50197,28.437440 C 155.64819,30.583670 160.88915,29.942850 165.35376,26.988310 C 166.44469,26.266370 167.45629,25.794720 167.60176,25.940190 C 167.86108,26.199510 165.67842,27.737920 162.55955,29.494140 C 161.66072,30.000260 159.93055,30.379810 158.52013,30.380260 C 156.38455,30.380940 156.13768,30.483120 156.68331,31.140570 C 157.52377,32.153260 158.96407,32.097860 162.55433,30.914750 C 165.48901,29.947680 165.52098,29.947470 164.27857,30.903400 C 160.38423,33.899790 157.83072,33.946780 154.65802,31.080430 C 152.60295,29.223800 152.12616,29.449120 152.12616,32.276940 C 152.12616,32.995640 151.45627,34.628970 150.63752,35.906570 C 149.81877,37.184170 148.86967,39.368760 148.52840,40.761230 C 148.18713,42.153690 146.80430,45.571820 145.45545,48.357060 C 142.92815,53.575660 141.74006,58.946060 142.48841,61.768660 C 142.69537,62.549280 144.71778,64.563140 147.72368,66.981810 C 152.99391,71.222450 153.92604,72.724440 152.36087,74.453940 C 151.86696,74.999700 151.15638,75.446240 150.78180,75.446240 C 148.90283,75.446240 151.42372,79.051790 154.00557,80.057110 C 156.08298,80.866010 161.96220,80.687780 164.85083,79.728330 C 167.62908,78.805540 171.24132,76.312960 173.77264,73.571930 L 175.41828,71.789960 L 175.41828,76.934530 C 175.41828,82.725230 176.11001,84.777420 178.34878,85.628600 C 180.34532,86.387680 182.74041,85.767310 187.51937,83.253270 C 192.40998,80.680490 193.29320,80.415210 190.25343,82.432080 C 189.08326,83.208480 187.14064,84.767120 185.93651,85.895730 C 183.00732,88.641180 181.99825,89.118040 179.12261,89.115810 C 176.50153,89.113780 173.39288,87.639930 173.39288,86.399280 C 173.39288,85.291300 171.71585,85.081230 162.81167,85.073810 L 154.50903,85.066900 L 152.24900,86.918830 C 149.53870,89.139720 146.35637,89.640390 143.51820,88.292440 z M 174.18937,29.592660 C 172.94403,28.673450 172.64228,28.978540 173.39876,30.392040 C 173.85235,31.239570 174.13179,31.361650 174.57908,30.907670 C 175.02403,30.456050 174.93022,30.139490 174.18937,29.592660 z M 167.82302,7.3122100 C 167.82302,7.1894000 167.59517,7.0889200 167.31667,7.0889200 C 167.03818,7.0889200 166.81032,7.3302200 166.81032,7.6251500 C 166.81032,7.9200800 167.03818,8.0205600 167.31667,7.8484400 C 167.59517,7.6763300 167.82302,7.4350200 167.82302,7.3122100 z M 126.34580,69.969680 C 126.29315,68.551210 127.14395,66.838280 127.90115,66.838280 C 128.27304,66.838280 128.25586,67.074230 127.84820,67.565440 C 127.51628,67.965370 127.05225,68.933760 126.81702,69.717430 C 126.43212,70.999700 126.38497,71.024940 126.34580,69.969680 z M 130.85943,66.479100 C 132.57016,66.342260 133.43578,65.954200 134.33287,64.921920 C 134.99004,64.165720 135.35414,63.888790 135.14197,64.306530 C 134.11999,66.318670 133.22039,66.837750 130.90754,66.749820 L 128.58086,66.661360 L 130.85943,66.479100 z M 163.96705,22.904620 C 162.88078,22.189000 162.64550,20.250300 163.48873,18.963360 C 164.96150,16.715630 167.31667,17.665490 167.31667,20.507210 C 167.31667,22.828870 165.65614,24.017360 163.96705,22.904620 z " />
    <path
       style="fill:none;stroke:#000000;stroke-width:0.37500000;stroke-miterlimit:4.0000000;stroke-opacity:1.0000000"
       id="path1515"
       d="M 229.81902,88.292420 C 228.84429,87.829490 224.53134,86.502160 220.23469,85.342800 C 215.53665,84.075130 212.22184,82.916620 211.91898,82.436500 C 211.56658,81.877820 211.68837,80.770200 212.32465,78.747300 C 212.95177,76.753530 213.13454,75.131390 212.91365,73.519810 C 212.68076,71.820700 212.74532,71.335090 213.15026,71.740030 C 213.72822,72.318000 213.54429,77.525500 212.85388,80.131050 C 212.52295,81.379970 212.66589,81.600330 214.23110,82.254330 C 215.19167,82.655670 217.21208,83.131920 218.72091,83.312640 C 220.22974,83.493370 223.88737,84.213050 226.84898,84.911940 C 232.01409,86.130810 232.30680,86.147960 234.02535,85.332460 C 236.25070,84.276460 237.54421,81.792310 237.07925,79.467510 C 236.89703,78.556420 235.15320,75.285160 233.20408,72.198030 C 227.08270,62.502670 225.77065,61.248770 223.14857,62.588230 C 221.85261,63.250260 221.78122,63.218000 221.47697,61.832740 C 221.04358,59.859520 221.55371,58.017180 223.52601,54.432670 C 224.44542,52.761720 225.76995,49.635750 226.46941,47.486080 C 228.05124,42.624570 228.44605,41.879220 231.10433,38.735810 C 232.28189,37.343340 233.94163,35.099000 234.79263,33.748370 L 236.33991,31.292690 L 236.03941,21.493900 C 235.77456,12.857670 235.84567,11.415540 236.63880,9.3387700 C 238.66071,4.0444700 242.48498,1.7073800 248.42574,2.1355200 C 253.85694,2.5269300 257.54928,4.7619900 260.06063,9.1783700 C 261.45088,11.623230 261.71208,12.994870 262.16370,20.222430 C 262.53805,26.213340 262.60201,26.462420 264.96303,31.124960 C 266.29196,33.749310 268.50508,37.183040 269.88107,38.755460 C 274.62007,44.170980 277.14613,50.947150 277.14102,58.230300 C 277.13771,62.960470 277.10528,63.089330 275.19501,65.962940 C 272.73782,69.659280 271.68409,70.382710 268.75735,70.382710 C 265.12503,70.382710 265.01495,70.081480 264.98162,60.050560 C 264.94974,50.458510 264.36195,47.806330 261.29995,43.438260 C 260.46303,42.244370 259.62474,40.470060 259.43708,39.495330 C 259.07664,37.623230 255.22331,29.337340 254.46263,28.798680 C 254.21683,28.624620 254.26791,28.326350 254.57614,28.135860 C 255.27760,27.702320 255.31456,24.980950 254.62477,24.554640 C 254.30082,24.354420 254.39374,23.837500 254.87794,23.146210 C 255.92176,21.655950 255.83790,19.583210 254.63869,17.232550 C 253.48220,14.965650 252.11319,14.345450 250.10341,15.177930 C 248.27895,15.933640 247.33314,17.737830 247.65597,19.846560 C 247.93830,21.690780 247.69714,22.785760 247.00863,22.785760 C 246.76209,22.785760 246.70499,22.408900 246.88174,21.948290 C 247.15767,21.229240 246.91269,21.149770 245.14927,21.386290 L 243.09543,21.661770 L 243.34117,19.818600 C 243.52547,18.436250 243.31248,17.627300 242.48924,16.582970 C 240.28158,13.782400 237.92063,15.556890 237.92063,20.016720 C 237.92063,22.721090 238.87508,24.713520 239.87464,24.095760 C 240.30734,23.828340 240.26063,23.442720 239.69828,22.639860 C 238.79038,21.343650 238.69867,19.172160 239.51725,18.353580 C 240.33236,17.538470 241.77902,18.405750 242.16420,19.940440 C 242.33430,20.618150 242.61274,21.535590 242.78297,21.979200 C 242.95821,22.435850 242.83362,22.785760 242.49579,22.785760 C 241.67563,22.785760 240.74510,23.789050 239.71159,25.787640 C 238.87617,27.403160 238.88001,27.514640 239.80279,28.437420 C 241.94901,30.583650 247.18997,29.942830 251.65458,26.988290 C 252.74551,26.266350 253.75711,25.794700 253.90258,25.940170 C 254.16190,26.199490 251.97924,27.737900 248.86037,29.494120 C 247.96154,30.000240 246.23137,30.379790 244.82095,30.380240 C 242.68537,30.380920 242.43850,30.483100 242.98413,31.140550 C 243.82459,32.153240 245.26489,32.097840 248.85515,30.914730 C 251.78983,29.947660 251.82180,29.947450 250.57939,30.903380 C 246.68505,33.899770 244.13154,33.946760 240.95884,31.080410 C 238.90377,29.223780 238.42698,29.449100 238.42698,32.276920 C 238.42698,32.995620 237.75709,34.628950 236.93834,35.906550 C 236.11959,37.184150 235.17049,39.368740 234.82922,40.761210 C 234.48795,42.153670 233.10512,45.571800 231.75627,48.357040 C 229.22897,53.575640 228.04088,58.946040 228.78923,61.768640 C 228.99619,62.549260 231.01860,64.563120 234.02450,66.981790 C 239.29473,71.222430 240.22686,72.724420 238.66169,74.453920 C 238.16778,74.999680 237.45720,75.446220 237.08262,75.446220 C 235.20365,75.446220 237.72454,79.051770 240.30639,80.057090 C 242.38380,80.865990 248.26302,80.687760 251.15165,79.728310 C 253.92990,78.805520 257.54214,76.312940 260.07346,73.571910 L 261.71910,71.789940 L 261.71910,76.934510 C 261.71910,82.725210 262.41083,84.777400 264.64960,85.628580 C 266.64614,86.387660 269.04123,85.767290 273.82019,83.253250 C 278.71080,80.680470 279.59402,80.415190 276.55425,82.432060 C 275.38408,83.208460 273.44146,84.767100 272.23733,85.895710 C 269.30814,88.641160 268.29907,89.118020 265.42343,89.115790 C 262.80235,89.113760 259.69370,87.639910 259.69370,86.399260 C 259.69370,85.291280 258.01667,85.081210 249.11249,85.073790 L 240.80985,85.066880 L 238.54982,86.918810 C 235.83952,89.139700 232.65719,89.640370 229.81902,88.292420 z M 260.49019,29.592640 C 259.24485,28.673430 258.94310,28.978520 259.69958,30.392020 C 260.15317,31.239550 260.43261,31.361630 260.87990,30.907650 C 261.32485,30.456030 261.23104,30.139470 260.49019,29.592640 z M 254.12384,7.3121900 C 254.12384,7.1893800 253.89599,7.0889000 253.61749,7.0889000 C 253.33900,7.0889000 253.11114,7.3302000 253.11114,7.6251300 C 253.11114,7.9200600 253.33900,8.0205400 253.61749,7.8484200 C 253.89599,7.6763100 254.12384,7.4350000 254.12384,7.3121900 z M 212.64662,69.969660 C 212.59397,68.551190 213.44477,66.838260 214.20197,66.838260 C 214.57386,66.838260 214.55668,67.074210 214.14902,67.565420 C 213.81710,67.965350 213.35307,68.933740 213.11784,69.717410 C 212.73294,70.999680 212.68579,71.024920 212.64662,69.969660 z M 217.16025,66.479080 C 218.87098,66.342240 219.73660,65.954180 220.63369,64.921900 C 221.29086,64.165700 221.65496,63.888770 221.44279,64.306510 C 220.42081,66.318650 219.52121,66.837730 217.20836,66.749800 L 214.88168,66.661340 L 217.16025,66.479080 z M 250.26787,22.904600 C 249.18160,22.188980 248.94632,20.250280 249.78955,18.963340 C 251.26232,16.715610 253.61749,17.665470 253.61749,20.507190 C 253.61749,22.828850 251.95696,24.017340 250.26787,22.904600 z " />
  </g>
</svg>
