<?xml version="1.0" encoding="UTF-8" standalone="no"?>
<!-- Created with Inkscape (http://www.inkscape.org/) -->
<svg
   xmlns:dc="http://purl.org/dc/elements/1.1/"
   xmlns:cc="http://web.resource.org/cc/"
   xmlns:rdf="http://www.w3.org/1999/02/22-rdf-syntax-ns#"
   xmlns:svg="http://www.w3.org/2000/svg"
   xmlns="http://www.w3.org/2000/svg"
   xmlns:sodipodi="http://sodipodi.sourceforge.net/DTD/sodipodi-0.dtd"
   xmlns:inkscape="http://www.inkscape.org/namespaces/inkscape"
   sodipodi:docname="advanced-f07.svg"
   sodipodi:docbase="/home/aaron/notes/inkdoc/advanced"
   inkscape:version="0.41+cvs"
   sodipodi:version="0.32"
   id="svg1974"
   height="1052.3622047"
   width="744.09448819">
  <defs
     id="defs3" />
  <sodipodi:namedview
     inkscape:window-y="21"
     inkscape:window-x="4"
     inkscape:window-height="513"
     inkscape:window-width="753"
     inkscape:current-layer="layer1"
     inkscape:document-units="px"
     inkscape:cy="520.00000"
     inkscape:cx="375.00000"
     inkscape:zoom="0.35000000"
     inkscape:pageshadow="2"
     inkscape:pageopacity="0.0"
     borderopacity="1.0"
     bordercolor="#666666"
     pagecolor="#ffffff"
     id="base" />
  <metadata
     id="metadata4">
    <rdf:RDF
       id="RDF5">
      <cc:Work
         id="Work6"
         rdf:about="">
        <dc:format
           id="format7">image/svg+xml</dc:format>
        <dc:type
           rdf:resource="http://purl.org/dc/dcmitype/StillImage"
           id="type9" />
      </cc:Work>
    </rdf:RDF>
  </metadata>
  <g
     id="layer1"
     inkscape:groupmode="layer"
     inkscape:label="Layer 1">
    <path
       sodipodi:nodetypes="csssssss"
       id="path1430"
       d="M 34.909851,34.708300 C 45.568102,22.535400 56.085611,10.313200 71.587291,6.4269000 C 80.879684,4.0973000 83.374381,8.8216000 76.448156,16.590500 C 71.283723,22.383200 66.036697,26.742900 63.633147,33.382600 C 60.660504,41.594500 66.518895,42.869000 75.122466,41.336700 C 83.590628,39.828600 89.206146,32.831500 95.007824,25.870300 C 99.222218,20.813700 103.78192,20.607700 105.61335,24.986500 C 112.71814,40.917000 125.74344,25.963600 127.70819,24.544600"
       style="fill:none;fill-opacity:0.75000000;fill-rule:evenodd;stroke:#000000;stroke-width:9.0000000;stroke-linecap:butt;stroke-linejoin:miter;stroke-opacity:1.0000000" />
    <path
       id="path1432"
       d="M 186.92620,0.067700000 C 185.68893,0.17150000 184.40977,0.38330000 183.05120,0.72390000 C 174.45387,2.8793000 167.29622,7.3643000 161.05120,12.723900 C 154.80618,18.083500 149.40313,24.334600 144.08245,30.411400 L 150.83245,36.348900 C 156.17003,30.252800 161.34122,24.302700 166.89495,19.536400 C 172.44867,14.770100 178.33433,11.204800 185.23870,9.4739000 C 186.50278,9.1570000 187.03455,9.2417000 187.73870,9.2239000 C 187.31327,10.035400 186.82545,10.931000 185.64495,12.255100 C 183.19331,15.005000 180.55704,17.550100 178.11370,20.411400 C 175.67036,23.272700 173.40865,26.527500 171.95745,30.536400 C 171.04058,33.069200 170.59272,35.459100 171.11370,37.911400 C 171.37419,39.137600 171.89756,40.348800 172.67620,41.348900 C 173.45484,42.349000 174.44224,43.121300 175.45745,43.661400 C 177.48786,44.741500 179.59712,45.027200 181.73870,45.067700 C 183.88028,45.108100 186.11374,44.860100 188.45745,44.442700 C 193.70520,43.508100 198.00702,40.842200 201.58245,37.692700 C 205.15787,34.543100 208.13670,30.870900 211.01995,27.411400 C 211.82766,26.442300 212.58457,25.827600 213.14495,25.473900 C 213.59052,25.192600 213.76867,25.188400 213.89495,25.161400 C 213.93936,25.219000 213.91658,25.164300 214.01995,25.411400 L 214.01995,25.442700 L 214.05120,25.505100 C 215.09680,27.849600 216.30832,29.784700 217.76995,31.348900 C 219.23158,32.913100 220.97025,34.091300 222.80120,34.755100 C 224.63215,35.419000 226.51948,35.565300 228.23870,35.380100 C 229.95791,35.195000 231.50709,34.689700 232.92620,34.067700 C 235.76441,32.823500 238.08274,31.065200 239.86370,29.567700 C 240.75418,28.818900 241.51624,28.120000 242.08245,27.598900 C 242.36555,27.338400 242.60758,27.119300 242.76995,26.973900 C 242.93231,26.828500 243.05413,26.765200 242.89495,26.880100 L 237.61370,19.567700 C 237.20892,19.860000 237.01770,20.064600 236.76995,20.286400 C 236.52219,20.508200 236.26366,20.720900 235.98870,20.973900 C 235.43876,21.480000 234.80039,22.088900 234.08245,22.692700 C 232.64655,23.900100 230.88425,25.137400 229.33245,25.817700 C 228.55654,26.157800 227.84004,26.350000 227.26995,26.411400 C 226.69986,26.472800 226.28368,26.438700 225.86370,26.286400 C 225.44372,26.134100 224.98196,25.854300 224.36370,25.192700 C 223.74543,24.531000 223.00054,23.455800 222.26995,21.817700 C 221.55076,20.098100 220.45127,18.630500 218.86370,17.536400 C 217.27613,16.442300 215.28331,15.934200 213.42620,16.067700 C 211.56909,16.201100 209.86955,16.878700 208.33245,17.848900 C 206.79535,18.819100 205.38194,20.102200 204.08245,21.661400 C 201.16402,25.163100 198.44475,28.476300 195.64495,30.942700 C 192.84514,33.409000 190.08411,34.994100 186.86370,35.567700 C 184.90562,35.916400 183.17868,36.091900 181.89495,36.067700 C 180.75721,36.046200 180.20986,35.852500 179.95745,35.755100 C 179.94607,35.552000 179.89141,34.989900 180.39495,33.598900 C 181.34729,30.968100 182.88527,28.681800 184.95745,26.255100 C 187.02962,23.828500 189.65091,21.297900 192.36370,18.255100 C 194.33531,16.043700 195.76464,13.941900 196.64495,11.723900 C 197.08510,10.614900 197.39965,9.4638000 197.45745,8.2239000 C 197.51525,6.9840000 197.28645,5.6466000 196.67620,4.4114000 C 196.06594,3.1762000 195.05753,2.1320000 193.95745,1.4427000 C 192.85737,0.75330000 191.69395,0.35540000 190.51995,0.16140000 C 189.34595,-0.032600000 188.16346,-0.036200000 186.92620,0.067700000 z "
       style="fill:#000000;fill-opacity:1.0000000;fill-rule:evenodd;stroke:none;stroke-width:9.0000000;stroke-linecap:butt;stroke-linejoin:miter;stroke-opacity:1.0000000" />
  </g>
</svg>
