<?xml version="1.0" encoding="UTF-8" standalone="no"?>
<!-- Created with Inkscape (http://www.inkscape.org/) -->
<svg
   xmlns:xml="http://www.w3.org/XML/1998/namespace"
   xmlns:dc="http://purl.org/dc/elements/1.1/"
   xmlns:cc="http://web.resource.org/cc/"
   xmlns:rdf="http://www.w3.org/1999/02/22-rdf-syntax-ns#"
   xmlns:svg="http://www.w3.org/2000/svg"
   xmlns="http://www.w3.org/2000/svg"
   xmlns:sodipodi="http://sodipodi.sourceforge.net/DTD/sodipodi-0.dtd"
   xmlns:inkscape="http://www.inkscape.org/namespaces/inkscape"
   sodipodi:docname="calligraphy-f06.svg"
   sodipodi:docbase="/home/aaron/notes/inkdoc/calligraphy"
   inkscape:version="0.41+cvs"
   sodipodi:version="0.32"
   id="svg2476"
   height="1052.3622047"
   width="744.09448819">
  <defs
     id="defs3" />
  <sodipodi:namedview
     inkscape:window-y="21"
     inkscape:window-x="4"
     inkscape:window-height="513"
     inkscape:window-width="753"
     inkscape:current-layer="layer1"
     inkscape:document-units="px"
     inkscape:cy="959.99311"
     inkscape:cx="189.07611"
     inkscape:zoom="1.4000000"
     inkscape:pageshadow="2"
     inkscape:pageopacity="0.0"
     borderopacity="1.0"
     bordercolor="#666666"
     pagecolor="#ffffff"
     id="base" />
  <metadata
     id="metadata4">
    <rdf:RDF
       id="RDF5">
      <cc:Work
         id="Work6"
         rdf:about="">
        <dc:format
           id="format7">image/svg+xml</dc:format>
        <dc:type
           rdf:resource="http://purl.org/dc/dcmitype/StillImage"
           id="type9" />
      </cc:Work>
    </rdf:RDF>
  </metadata>
  <g
     id="layer1"
     inkscape:groupmode="layer"
     inkscape:label="Layer 1">
    <text
       sodipodi:insensitive="true"
       id="text4984"
       y="4.5585475"
       x="27.677305"
       style="font-size:6.0000000;font-style:normal;font-weight:normal;fill:#000000;fill-opacity:1.0000000;stroke:none;stroke-width:1.0000000pt;stroke-linecap:butt;stroke-linejoin:miter;stroke-opacity:1.0000000;display:block;font-family:sans-serif"
       xml:space="preserve"><tspan
         y="4.5585475"
         x="27.677305"
         id="tspan4985"
         sodipodi:role="line">angle = 30</tspan></text>
    <text
       sodipodi:insensitive="true"
       id="text4987"
       y="4.5585475"
       x="84.742744"
       style="font-size:6.0000000;font-style:normal;font-weight:normal;fill:#000000;fill-opacity:1.0000000;stroke:none;stroke-width:1.0000000pt;stroke-linecap:butt;stroke-linejoin:miter;stroke-opacity:1.0000000;display:block;font-family:sans-serif"
       xml:space="preserve"><tspan
         y="4.5585475"
         x="84.742744"
         id="tspan4988"
         sodipodi:role="line">angle = 60</tspan></text>
    <text
       sodipodi:insensitive="true"
       id="text4990"
       y="4.5585475"
       x="147.24278"
       style="font-size:6.0000000;font-style:normal;font-weight:normal;fill:#000000;fill-opacity:1.0000000;stroke:none;stroke-width:1.0000000pt;stroke-linecap:butt;stroke-linejoin:miter;stroke-opacity:1.0000000;display:block;font-family:sans-serif"
       xml:space="preserve"><tspan
         y="4.5585475"
         x="147.24278"
         id="tspan4991"
         sodipodi:role="line">angle = 90</tspan></text>
    <text
       sodipodi:insensitive="true"
       id="text4993"
       y="4.5585475"
       x="232.24278"
       style="font-size:6.0000000;font-style:normal;font-weight:normal;fill:#000000;fill-opacity:1.0000000;stroke:none;stroke-width:1.0000000pt;stroke-linecap:butt;stroke-linejoin:miter;stroke-opacity:1.0000000;display:block;font-family:sans-serif"
       xml:space="preserve"><tspan
         y="4.5585475"
         x="232.24278"
         id="tspan4994"
         sodipodi:role="line">angle = 0</tspan></text>
    <text
       sodipodi:insensitive="true"
       id="text4996"
       y="92.058548"
       x="267.2428"
       style="font-size:6.0000000;font-style:normal;font-weight:normal;fill:#000000;fill-opacity:1.0000000;stroke:none;stroke-width:1.0000000pt;stroke-linecap:butt;stroke-linejoin:miter;stroke-opacity:1.0000000;display:block;font-family:sans-serif"
       xml:space="preserve"><tspan
         y="92.058548"
         x="267.24280"
         id="tspan4997"
         sodipodi:role="line">angle = 15</tspan></text>
    <text
       sodipodi:insensitive="true"
       id="text4999"
       y="134.55855"
       x="39.742786"
       style="font-size:6.0000000;font-style:normal;font-weight:normal;fill:#000000;fill-opacity:1.0000000;stroke:none;stroke-width:1.0000000pt;stroke-linecap:butt;stroke-linejoin:miter;stroke-opacity:1.0000000;display:block;font-family:sans-serif"
       xml:space="preserve"><tspan
         y="134.55855"
         x="39.742786"
         id="tspan5000"
         sodipodi:role="line">angle = -45</tspan></text>
    <path
       d="M 45.448428,18.016500 C 48.947835,17.702500 59.936786,11.902600 59.472585,18.416000 C 54.011831,28.572800 48.887872,38.953900 44.070598,49.449000 C 42.582822,53.036400 30.035222,77.617000 40.571961,74.868800 C 49.659805,71.044900 58.071725,66.787500 68.070820,66.380000 C 70.194753,66.259800 72.272648,66.552900 74.340083,66.986800 L 52.227271,79.753600 C 50.159836,79.319700 48.081942,79.026600 45.958008,79.146800 C 35.958913,79.554300 27.546993,83.811800 18.459149,87.635600 C 7.9224100,90.383900 20.470010,65.803200 21.957787,62.215800 C 26.775060,51.720700 31.899019,41.339700 37.359774,31.182800 C 37.823975,24.669500 26.835023,30.469300 23.335616,30.783300 L 45.448428,18.016500 z "
       id="path4901"
       style="fill:#000000;fill-opacity:1.0000000;fill-rule:nonzero;stroke:none;stroke-width:1.0000000pt;stroke-linecap:butt;stroke-linejoin:miter;stroke-opacity:1.0000000;display:block" />
    <path
       d="M 148.09857,20.769200 C 152.37674,8.8508000 168.23997,17.941500 174.44350,22.948900 C 195.68252,48.403300 192.33353,89.458100 190.41556,120.20590 C 190.42010,113.22630 190.34686,106.24620 190.42918,99.267000 C 190.43238,98.996500 223.73012,80.623400 226.95517,78.891200 L 226.95517,101.04550 C 217.37857,106.18920 207.41903,110.77720 198.26590,116.67020 C 197.66386,117.05780 191.55835,122.38000 190.65658,121.92810 C 190.49102,121.84520 190.50498,121.59020 190.42918,121.42130 C 190.42464,113.63140 190.42010,105.84150 190.41556,98.051600 C 190.91253,90.084500 190.73632,73.794100 191.12542,107.29990 C 191.19868,113.60840 191.32678,103.30410 190.85915,95.755400 C 189.76073,78.024400 186.99279,58.570700 174.44350,45.103100 C 168.23997,40.095700 152.37674,31.005000 148.09857,42.923400 L 148.09857,20.769200 z "
       id="path4917"
       style="fill:#000000;fill-opacity:1.0000000;fill-rule:nonzero;stroke:none;stroke-width:1.0000000pt;stroke-linecap:butt;stroke-linejoin:miter;stroke-opacity:1.0000000;display:block" />
    <path
       d="M 220.36100,12.833500 C 160.87945,11.951800 243.80808,12.700200 256.97875,14.797100 C 272.62517,17.839200 265.51403,36.597100 262.55855,47.239700 C 261.80952,51.882400 258.66721,57.537200 260.28459,62.352000 C 260.67790,63.522900 264.44089,64.590500 263.20638,64.631100 C 256.88621,64.839100 250.53623,65.008200 244.23637,64.460900 C 243.38798,64.387200 244.81392,64.984500 254.77104,61.428500 C 262.10573,58.809000 269.21253,55.668600 276.31114,52.479700 L 298.46536,52.479700 C 283.28540,59.299000 226.08187,85.131100 240.40433,47.239700 C 243.35982,36.597100 250.47095,17.839200 234.82453,14.797100 C 228.25116,13.750600 221.64205,13.316500 214.99912,12.970900 C 211.62670,12.795500 201.49738,12.633300 204.87432,12.618700 C 211.53227,12.590000 218.19034,12.600100 224.84834,12.610900 C 226.24575,12.613100 222.05764,12.791500 220.66024,12.796800 C 213.17580,12.825300 205.69127,12.821300 198.20678,12.833500 L 220.36100,12.833500 z "
       id="path4927"
       style="fill:#000000;fill-opacity:1.0000000;fill-rule:nonzero;stroke:none;stroke-width:1.0000000pt;stroke-linecap:butt;stroke-linejoin:miter;stroke-opacity:1.0000000;display:block" />
    <path
       d="M 20.119691,106.67350 C 28.611551,101.25600 38.074315,99.711800 48.017913,100.39800 C 67.892930,102.08650 77.422756,115.86610 90.978406,129.58280 C 91.709266,130.32240 93.863796,132.57770 93.126586,131.84450 C 67.900121,106.75470 79.611526,119.18270 87.240126,123.82610 C 103.43351,133.58790 117.63203,125.23780 132.06005,116.59160 L 147.72545,132.25700 C 133.29743,140.90320 119.09891,149.25330 102.90553,139.49150 C 92.879036,133.38850 85.940196,124.68400 77.461186,116.17910 C 76.727096,115.44270 74.570076,113.19000 75.313006,113.91740 C 79.843226,118.35310 84.322886,122.84010 88.824276,127.30500 C 90.324846,128.79340 85.819966,124.31070 84.124926,123.04820 C 78.201816,118.63650 70.903422,116.87810 63.683311,116.06340 C 53.739713,115.37720 44.276949,116.92140 35.785089,122.33890 L 20.119691,106.67350 z "
       id="path4942"
       style="fill:#000000;fill-opacity:1.0000000;fill-rule:nonzero;stroke:none;stroke-width:1.0000000pt;stroke-linecap:butt;stroke-linejoin:miter;stroke-opacity:1.0000000;display:block" />
    <path
       d="M 83.624308,25.219200 C 88.792519,18.614200 94.296344,12.021900 102.83339,10.010400 C 123.71943,9.8563000 116.85581,42.108400 115.45867,54.716400 C 115.65220,62.277000 106.63157,102.34430 125.60046,88.266600 C 138.81233,77.595100 134.10205,77.312700 144.21310,85.834800 C 149.52071,88.764200 155.46141,86.174400 160.58977,84.086100 L 149.51266,103.27220 C 144.38430,105.36060 138.44360,107.95030 133.13599,105.02090 C 123.02494,96.498800 127.73522,96.781200 114.52336,107.45270 C 95.554460,121.53040 104.57509,81.463200 104.38156,73.902500 C 105.77870,61.294500 112.64232,29.042400 91.756284,29.196500 C 83.219230,31.208000 77.715409,37.800300 72.547199,44.405300 L 83.624308,25.219200 z "
       id="path4945"
       style="fill:#000000;fill-opacity:1.0000000;fill-rule:nonzero;stroke:none;stroke-width:1.0000000pt;stroke-linecap:butt;stroke-linejoin:miter;stroke-opacity:1.0000000;display:block" />
    <path
       d="M 176.46012,143.11120 C 192.55931,130.46610 215.04303,126.14710 235.05972,125.07100 C 249.74569,123.83310 264.05595,129.19840 278.67582,128.77160 C 281.48434,128.68960 284.06775,128.39010 286.81697,127.79680 C 288.21513,127.49510 292.35735,126.37040 290.96602,126.70220 C 285.18584,128.08060 279.42166,129.52530 273.64948,130.93680 C 294.30964,121.45580 291.42314,106.03940 269.08699,104.43370 C 259.23829,103.11990 226.82175,112.44460 265.10233,102.28970 L 243.70300,108.02360 C 259.09440,103.87020 274.35440,98.307400 290.48632,98.699800 C 312.82247,100.30550 315.70897,115.72180 295.04882,125.20290 C 286.57845,127.60730 272.13977,132.92020 261.32005,134.21570 C 245.37294,136.12510 229.65478,129.31830 213.66039,130.80500 C 204.26080,131.31030 183.74655,136.69710 217.78322,127.29850 C 219.00223,126.96190 215.34325,127.96830 214.14139,128.36180 C 208.26036,130.28730 202.41803,133.13160 197.85945,137.37720 L 176.46012,143.11120 z "
       id="path4983"
       style="fill:#000000;fill-opacity:1.0000000;fill-rule:nonzero;stroke:none;stroke-width:1.0000000pt;stroke-linecap:butt;stroke-linejoin:miter;stroke-opacity:1.0000000;display:block" />
  </g>
</svg>
