<?xml version="1.0" encoding="UTF-8" standalone="no"?>
<!-- Created with Inkscape (http://www.inkscape.org/) -->
<svg
   xmlns:xml="http://www.w3.org/XML/1998/namespace"
   xmlns:dc="http://purl.org/dc/elements/1.1/"
   xmlns:cc="http://web.resource.org/cc/"
   xmlns:rdf="http://www.w3.org/1999/02/22-rdf-syntax-ns#"
   xmlns:svg="http://www.w3.org/2000/svg"
   xmlns="http://www.w3.org/2000/svg"
   xmlns:sodipodi="http://sodipodi.sourceforge.net/DTD/sodipodi-0.dtd"
   xmlns:inkscape="http://www.inkscape.org/namespaces/inkscape"
   width="744.09448819"
   height="1052.3622047"
   id="svg3117"
   sodipodi:version="0.32"
   inkscape:version="0.41+cvs"
   sodipodi:docbase="/home/d/ink/doc-docbook/calligraphy"
   sodipodi:docname="calligraphy-f10.svg">
  <defs
     id="defs3" />
  <sodipodi:namedview
     id="base"
     pagecolor="#ffffff"
     bordercolor="#666666"
     borderopacity="1.0"
     inkscape:pageopacity="0.0"
     inkscape:pageshadow="2"
     inkscape:zoom="5.5578313"
     inkscape:cx="164.28571"
     inkscape:cy="687.14287"
     inkscape:document-units="px"
     inkscape:current-layer="layer1"
     inkscape:window-width="753"
     inkscape:window-height="513"
     inkscape:window-x="4"
     inkscape:window-y="21" />
  <metadata
     id="metadata4">
    <rdf:RDF
       id="RDF5">
      <cc:Work
         rdf:about=""
         id="Work6">
        <dc:format
           id="format7">image/svg+xml</dc:format>
        <dc:type
           id="type9"
           rdf:resource="http://purl.org/dc/dcmitype/StillImage" />
      </cc:Work>
    </rdf:RDF>
  </metadata>
  <g
     inkscape:label="Layer 1"
     inkscape:groupmode="layer"
     id="layer1">
    <path
       style="fill:none;fill-opacity:0.75000000;fill-rule:evenodd;stroke:#aeaeae;stroke-width:0.59489685;stroke-linecap:butt;stroke-linejoin:miter;stroke-miterlimit:4.0000000;stroke-dasharray:0.59489660 1.7846897 ;stroke-dashoffset:0.0000000;stroke-opacity:1.0000000;display:block"
       d="M 10.512859,15.824900 L 300.81310,15.824900"
       id="path10059"
       sodipodi:insensitive="true" />
    <path
       style="fill:none;fill-opacity:0.75000000;fill-rule:evenodd;stroke:#aeaeae;stroke-width:0.59489685;stroke-linecap:butt;stroke-linejoin:miter;stroke-miterlimit:4.0000000;stroke-dasharray:0.59489660 1.7846897 ;stroke-dashoffset:0.0000000;stroke-opacity:1.0000000;display:block"
       d="M 10.512821,44.282100 L 300.81310,44.282100"
       id="path10060"
       sodipodi:insensitive="true" />
    <path
       style="fill:none;fill-opacity:0.75000000;fill-rule:evenodd;stroke:#aeaeae;stroke-width:0.59489685;stroke-linecap:butt;stroke-linejoin:miter;stroke-miterlimit:4.0000000;stroke-dasharray:0.59489660 1.7846897 ;stroke-dashoffset:0.0000000;stroke-opacity:1.0000000;display:block"
       d="M 10.512859,90.824900 L 300.81310,90.824900"
       id="path10134"
       sodipodi:insensitive="true" />
    <path
       style="fill:none;fill-opacity:0.75000000;fill-rule:evenodd;stroke:#aeaeae;stroke-width:0.59489685;stroke-linecap:butt;stroke-linejoin:miter;stroke-miterlimit:4.0000000;stroke-dasharray:0.59489660 1.7846897 ;stroke-dashoffset:0.0000000;stroke-opacity:1.0000000;display:block"
       d="M 10.512821,119.28210 L 300.81310,119.28210"
       id="path10135"
       sodipodi:insensitive="true" />
    <path
       style="fill:none;fill-opacity:0.75000000;fill-rule:evenodd;stroke:#aeaeae;stroke-width:0.59489685;stroke-linecap:butt;stroke-linejoin:miter;stroke-miterlimit:4.0000000;stroke-dasharray:0.59489660 1.7846897 ;stroke-dashoffset:0.0000000;stroke-opacity:1.0000000;display:block"
       d="M 10.512859,185.82490 L 300.81310,185.82490"
       id="path10280"
       sodipodi:insensitive="true" />
    <path
       style="fill:none;fill-opacity:0.75000000;fill-rule:evenodd;stroke:#aeaeae;stroke-width:0.59489685;stroke-linecap:butt;stroke-linejoin:miter;stroke-miterlimit:4.0000000;stroke-dasharray:0.59489660 1.7846897 ;stroke-dashoffset:0.0000000;stroke-opacity:1.0000000;display:block"
       d="M 10.512821,214.28210 L 300.81310,214.28210"
       id="path10281"
       sodipodi:insensitive="true" />
    <path
       style="fill:none;fill-opacity:0.75000000;fill-rule:evenodd;stroke:#aeaeae;stroke-width:0.59489685;stroke-linecap:butt;stroke-linejoin:miter;stroke-miterlimit:4.0000000;stroke-dasharray:0.59489660 1.7846897 ;stroke-dashoffset:0.0000000;stroke-opacity:1.0000000;display:block"
       d="M 10.512859,270.82490 L 300.81310,270.82490"
       id="path10452"
       sodipodi:insensitive="true" />
    <path
       style="fill:none;fill-opacity:0.75000000;fill-rule:evenodd;stroke:#aeaeae;stroke-width:0.59489685;stroke-linecap:butt;stroke-linejoin:miter;stroke-miterlimit:4.0000000;stroke-dasharray:0.59489660 1.7846897 ;stroke-dashoffset:0.0000000;stroke-opacity:1.0000000;display:block"
       d="M 10.512821,299.28210 L 300.81310,299.28210"
       id="path10453"
       sodipodi:insensitive="true" />
    <text
       xml:space="preserve"
       style="font-size:6.0000000;font-style:normal;font-variant:normal;font-weight:normal;font-stretch:normal;line-height:120.00000%;writing-mode:lr-tb;text-anchor:start;fill:#000000;fill-opacity:1.0000000;stroke:none;stroke-width:1.0000000pt;stroke-linecap:butt;stroke-linejoin:miter;stroke-opacity:1.0000000;display:block;font-family:sans-serif"
       x="141.33449"
       y="4.5585475"
       id="text10638"
       sodipodi:linespacing="120.00000%"
       sodipodi:insensitive="true"><tspan
         sodipodi:role="line"
         id="tspan10639"
         x="141.33449"
         y="4.5585475">Uncial hand</tspan></text>
    <text
       xml:space="preserve"
       style="font-size:6.0000000;font-style:normal;font-variant:normal;font-weight:normal;font-stretch:normal;line-height:120.00000%;writing-mode:lr-tb;text-anchor:start;fill:#000000;fill-opacity:1.0000000;stroke:none;stroke-width:1.0000000pt;stroke-linecap:butt;stroke-linejoin:miter;stroke-opacity:1.0000000;display:block;font-family:sans-serif"
       x="134.52438"
       y="79.558548"
       id="text10644"
       sodipodi:linespacing="120.00000%"
       sodipodi:insensitive="true"><tspan
         sodipodi:role="line"
         id="tspan10645"
         x="134.52438"
         y="79.558548">Carolingian hand</tspan></text>
    <text
       xml:space="preserve"
       style="font-size:6.0000000;font-style:normal;font-variant:normal;font-weight:normal;font-stretch:normal;line-height:120.00000%;writing-mode:lr-tb;text-anchor:start;fill:#000000;fill-opacity:1.0000000;stroke:none;stroke-width:1.0000000pt;stroke-linecap:butt;stroke-linejoin:miter;stroke-opacity:1.0000000;display:block;font-family:sans-serif"
       x="141.78998"
       y="172.05855"
       id="text10648"
       sodipodi:linespacing="120.00000%"
       sodipodi:insensitive="true"><tspan
         sodipodi:role="line"
         id="tspan10649"
         x="141.78998"
         y="172.05855">Gothic hand</tspan></text>
    <text
       xml:space="preserve"
       style="font-size:6.0000000;font-style:normal;font-variant:normal;font-weight:normal;font-stretch:normal;line-height:120.00000%;writing-mode:lr-tb;text-anchor:start;fill:#000000;fill-opacity:1.0000000;stroke:none;stroke-width:1.0000000pt;stroke-linecap:butt;stroke-linejoin:miter;stroke-opacity:1.0000000;display:block;font-family:sans-serif"
       x="139.54298"
       y="257.05853"
       id="text10652"
       sodipodi:linespacing="120.00000%"
       sodipodi:insensitive="true"><tspan
         sodipodi:role="line"
         id="tspan10653"
         x="139.54298"
         y="257.05853">Bâtarde hand</tspan></text>
    <path
       style="fill:none;fill-opacity:0.75000000;fill-rule:evenodd;stroke:#aeaeae;stroke-width:0.65820062;stroke-linecap:butt;stroke-linejoin:miter;stroke-miterlimit:4.0000000;stroke-dasharray:0.65820036 1.9746010 ;stroke-dashoffset:0.0000000;stroke-opacity:1.0000000;display:block"
       d="M 57.075520,430.38118 L 270.76701,430.38120"
       id="path10657"
       sodipodi:nodetypes="cc"
       sodipodi:insensitive="true" />
    <path
       style="fill:none;fill-opacity:0.75000000;fill-rule:evenodd;stroke:#aeaeae;stroke-width:0.65820062;stroke-linecap:butt;stroke-linejoin:miter;stroke-miterlimit:4.0000000;stroke-dasharray:0.65820036 1.9746010 ;stroke-dashoffset:0.0000000;stroke-opacity:1.0000000;display:block"
       d="M 57.075478,461.86659 L 270.76701,461.86659"
       id="path10658"
       sodipodi:nodetypes="cc"
       sodipodi:insensitive="true" />
    <text
       xml:space="preserve"
       style="font-size:6.0000000;font-style:normal;font-variant:normal;font-weight:normal;font-stretch:normal;line-height:120.00000%;writing-mode:lr-tb;text-anchor:start;fill:#000000;fill-opacity:1.0000000;stroke:none;stroke-width:1.0000000pt;stroke-linecap:butt;stroke-linejoin:miter;stroke-opacity:1.0000000;display:block;font-family:sans-serif"
       x="124.28999"
       y="359.55853"
       id="text10681"
       sodipodi:linespacing="120.00000%"
       sodipodi:insensitive="true"><tspan
         sodipodi:role="line"
         id="tspan10682"
         x="124.28999"
         y="359.55853">Flourished Italic hand</tspan></text>
    <path
       style="fill:#000000;fill-opacity:1.0000000;fill-rule:nonzero;stroke:none;stroke-width:1.0000000pt;stroke-linecap:butt;stroke-linejoin:miter;stroke-opacity:1.0000000;display:block"
       id="path10071"
       d="M 56.566064,28.630300 C 69.111201,21.581500 51.494460,34.130100 48.919136,38.769200 C 47.041852,43.616300 54.497379,40.483200 54.269203,40.574700 C 45.033322,44.277400 55.512630,38.633500 58.054919,36.328400 C 58.450225,35.945900 58.845530,35.563400 59.240837,35.180800 L 65.153131,32.423800 C 64.757825,32.806400 64.362519,33.188900 63.967214,33.571500 C 59.794393,37.355000 43.755572,50.110600 43.006841,41.526100 C 47.072529,34.202500 55.125340,29.247900 62.478359,25.873300 L 56.566064,28.630300 z " />
    <path
       style="fill:#000000;fill-opacity:1.0000000;fill-rule:nonzero;stroke:none;stroke-width:1.0000000pt;stroke-linecap:butt;stroke-linejoin:miter;stroke-opacity:1.0000000;display:block"
       id="path10086"
       d="M 45.262669,21.469900 C 48.177410,17.279200 55.555396,13.302900 59.662577,17.520800 C 64.680249,24.166900 66.514341,32.450100 69.595604,40.042700 C 69.301056,43.181800 75.882551,40.090600 74.670791,40.667300 C 65.489452,45.036800 69.224016,43.246700 71.326184,41.968100 L 77.238479,39.211100 C 74.498897,40.877400 66.320614,47.194500 63.683309,42.799700 C 60.602046,35.207000 58.767954,26.923900 53.750283,20.277700 C 52.458913,18.951500 46.728771,19.642600 48.390144,18.826400 C 58.275805,13.969500 52.434276,16.300600 51.174964,18.713000 L 45.262669,21.469900 z " />
    <path
       style="fill:#000000;fill-opacity:1.0000000;fill-rule:nonzero;stroke:none;stroke-width:1.0000000pt;stroke-linecap:butt;stroke-linejoin:miter;stroke-opacity:1.0000000;display:block"
       id="path10102"
       d="M 122.06427,18.372800 C 119.12806,18.064400 110.20578,21.705400 120.46493,17.502800 C 122.23241,16.778800 117.49687,20.051800 116.29621,21.610000 C 110.32888,30.216800 115.77242,39.073700 124.49072,41.456000 C 123.48984,43.415000 135.92107,39.375800 134.50796,40.018000 C 126.37972,43.711800 130.77223,41.714700 132.85880,39.869800 L 138.65066,36.996800 C 133.24682,41.774500 125.84086,45.582700 118.69886,44.329000 C 109.98055,41.946800 104.53702,33.089900 110.50435,24.483100 C 114.63193,19.126300 121.36029,15.684800 127.85613,15.499700 L 122.06427,18.372800 z " />
    <path
       style="fill:#000000;fill-opacity:1.0000000;fill-rule:nonzero;stroke:none;stroke-width:1.0000000pt;stroke-linecap:butt;stroke-linejoin:miter;stroke-opacity:1.0000000;display:block"
       id="path10103"
       d="M 124.88517,15.499600 C 128.18107,15.899500 131.52591,16.045100 134.84822,16.160100 C 136.67930,16.055600 138.45048,16.469600 140.24194,16.769800 L 134.45007,19.470600 C 132.65861,19.170400 130.88743,18.756300 129.05636,18.860900 C 125.73405,18.745900 122.38921,18.600300 119.09330,18.200400 L 124.88517,15.499600 z " />
    <path
       style="fill:#000000;fill-opacity:1.0000000;fill-rule:nonzero;stroke:none;stroke-width:1.0000000pt;stroke-linecap:butt;stroke-linejoin:miter;stroke-opacity:1.0000000;display:block"
       id="path10106"
       d="M 133.22099,18.993200 C 133.22080,18.987900 133.22062,18.982600 133.22044,18.977300 C 135.12024,18.039400 136.99520,17.049300 138.91981,16.163300 C 140.15036,15.596800 138.54699,18.849500 138.46228,20.201500 C 138.19572,24.456300 138.16019,28.729400 138.01968,32.989500 C 137.38622,41.697300 137.42438,50.379500 137.90813,59.086300 C 138.13943,61.083200 137.51344,63.322300 138.38845,64.790400 C 130.07459,69.687300 134.98258,66.284400 138.52530,63.854200 L 144.22185,60.957900 C 140.50266,63.509100 137.10253,66.219300 132.69187,67.686700 C 131.81689,66.218600 132.44287,63.979700 132.21157,61.982700 C 131.72782,53.275900 131.68965,44.593800 132.32312,35.885900 C 132.60356,27.383100 129.94328,19.453800 138.91754,16.096900 L 133.22099,18.993200 z " />
    <path
       style="fill:#000000;fill-opacity:1.0000000;fill-rule:nonzero;stroke:none;stroke-width:1.0000000pt;stroke-linecap:butt;stroke-linejoin:miter;stroke-opacity:1.0000000;display:block"
       id="path10119"
       d="M 144.57979,20.053000 C 147.75641,17.843900 152.83432,15.478400 155.76805,16.065400 C 152.57073,21.309700 149.97447,26.530200 149.86710,32.907100 C 150.27571,42.266500 159.69147,42.637400 166.28834,40.000600 C 172.35595,35.941900 159.37570,44.725100 168.85606,37.785300 L 174.64792,34.980700 C 170.25495,38.196400 165.43080,40.587800 160.49648,42.805300 C 153.89960,45.442100 144.48384,45.071100 144.07524,35.711700 C 144.18261,29.334800 146.77886,24.114300 149.97618,18.870000 C 145.92563,18.059600 143.38457,21.112300 150.37166,17.248400 L 144.57979,20.053000 z " />
    <path
       style="fill:#000000;fill-opacity:1.0000000;fill-rule:nonzero;stroke:none;stroke-width:1.0000000pt;stroke-linecap:butt;stroke-linejoin:miter;stroke-opacity:1.0000000;display:block"
       id="path10120"
       d="M 170.32944,16.195200 C 171.77360,16.181200 173.12763,15.618400 174.47904,15.175600 C 176.18451,16.544600 175.61595,19.966100 175.66090,22.223700 C 175.61197,26.009400 176.02685,29.811100 175.80732,33.592700 C 175.73330,35.830400 175.60990,38.048400 175.41958,40.274900 C 175.42676,40.746000 175.37900,41.214300 175.35872,41.683700 L 169.62852,44.512900 C 169.64880,44.043600 169.69656,43.575200 169.68937,43.104100 C 169.87970,40.877600 170.00310,38.659600 170.07713,36.422000 C 170.29665,32.640400 169.88177,28.838700 169.93070,25.053000 C 169.88574,22.795400 170.45431,19.373900 168.74884,18.004900 C 167.39744,18.447700 166.04340,19.010400 164.59924,19.024400 L 170.32944,16.195200 z " />
    <path
       style="fill:#000000;fill-opacity:1.0000000;fill-rule:nonzero;stroke:none;stroke-width:1.0000000pt;stroke-linecap:butt;stroke-linejoin:miter;stroke-opacity:1.0000000;display:block"
       id="path10125"
       d="M 186.02601,17.940200 C 171.36639,24.730200 185.98296,17.964500 186.42414,17.741600 C 188.20108,16.844000 182.81475,19.422900 181.00017,20.241800 C 178.70454,21.277800 185.55002,18.080200 187.83450,17.019800 C 189.54808,16.224500 180.96659,20.171200 182.69508,19.408800 C 186.04052,17.933100 190.23666,14.737300 194.14024,16.224000 C 197.13199,18.869700 198.49183,22.861900 199.98313,26.467900 C 201.47185,30.321900 203.28417,34.030200 205.00410,37.780600 C 206.34868,41.337400 208.04118,42.111000 211.69949,40.704600 C 215.66462,38.268800 204.59423,45.183900 209.55771,41.198300 L 215.34957,38.497500 C 212.55962,40.737800 209.16536,41.959500 205.90763,43.405400 C 202.24932,44.811800 200.55682,44.038200 199.21223,40.481400 C 197.49231,36.731000 195.67999,33.022700 194.19126,29.168700 C 192.69996,25.562700 191.34012,21.570500 188.34838,18.924700 C 186.81548,18.341000 181.96377,19.841800 183.43091,19.108300 C 186.15373,17.746900 195.86523,13.304800 182.04264,19.720600 C 180.30254,20.528300 185.51113,18.080100 187.25469,17.279900 C 189.47800,16.259600 182.81573,19.339400 180.63227,20.442400 C 180.18968,20.666000 196.54618,12.986000 180.23415,20.641000 L 186.02601,17.940200 z " />
    <path
       style="fill:#000000;fill-opacity:1.0000000;fill-rule:nonzero;stroke:none;stroke-width:1.0000000pt;stroke-linecap:butt;stroke-linejoin:miter;stroke-opacity:1.0000000;display:block"
       id="path10128"
       d="M 195.49100,28.424900 C 195.49353,28.415800 194.07515,29.196500 194.07964,29.193600 C 205.78752,21.464000 189.53531,32.585900 186.60730,36.229400 C 181.66514,44.743500 194.53055,37.535500 197.61633,35.783400 C 202.90230,32.177600 190.92311,40.844300 195.75404,36.719300 L 201.54590,32.909500 C 198.51973,35.493400 195.14100,37.501900 191.82447,39.593300 C 188.73868,41.345400 175.87328,48.553400 180.81544,40.039200 C 186.17404,33.371100 194.43163,29.067100 201.28286,24.615000 L 195.49100,28.424900 z " />
    <path
       style="fill:#000000;fill-opacity:1.0000000;fill-rule:nonzero;stroke:none;stroke-width:1.0000000pt;stroke-linecap:butt;stroke-linejoin:miter;stroke-opacity:1.0000000;display:block"
       id="path10130"
       d="M 229.60473,45.031000 C 226.06026,45.084100 222.49215,45.312200 219.43438,43.250500 C 213.53967,38.797800 213.99035,32.617900 215.99574,26.244800 C 219.59695,18.485600 231.08227,14.414800 239.37348,15.236500 C 244.94979,16.198400 247.49702,20.474300 248.18919,25.675800 C 248.60199,31.092200 248.27532,36.516000 248.44856,41.943900 L 242.91536,44.524300 C 242.74210,39.096400 243.06877,33.672600 242.65597,28.256200 C 241.96379,23.054700 239.41657,18.778400 233.84028,17.816900 C 224.51484,16.892700 225.58649,16.742600 221.52897,23.664500 C 219.52357,30.037800 219.07289,36.217400 224.96760,40.670500 C 228.02537,42.731900 231.59348,42.504100 235.13795,42.451000 L 229.60473,45.031000 z " />
    <path
       style="fill:#000000;fill-opacity:1.0000000;fill-rule:nonzero;stroke:none;stroke-width:1.0000000pt;stroke-linecap:butt;stroke-linejoin:miter;stroke-opacity:1.0000000;display:block"
       id="path10133"
       d="M 242.96753,27.258700 C 243.99326,22.984000 247.98513,19.196500 251.81079,17.206200 C 261.33343,11.059500 271.94784,16.016000 274.21074,27.179400 C 275.19381,37.788600 268.84321,41.395900 260.23340,44.922800 L 265.76662,42.342800 C 266.00100,42.319600 266.23538,42.296700 266.46977,42.273900 C 264.90954,43.048900 263.34936,43.823800 261.78914,44.599200 C 260.71965,45.126100 263.89274,43.409800 264.72516,42.556300 C 267.95025,39.249100 268.93019,34.205100 268.67752,29.759400 C 267.62773,24.580600 263.42436,19.627000 258.69916,17.230500 C 255.70578,15.712500 252.21429,17.277000 253.12912,16.704500 C 254.45694,15.873300 255.93905,15.319000 257.34402,14.626000 C 253.51836,16.616500 249.52649,20.403600 248.50073,24.678700 L 242.96753,27.258700 z " />
    <path
       style="fill:#000000;fill-opacity:1.0000000;fill-rule:nonzero;stroke:none;stroke-width:1.0000000pt;stroke-linecap:butt;stroke-linejoin:miter;stroke-opacity:1.0000000;display:block"
       id="path10157"
       d="M 40.751433,96.807500 C 52.754011,86.261000 59.558060,89.057100 64.208409,98.941200 C 67.113668,104.87560 69.571648,113.83260 77.024203,115.48580 L 66.533530,119.98710 C 59.080975,118.33390 56.622995,109.37690 53.717737,103.44250 C 52.343981,100.52270 50.873362,97.323300 48.250396,95.369200 C 47.359761,94.705600 43.784865,94.943400 44.951134,94.347800 C 48.052062,92.764100 51.258941,91.489300 54.419279,90.081200 C 55.579089,89.564500 50.186612,91.938500 51.242106,92.306200 L 40.751433,96.807500 z " />
    <path
       style="fill:#000000;fill-opacity:1.0000000;fill-rule:nonzero;stroke:none;stroke-width:1.0000000pt;stroke-linecap:butt;stroke-linejoin:miter;stroke-opacity:1.0000000;display:block"
       id="path10158"
       d="M 60.484223,99.139000 C 55.467681,103.32970 50.146490,107.40030 46.172904,112.64870 C 44.128140,119.41640 57.320742,113.13790 57.203974,113.19100 C 42.824960,119.72810 57.814005,111.60500 61.081570,108.99390 L 70.734677,104.49260 C 65.943646,108.32110 34.694040,127.99330 36.519797,117.15000 C 40.493384,111.90160 45.814575,107.83100 50.831116,103.64030 L 60.484223,99.139000 z " />
    <path
       style="fill:#000000;fill-opacity:1.0000000;fill-rule:nonzero;stroke:none;stroke-width:1.0000000pt;stroke-linecap:butt;stroke-linejoin:miter;stroke-opacity:1.0000000;display:block"
       id="path10160"
       d="M 76.130967,105.67150 C 81.737678,100.76180 92.389839,99.525200 101.49206,98.239400 C 105.23975,97.723800 103.43876,97.967000 106.89451,97.507700 L 97.825006,102.12580 C 94.369257,102.58510 96.170236,102.34180 92.422551,102.85750 C 86.110882,103.74910 63.403152,109.02930 85.200502,101.05350 L 76.130967,105.67150 z " />
    <path
       style="fill:#000000;fill-opacity:1.0000000;fill-rule:nonzero;stroke:none;stroke-width:1.0000000pt;stroke-linecap:butt;stroke-linejoin:miter;stroke-opacity:1.0000000;display:block"
       id="path10168"
       d="M 90.443242,103.46700 C 90.075308,100.01870 90.363108,97.033200 86.731430,95.883100 C 87.203084,94.109800 80.202628,97.910800 81.706074,97.101800 C 97.187714,88.771100 81.255869,96.024400 85.438192,107.45080 C 89.298462,114.60570 97.800320,116.34690 104.20808,115.09400 C 105.83153,114.77650 110.26554,112.65920 108.85602,113.48380 C 106.58338,114.81350 104.20622,115.95610 101.88133,117.19230 L 110.95085,112.28250 C 102.13678,117.10720 85.239885,127.58570 76.368670,112.36060 C 71.799805,99.878100 86.636247,91.306900 95.800953,90.973200 C 99.432624,92.123400 99.144840,95.108900 99.512775,98.557200 L 90.443242,103.46700 z " />
    <path
       style="fill:#000000;fill-opacity:1.0000000;fill-rule:nonzero;stroke:none;stroke-width:1.0000000pt;stroke-linecap:butt;stroke-linejoin:miter;stroke-opacity:1.0000000;display:block"
       id="path10170"
       d="M 124.17990,96.235300 C 121.19120,94.513900 117.53894,94.371000 114.17567,94.796900 C 114.97497,94.231000 111.60725,95.588400 112.21589,95.298200 C 127.96697,87.787400 116.59120,93.241400 115.63672,101.71720 C 115.77933,108.68110 120.76825,113.12120 127.17528,114.43200 C 131.74398,115.24960 136.28522,115.22730 140.62056,113.49450 L 130.96745,117.99580 C 126.63212,119.72860 122.09087,119.75090 117.52217,118.93330 C 111.11515,117.62260 106.12622,113.18240 105.98361,106.21850 C 107.01888,97.025400 114.86033,91.777000 123.82878,90.295600 C 127.19204,89.869700 130.84431,90.012600 133.83301,91.734000 L 124.17990,96.235300 z " />
    <path
       style="fill:#000000;fill-opacity:1.0000000;fill-rule:nonzero;stroke:none;stroke-width:1.0000000pt;stroke-linecap:butt;stroke-linejoin:miter;stroke-opacity:1.0000000;display:block"
       id="path10196"
       d="M 131.54309,94.101800 C 134.74689,92.623900 137.92325,91.084900 141.15449,89.668000 C 141.77156,89.397400 140.61069,90.902500 140.38847,91.538600 C 139.42627,94.292900 138.87633,97.160900 138.41447,100.03630 C 136.88675,109.54760 135.94769,119.18100 134.80006,128.74350 C 134.01230,136.52530 133.08826,144.28770 131.79926,152.00280 L 122.14615,156.50410 C 123.43516,148.78900 124.35919,141.02670 125.14695,133.24480 C 125.54110,129.96060 129.15887,95.324400 131.50138,94.169300 C 134.70554,92.589400 137.96459,91.123400 141.19619,89.600500 L 131.54309,94.101800 z " />
    <path
       style="fill:#000000;fill-opacity:1.0000000;fill-rule:nonzero;stroke:none;stroke-width:1.0000000pt;stroke-linecap:butt;stroke-linejoin:miter;stroke-opacity:1.0000000;display:block"
       id="path10197"
       d="M 130.49719,95.845000 C 132.05329,92.369100 137.45089,91.562800 140.84369,90.287600 C 142.80440,89.482900 144.77980,88.721500 146.76405,87.993000 L 140.38977,91.314600 C 138.40552,92.043000 136.43012,92.804400 134.46941,93.609100 C 125.96108,96.807000 139.41291,89.200700 136.87147,92.523500 L 130.49719,95.845000 z " />
    <path
       style="fill:#000000;fill-opacity:1.0000000;fill-rule:nonzero;stroke:none;stroke-width:1.0000000pt;stroke-linecap:butt;stroke-linejoin:miter;stroke-opacity:1.0000000;display:block"
       id="path10200"
       d="M 141.33801,96.542300 C 144.57925,95.708000 155.70482,86.309900 157.44357,94.064300 C 157.99303,99.970600 154.99637,105.26840 155.51460,111.22710 C 153.35348,116.36310 164.90443,113.86120 164.02453,114.27510 C 149.56927,121.07440 155.57420,118.36100 158.97363,115.70200 L 168.62674,111.20070 C 163.80012,114.97600 149.78443,125.27570 145.86149,115.72840 C 145.34327,109.76970 148.33992,104.47190 147.79047,98.565700 C 146.04691,90.789800 131.30216,102.01930 150.99112,92.041000 L 141.33801,96.542300 z " />
    <path
       style="fill:#000000;fill-opacity:1.0000000;fill-rule:nonzero;stroke:none;stroke-width:1.0000000pt;stroke-linecap:butt;stroke-linejoin:miter;stroke-opacity:1.0000000;display:block"
       id="path10206"
       d="M 172.21661,90.339500 C 177.03839,89.900000 177.71976,93.373200 177.05894,97.543600 C 175.57745,104.18350 171.68374,114.54220 181.74964,114.59090 C 184.05051,114.33960 182.89648,114.52750 185.21030,114.01860 L 175.55719,118.51990 C 173.24337,119.02880 174.39740,118.84090 172.09653,119.09220 C 162.03063,119.04350 165.92434,108.68490 167.40583,102.04490 C 168.06666,97.874500 167.38528,94.401300 162.56351,94.840800 L 172.21661,90.339500 z " />
    <path
       style="fill:#000000;fill-opacity:1.0000000;fill-rule:nonzero;stroke:none;stroke-width:1.0000000pt;stroke-linecap:butt;stroke-linejoin:miter;stroke-opacity:1.0000000;display:block"
       id="path10225"
       d="M 130.99885,91.036700 C 134.38117,91.480400 137.68460,92.864300 140.69369,94.460400 L 131.04058,98.961800 C 128.03150,97.365600 124.72807,95.981700 121.34574,95.538100 L 130.99885,91.036700 z " />
    <path
       style="fill:#000000;fill-opacity:1.0000000;fill-rule:nonzero;stroke:none;stroke-width:1.0000000pt;stroke-linecap:butt;stroke-linejoin:miter;stroke-opacity:1.0000000;display:block"
       id="path10226"
       d="M 187.01016,94.450400 C 195.00099,90.310200 199.32296,86.473300 204.58833,94.155100 C 209.18927,100.22280 209.63452,109.69890 216.37277,113.99630 C 218.18373,114.92520 220.19553,115.32580 222.17094,115.73940 L 212.51783,120.24070 C 210.54243,119.82710 208.53063,119.42660 206.71966,118.49760 C 199.98141,114.20020 199.53616,104.72410 194.93522,98.656400 C 189.78610,91.144300 180.84204,96.840200 196.66327,89.949100 L 187.01016,94.450400 z " />
    <path
       style="fill:#000000;fill-opacity:1.0000000;fill-rule:nonzero;stroke:none;stroke-width:1.0000000pt;stroke-linecap:butt;stroke-linejoin:miter;stroke-opacity:1.0000000;display:block"
       id="path10229"
       d="M 193.69108,106.08070 C 218.59451,93.823600 185.05343,109.95270 194.57630,115.17530 C 194.07189,116.66220 203.43105,113.62340 202.94670,113.82800 C 188.32385,120.00630 197.04726,115.86110 200.94975,112.78930 L 210.60286,108.28800 C 203.39746,113.95970 194.40765,120.81490 184.92319,119.67660 C 176.67664,115.15400 201.87072,99.259500 203.34419,101.57940 L 193.69108,106.08070 z " />
    <path
       style="fill:#000000;fill-opacity:1.0000000;fill-rule:nonzero;stroke:none;stroke-width:1.0000000pt;stroke-linecap:butt;stroke-linejoin:miter;stroke-opacity:1.0000000;display:block"
       id="path10231"
       d="M 217.96710,97.239600 C 220.78315,94.899700 230.50480,87.053100 233.43050,93.896900 C 234.56899,101.13780 232.71075,108.18850 232.82300,115.42170 L 223.59107,119.92300 C 223.47882,112.68980 225.33707,105.63910 224.19856,98.398200 C 221.47708,92.032100 210.92864,100.18670 228.14000,91.907700 C 228.52083,91.724500 226.77991,92.566500 227.19904,92.738300 L 217.96710,97.239600 z " />
    <path
       style="fill:#000000;fill-opacity:1.0000000;fill-rule:nonzero;stroke:none;stroke-width:1.0000000pt;stroke-linecap:butt;stroke-linejoin:miter;stroke-opacity:1.0000000;display:block"
       id="path10239"
       d="M 221.91960,103.12480 C 228.31561,97.044600 237.97054,89.997200 247.37950,90.115300 C 255.42413,93.217300 254.98302,105.73770 253.76475,112.07210 C 253.51855,113.15140 253.20811,114.20880 252.91341,115.27140 L 243.68148,119.77270 C 243.97617,118.71010 244.28662,117.65270 244.53282,116.57340 C 245.75108,110.23900 246.19219,97.718600 238.14757,94.616700 C 233.90647,94.563400 224.42090,99.744400 239.60548,92.454800 C 240.31897,92.112300 230.15353,98.513600 231.15154,98.623500 L 221.91960,103.12480 z " />
    <path
       style="fill:#000000;fill-opacity:1.0000000;fill-rule:nonzero;stroke:none;stroke-width:1.0000000pt;stroke-linecap:butt;stroke-linejoin:miter;stroke-opacity:1.0000000;display:block"
       id="path10251"
       d="M 252.97792,97.283500 C 228.76958,109.49090 260.72970,89.186400 269.69716,89.630900 C 275.36234,93.423000 273.13086,106.60310 272.19177,112.38700 C 272.06765,112.98180 271.95173,113.57920 271.83170,114.17520 L 262.59978,118.83390 C 262.63089,118.67930 262.93592,117.14270 262.95984,117.04550 C 263.89893,111.26180 266.13040,98.081500 260.46522,94.289500 C 255.63421,94.050100 243.90924,100.25810 258.89005,92.631100 C 259.05094,92.549200 245.98115,102.06380 243.74599,101.94210 L 252.97792,97.283500 z " />
    <path
       style="fill:#000000;fill-opacity:1.0000000;fill-rule:nonzero;stroke:none;stroke-width:1.0000000pt;stroke-linecap:butt;stroke-linejoin:miter;stroke-opacity:1.0000000;display:block"
       id="path10259"
       d="M 75.413546,30.201100 C 81.831195,29.966200 88.345359,27.380700 94.586294,25.638000 C 97.333993,24.578300 100.23986,24.184100 103.10529,23.619900 L 97.313433,26.320700 C 94.447999,26.884900 91.542129,27.279100 88.794430,28.338800 C 82.553495,30.081500 76.039331,32.667000 69.621683,32.901900 L 75.413546,30.201100 z " />
    <path
       style="fill:#000000;fill-opacity:1.0000000;fill-rule:nonzero;stroke:none;stroke-width:1.0000000pt;stroke-linecap:butt;stroke-linejoin:miter;stroke-opacity:1.0000000;display:block"
       id="path10279"
       d="M 97.820012,25.491000 C 97.022056,23.178300 95.399219,21.286200 93.501054,19.570500 C 94.427830,16.330400 83.672296,19.860400 85.203568,19.257600 C 90.135326,17.316000 91.237534,16.700400 88.622041,18.045600 C 84.396765,20.435400 81.642532,24.664700 80.343450,28.833800 C 80.500584,32.198300 82.208525,35.630800 84.648539,38.221600 C 87.828894,40.952400 91.302989,42.686700 95.860493,42.401200 C 96.602789,42.729100 103.95323,40.046600 102.65628,40.468600 C 94.557885,43.103700 101.68963,40.073500 103.91808,38.112300 L 109.70994,35.751900 C 104.44019,40.389600 97.348372,43.406900 90.068629,44.761600 C 85.511125,45.047100 82.037030,43.312800 78.856675,40.582100 C 76.416661,37.991300 74.708720,34.558700 74.551586,31.194300 C 75.850668,27.025100 78.604901,22.795900 82.830177,20.406000 C 87.113237,18.203200 94.528266,13.379800 99.292918,17.210000 C 101.19108,18.925700 102.81392,20.817900 103.61188,23.130600 L 97.820012,25.491000 z " />
    <path
       style="fill:#000000;fill-opacity:1.0000000;fill-rule:nonzero;stroke:none;stroke-width:1.0000000pt;stroke-linecap:butt;stroke-linejoin:miter;stroke-opacity:1.0000000;display:block"
       id="path10286"
       d="M 85.316258,170.78020 C 92.611317,158.75360 96.208043,165.27760 96.987384,174.69280 C 98.730472,196.14700 85.060626,212.01160 65.836502,217.62550 L 70.731997,213.29220 C 86.781051,208.60550 92.710587,199.41610 92.091889,179.02610 C 91.843186,176.02150 91.750139,172.62540 90.327896,169.90680 C 89.768485,168.83750 86.138309,169.68670 86.997178,168.86770 C 94.935283,161.29790 91.372775,164.35440 90.211753,166.44690 L 85.316258,170.78020 z " />
    <path
       style="fill:#000000;fill-opacity:1.0000000;fill-rule:nonzero;stroke:none;stroke-width:1.0000000pt;stroke-linecap:butt;stroke-linejoin:miter;stroke-opacity:1.0000000;display:block"
       id="path10307"
       d="M 109.47131,167.22690 C 109.83984,166.73410 107.39423,168.54560 107.89420,168.18670 C 109.32554,167.15950 110.72365,166.08090 112.21349,165.14060 C 113.94979,164.04470 109.51724,168.31790 108.70618,170.20430 C 106.90654,174.38960 106.04017,178.94250 105.71945,183.45890 C 106.19719,194.81790 107.62948,211.66470 122.06132,210.86210 L 116.87181,214.59170 C 102.43998,215.39420 101.00769,198.54740 100.52995,187.18840 C 101.28608,176.54040 104.65972,168.53930 114.66080,163.49750 L 109.47131,167.22690 z " />
    <path
       style="fill:#000000;fill-opacity:1.0000000;fill-rule:nonzero;stroke:none;stroke-width:1.0000000pt;stroke-linecap:butt;stroke-linejoin:miter;stroke-opacity:1.0000000;display:block"
       id="path10312"
       d="M 90.238955,195.18250 C 94.675034,190.12120 100.16490,188.68140 106.07663,186.28030 C 106.29809,186.20020 106.51954,186.12010 106.74099,186.04000 L 101.84550,190.14790 C 101.62404,190.22790 101.40259,190.30800 101.18114,190.38810 C 97.331383,191.95170 84.653809,197.86590 95.134450,191.07470 L 90.238955,195.18250 z " />
    <path
       style="fill:#000000;fill-opacity:1.0000000;fill-rule:nonzero;stroke:none;stroke-width:1.0000000pt;stroke-linecap:butt;stroke-linejoin:miter;stroke-opacity:1.0000000;display:block"
       id="path10313"
       d="M 92.127477,195.04270 C 95.086124,193.65120 98.204697,192.64970 101.31109,191.64640 L 99.026529,193.56340 C 95.920133,194.56670 92.801560,195.56820 89.842912,196.95960 L 92.127477,195.04270 z " />
    <path
       style="fill:#000000;fill-opacity:1.0000000;fill-rule:nonzero;stroke:none;stroke-width:1.0000000pt;stroke-linecap:butt;stroke-linejoin:miter;stroke-opacity:1.0000000;display:block"
       id="path10334"
       d="M 71.284343,215.12950 C 73.566293,215.08450 63.671086,217.91950 65.577987,217.23190 C 72.195082,214.84570 80.394096,211.11550 87.603241,212.50640 C 93.825039,216.35140 96.932688,220.75560 104.95748,221.02480 C 105.71124,220.99690 106.46499,220.96910 107.21875,220.94120 L 101.21354,223.12690 C 100.45978,223.15480 99.706025,223.18270 98.952270,223.21050 C 90.927475,222.94130 87.819825,218.53710 81.598028,214.69210 C 77.723679,213.94460 73.713221,214.96990 69.928812,215.86760 C 68.569738,216.19000 64.618757,217.60080 65.928969,217.11670 C 67.811711,216.42110 73.471330,214.36530 71.583201,215.04610 C 69.511551,215.79320 67.446667,216.55890 65.378400,217.31530 C 65.345310,217.31530 65.312220,217.31530 65.279130,217.31530 L 71.284343,215.12950 z " />
    <path
       style="fill:#000000;fill-opacity:1.0000000;fill-rule:nonzero;stroke:none;stroke-width:1.0000000pt;stroke-linecap:butt;stroke-linejoin:miter;stroke-opacity:1.0000000;display:block"
       id="path10336"
       d="M 126.64069,186.01190 C 127.28561,190.49980 127.32510,195.05670 127.12582,199.58150 C 126.96152,202.09290 127.02962,204.61380 126.94658,207.12490 C 126.24135,210.25150 130.16681,210.74320 132.24735,212.29500 L 127.35185,216.40280 C 125.27132,214.85100 121.34585,214.35940 122.05109,211.23280 C 122.13413,208.72160 122.06602,206.20070 122.23032,203.68930 C 122.42960,199.16450 122.39012,194.60770 121.74520,190.11970 L 126.64069,186.01190 z " />
    <path
       style="fill:#000000;fill-opacity:1.0000000;fill-rule:nonzero;stroke:none;stroke-width:1.0000000pt;stroke-linecap:butt;stroke-linejoin:miter;stroke-opacity:1.0000000;display:block"
       id="path10339"
       d="M 130.21052,184.26870 C 132.43907,186.62190 135.41316,188.19400 138.24526,189.72260 C 138.41022,189.81750 138.57519,189.91230 138.74015,190.00720 L 133.84466,194.11500 C 133.67969,194.02010 133.51473,193.92530 133.34976,193.83040 C 130.51767,192.30180 127.54358,190.72970 125.31503,188.37650 L 130.21052,184.26870 z " />
    <path
       style="fill:#000000;fill-opacity:1.0000000;fill-rule:nonzero;stroke:none;stroke-width:1.0000000pt;stroke-linecap:butt;stroke-linejoin:miter;stroke-opacity:1.0000000;display:block"
       id="path10343"
       d="M 134.60326,193.52270 C 130.94721,194.46110 118.33754,205.25110 127.41676,197.67310 C 126.91594,197.86790 126.83647,198.38730 126.54633,198.74440 L 121.65083,202.85220 C 121.94097,202.49510 122.02044,201.97570 122.52126,201.78090 C 127.62059,197.48650 133.29450,192.03910 139.49876,189.41490 L 134.60326,193.52270 z " />
    <path
       style="fill:#000000;fill-opacity:1.0000000;fill-rule:nonzero;stroke:none;stroke-width:1.0000000pt;stroke-linecap:butt;stroke-linejoin:miter;stroke-opacity:1.0000000;display:block"
       id="path10353"
       d="M 120.69070,198.74860 C 126.21667,197.71560 131.91476,198.09940 137.51279,198.34400 C 137.80728,198.35440 138.10176,198.36480 138.39625,198.37510 L 132.00563,198.37510 C 131.71115,198.36480 131.41666,198.35440 131.12218,198.34400 C 120.08406,197.86160 140.36085,197.60670 127.08131,198.74860 L 120.69070,198.74860 z " />
    <path
       style="fill:#000000;fill-opacity:1.0000000;fill-rule:nonzero;stroke:none;stroke-width:1.0000000pt;stroke-linecap:butt;stroke-linejoin:miter;stroke-opacity:1.0000000;display:block"
       id="path10357"
       d="M 126.01231,216.44970 C 129.58462,213.43730 133.21074,210.36470 137.22129,207.92600 L 132.32579,212.03380 C 128.17630,214.55700 123.96523,218.28780 130.90781,212.34190 L 126.01231,216.44970 z " />
    <path
       style="fill:#000000;fill-opacity:1.0000000;fill-rule:nonzero;stroke:none;stroke-width:1.0000000pt;stroke-linecap:butt;stroke-linejoin:miter;stroke-opacity:1.0000000;display:block"
       id="path10361"
       d="M 144.44685,185.31460 C 144.34512,189.29570 144.51779,193.25620 144.85739,197.22110 C 145.11360,200.42530 145.19108,203.64600 145.10615,206.85610 L 140.21065,210.96390 C 140.29558,207.75380 140.21811,204.53320 139.96189,201.32890 C 139.62230,197.36400 139.44963,193.40350 139.55136,189.42240 L 144.44685,185.31460 z " />
    <path
       style="fill:#000000;fill-opacity:1.0000000;fill-rule:nonzero;stroke:none;stroke-width:1.0000000pt;stroke-linecap:butt;stroke-linejoin:miter;stroke-opacity:1.0000000;display:block"
       id="path10364"
       d="M 139.50965,210.60620 C 145.02116,204.90640 145.25765,207.71330 150.94955,211.10980 L 146.05405,215.21760 C 140.48817,211.89630 136.57279,211.75850 144.40515,206.49840 L 139.50965,210.60620 z " />
    <path
       style="fill:#000000;fill-opacity:1.0000000;fill-rule:nonzero;stroke:none;stroke-width:1.0000000pt;stroke-linecap:butt;stroke-linejoin:miter;stroke-opacity:1.0000000;display:block"
       id="path10365"
       d="M 145.17134,214.74820 C 147.55046,211.01550 150.91076,210.75220 153.99006,208.54040 L 149.09457,212.64820 C 146.69946,214.36850 139.75131,217.33120 150.06683,210.64040 L 145.17134,214.74820 z " />
    <path
       style="fill:#000000;fill-opacity:1.0000000;fill-rule:nonzero;stroke:none;stroke-width:1.0000000pt;stroke-linecap:butt;stroke-linejoin:miter;stroke-opacity:1.0000000;display:block"
       id="path10367"
       d="M 147.27770,182.79070 C 149.67421,183.79180 151.16479,186.12260 152.96216,187.91060 C 153.69757,188.52490 154.53307,188.98090 155.35788,189.45540 L 150.46239,193.56320 C 149.63758,193.08880 148.80207,192.63270 148.06666,192.01840 C 146.26929,190.23040 144.77871,187.89960 142.38220,186.89850 L 147.27770,182.79070 z " />
    <path
       style="fill:#000000;fill-opacity:1.0000000;fill-rule:nonzero;stroke:none;stroke-width:1.0000000pt;stroke-linecap:butt;stroke-linejoin:miter;stroke-opacity:1.0000000;display:block"
       id="path10369"
       d="M 155.95205,187.01610 C 154.62872,192.95370 154.86427,199.20220 155.10641,205.25160 C 155.55971,213.14150 155.53453,221.06850 155.08026,228.95380 C 155.03507,229.28240 154.98988,229.61110 154.94468,229.93970 L 150.04919,234.04750 C 150.09438,233.71890 150.13957,233.39030 150.18477,233.06160 C 150.63903,225.17640 150.66421,217.24930 150.21092,209.35940 C 149.96877,203.31000 149.73323,197.06160 151.05656,191.12390 L 155.95205,187.01610 z " />
    <path
       style="fill:#000000;fill-opacity:1.0000000;fill-rule:nonzero;stroke:none;stroke-width:1.0000000pt;stroke-linecap:butt;stroke-linejoin:miter;stroke-opacity:1.0000000;display:block"
       id="path10371"
       d="M 151.83877,232.22200 C 159.84586,224.65500 153.39509,231.08600 150.68487,234.58910 C 150.55708,234.76570 150.42928,234.94220 150.30148,235.11880 L 145.40599,239.22660 C 145.53379,239.05000 145.66158,238.87350 145.78938,238.69690 C 148.93923,234.62560 152.45066,231.03540 156.73427,228.11420 L 151.83877,232.22200 z " />
    <path
       style="fill:#000000;fill-opacity:1.0000000;fill-rule:nonzero;stroke:none;stroke-width:1.0000000pt;stroke-linecap:butt;stroke-linejoin:miter;stroke-opacity:1.0000000;display:block"
       id="path10397"
       d="M 160.90016,183.83660 C 162.30072,184.47450 163.54770,185.56430 164.86365,186.43320 C 164.85244,186.47320 165.45968,186.84580 165.48418,186.86280 L 160.58869,190.97060 C 160.38185,190.82740 160.15270,190.71650 159.96816,190.54100 C 158.65221,189.67210 157.40523,188.58230 156.00466,187.94440 L 160.90016,183.83660 z " />
    <path
       style="fill:#000000;fill-opacity:1.0000000;fill-rule:nonzero;stroke:none;stroke-width:1.0000000pt;stroke-linecap:butt;stroke-linejoin:miter;stroke-opacity:1.0000000;display:block"
       id="path10398"
       d="M 165.40418,185.52850 C 164.77918,189.10210 165.08413,192.75920 165.25454,196.36190 C 165.51154,199.63980 165.29022,202.91950 165.40781,206.20130 C 165.33135,206.92670 165.57143,207.57200 165.75059,208.24170 L 161.06982,212.59260 C 160.89066,211.92290 160.65059,211.27780 160.72705,210.55220 C 160.60946,207.27030 160.83078,203.99070 160.57377,200.71270 C 160.40336,197.11010 160.09842,193.45300 160.72342,189.87940 L 165.40418,185.52850 z " />
    <path
       style="fill:#000000;fill-opacity:1.0000000;fill-rule:nonzero;stroke:none;stroke-width:1.0000000pt;stroke-linecap:butt;stroke-linejoin:miter;stroke-opacity:1.0000000;display:block"
       id="path10399"
       d="M 161.19259,211.22000 C 166.78561,205.72560 165.26634,207.31680 169.75920,210.71230 C 170.58035,211.49690 171.47161,212.17270 172.40003,212.81760 L 167.50454,216.92540 C 166.57611,216.28050 165.68485,215.60470 164.86370,214.82010 C 160.41112,211.45500 159.54631,211.71160 166.08808,207.11220 L 161.19259,211.22000 z " />
    <path
       style="fill:#000000;fill-opacity:1.0000000;fill-rule:nonzero;stroke:none;stroke-width:1.0000000pt;stroke-linecap:butt;stroke-linejoin:miter;stroke-opacity:1.0000000;display:block"
       id="path10400"
       d="M 172.40535,183.83660 C 162.38895,193.44250 171.65536,179.53320 176.51796,185.60840 C 176.76887,186.09100 177.26834,186.32650 177.63964,186.68180 L 172.74415,190.78960 C 172.37284,190.43430 171.87337,190.19880 171.62247,189.71620 C 170.94616,188.87120 170.25458,187.79470 169.13557,187.52410 C 168.72118,187.42390 167.53990,187.90930 167.86083,187.62860 C 177.22253,179.44230 170.83359,185.33320 167.50985,187.94440 L 172.40535,183.83660 z " />
    <path
       style="fill:#000000;fill-opacity:1.0000000;fill-rule:nonzero;stroke:none;stroke-width:1.0000000pt;stroke-linecap:butt;stroke-linejoin:miter;stroke-opacity:1.0000000;display:block"
       id="path10401"
       d="M 176.93770,186.01190 C 177.40964,189.49790 177.24701,193.06950 177.24689,196.58820 C 177.18937,199.74850 177.36007,202.92080 177.14535,206.07250 C 176.87415,207.14890 177.00807,208.09660 177.26498,209.13180 L 172.36949,213.23960 C 172.11257,212.20440 171.97866,211.25670 172.24986,210.18030 C 172.46458,207.02860 172.29388,203.85630 172.35139,200.69600 C 172.35152,197.17730 172.51414,193.60570 172.04220,190.11970 L 176.93770,186.01190 z " />
    <path
       style="fill:#000000;fill-opacity:1.0000000;fill-rule:nonzero;stroke:none;stroke-width:1.0000000pt;stroke-linecap:butt;stroke-linejoin:miter;stroke-opacity:1.0000000;display:block"
       id="path10403"
       d="M 182.66550,188.42060 C 188.25926,182.17440 185.93738,186.26640 185.89252,191.82660 C 185.82743,195.22000 186.19976,198.59620 186.24926,201.98790 C 186.34412,203.67710 186.10057,205.63960 186.90612,207.06990 C 189.47904,207.83990 191.58308,209.38510 193.70332,210.91200 C 193.90171,211.03900 194.10009,211.16590 194.29848,211.29280 L 189.40298,215.17950 C 189.20460,215.05260 189.00621,214.92570 188.80782,214.79880 C 186.68758,213.27180 184.58354,211.72660 182.01062,210.95660 C 181.20507,209.52640 181.44862,207.56380 181.35377,205.87470 C 181.30427,202.48290 180.93193,199.10680 180.99703,195.71340 C 181.04624,189.61310 180.99393,188.22290 187.56099,184.53390 L 182.66550,188.42060 z " />
    <path
       style="fill:#000000;fill-opacity:1.0000000;fill-rule:nonzero;stroke:none;stroke-width:1.0000000pt;stroke-linecap:butt;stroke-linejoin:miter;stroke-opacity:1.0000000;display:block"
       id="path10404"
       d="M 188.03475,184.53390 C 189.84401,184.39290 191.36302,184.54730 192.96374,185.38680 C 194.11129,186.08340 195.39259,186.33480 196.69682,186.53250 L 191.80132,190.64030 C 190.49709,190.44260 189.21580,190.19120 188.06825,189.49460 C 186.46752,188.65510 184.94852,188.50070 183.13925,188.64170 L 188.03475,184.53390 z " />
    <path
       style="fill:#000000;fill-opacity:1.0000000;fill-rule:nonzero;stroke:none;stroke-width:1.0000000pt;stroke-linecap:butt;stroke-linejoin:miter;stroke-opacity:1.0000000;display:block"
       id="path10409"
       d="M 196.30425,186.20150 C 191.69558,189.44110 201.70229,180.37720 198.38875,184.46910 C 197.00758,186.14050 197.05770,188.08940 197.04898,190.14540 C 197.05611,192.73000 197.05769,195.31450 197.05780,197.89910 C 197.05776,200.25370 197.05774,202.60830 197.05774,204.96290 C 196.99389,207.53230 197.32606,209.39280 199.89567,210.28300 C 201.99212,211.18750 203.75978,211.62590 205.97467,211.07750 L 201.07918,215.18530 C 198.86428,215.73380 197.09663,215.29530 195.00018,214.39080 C 192.43057,213.50070 192.09840,211.64010 192.16225,209.07070 C 192.16225,206.71610 192.16226,204.36150 192.16231,202.00690 C 192.16220,199.42230 192.16061,196.83780 192.15349,194.25320 C 192.16221,192.19720 192.11208,190.24830 193.49326,188.57690 C 195.60771,185.96570 198.31039,183.71570 201.19975,182.09370 L 196.30425,186.20150 z " />
    <path
       style="fill:#000000;fill-opacity:1.0000000;fill-rule:nonzero;stroke:none;stroke-width:1.0000000pt;stroke-linecap:butt;stroke-linejoin:miter;stroke-opacity:1.0000000;display:block"
       id="path10419"
       d="M 210.37377,184.97130 C 210.47870,188.58960 210.68373,192.20250 210.71779,195.82500 C 210.72980,198.52520 210.72301,201.22540 210.72246,203.92570 C 210.79389,205.69940 210.40506,207.44380 210.51937,209.19030 C 211.82591,210.55190 213.83805,211.53920 215.72319,212.12550 L 210.82770,215.87670 C 208.94255,215.29040 206.93041,214.30310 205.62387,212.94140 C 205.50957,211.19500 205.89839,209.45060 205.82696,207.67670 C 205.82751,204.97650 205.83430,202.27630 205.82229,199.57610 C 205.78823,195.95360 205.58320,192.34070 205.47827,188.72250 L 210.37377,184.97130 z " />
    <path
       style="fill:#000000;fill-opacity:1.0000000;fill-rule:nonzero;stroke:none;stroke-width:1.0000000pt;stroke-linecap:butt;stroke-linejoin:miter;stroke-opacity:1.0000000;display:block"
       id="path10420"
       d="M 204.54512,183.17170 C 206.68886,183.67490 208.58164,185.16240 210.72129,185.97680 L 205.82580,190.06490 C 203.68615,189.25040 201.79337,187.76290 199.64963,187.25970 L 204.54512,183.17170 z " />
    <path
       style="fill:#000000;fill-opacity:1.0000000;fill-rule:nonzero;stroke:none;stroke-width:1.0000000pt;stroke-linecap:butt;stroke-linejoin:miter;stroke-opacity:1.0000000;display:block"
       id="path10437"
       d="M 207.26319,191.82830 C 212.10086,188.82930 207.11754,189.02730 217.63628,184.05580 L 212.74078,188.58290 C 211.01461,189.39890 206.29360,192.75710 207.73035,191.42390 C 209.29143,189.97520 213.97792,185.63380 212.41584,187.08100 C 206.30288,192.74470 205.16567,193.80920 212.15868,187.30090 L 207.26319,191.82830 z " />
    <path
       style="fill:#000000;fill-opacity:1.0000000;fill-rule:nonzero;stroke:none;stroke-width:1.0000000pt;stroke-linecap:butt;stroke-linejoin:miter;stroke-opacity:1.0000000;display:block"
       id="path10438"
       d="M 217.03967,183.50470 C 218.75956,183.26860 219.83386,184.05030 221.09600,185.23940 C 221.21472,185.33320 221.33344,185.42670 221.45216,185.52050 L 216.55666,190.04770 C 216.43794,189.95390 216.31922,189.86020 216.20051,189.76670 C 214.93837,188.57760 213.86407,187.79590 212.14418,188.03180 L 217.03967,183.50470 z " />
    <path
       style="fill:#000000;fill-opacity:1.0000000;fill-rule:nonzero;stroke:none;stroke-width:1.0000000pt;stroke-linecap:butt;stroke-linejoin:miter;stroke-opacity:1.0000000;display:block"
       id="path10440"
       d="M 216.59312,188.03180 C 224.38491,179.77380 219.93309,187.87010 221.38551,196.17700 C 222.32178,199.97900 221.81930,203.80740 221.55782,207.64590 L 216.66233,212.17310 C 216.92380,208.33460 217.42629,204.50620 216.49002,200.70420 C 215.12423,192.89280 214.96970,188.30960 221.48862,183.50470 L 216.59312,188.03180 z " />
    <path
       style="fill:#000000;fill-opacity:1.0000000;fill-rule:nonzero;stroke:none;stroke-width:1.0000000pt;stroke-linecap:butt;stroke-linejoin:miter;stroke-opacity:1.0000000;display:block"
       id="path10441"
       d="M 215.28196,212.57720 C 218.33932,209.45300 221.34239,205.43980 224.56796,209.47260 C 224.97451,210.15700 225.56827,210.61550 226.13178,211.12160 L 221.23628,215.64880 C 220.67277,215.14260 220.07902,214.68420 219.67247,213.99970 C 216.50826,210.04360 211.69400,215.64830 220.17746,208.04990 L 215.28196,212.57720 z " />
    <path
       style="fill:#000000;fill-opacity:1.0000000;fill-rule:nonzero;stroke:none;stroke-width:1.0000000pt;stroke-linecap:butt;stroke-linejoin:miter;stroke-opacity:1.0000000;display:block"
       id="path10442"
       d="M 218.02940,191.05980 C 231.33130,178.79510 218.24892,190.85680 218.26964,190.83970 C 222.60874,187.27620 224.01168,185.86920 228.39586,183.82070 L 223.50036,188.34800 C 221.84457,189.12160 217.17399,191.96010 218.52784,190.65540 C 220.05486,189.18390 224.79167,184.97660 223.16514,186.31260 C 223.12933,186.34200 210.12138,198.40940 222.92489,186.53260 L 218.02940,191.05980 z " />
    <path
       style="fill:#000000;fill-opacity:1.0000000;fill-rule:nonzero;stroke:none;stroke-width:1.0000000pt;stroke-linecap:butt;stroke-linejoin:miter;stroke-opacity:1.0000000;display:block"
       id="path10445"
       d="M 228.58658,183.50470 C 230.21594,183.74680 231.49737,184.99840 232.70929,186.15400 L 227.81380,190.68120 C 226.60187,189.52560 225.32044,188.27410 223.69108,188.03180 L 228.58658,183.50470 z " />
    <path
       style="fill:#000000;fill-opacity:1.0000000;fill-rule:nonzero;stroke:none;stroke-width:1.0000000pt;stroke-linecap:butt;stroke-linejoin:miter;stroke-opacity:1.0000000;display:block"
       id="path10449"
       d="M 232.68688,185.85590 C 232.53310,189.34320 232.31278,192.81390 232.44213,196.31000 C 232.67087,199.34490 232.68902,202.38750 232.68871,205.43040 C 232.77643,206.69610 232.55088,207.92960 232.35974,209.16650 L 227.46424,213.69370 C 227.65538,212.45680 227.88094,211.22340 227.79321,209.95750 C 227.79353,206.91480 227.77537,203.87210 227.54664,200.83720 C 227.41728,197.34100 227.63760,193.87050 227.79138,190.38310 L 232.68688,185.85590 z " />
    <path
       style="fill:#000000;fill-opacity:1.0000000;fill-rule:nonzero;stroke:none;stroke-width:1.0000000pt;stroke-linecap:butt;stroke-linejoin:miter;stroke-opacity:1.0000000;display:block"
       id="path10451"
       d="M 231.64095,207.75750 C 233.03684,208.06010 234.24393,208.98160 235.47918,209.80090 C 236.03126,210.11700 236.47114,210.60420 236.94732,211.03580 L 232.05182,215.56300 C 231.57565,215.13160 231.13577,214.64410 230.58369,214.32810 C 229.34844,213.50870 228.14135,212.58730 226.74546,212.28480 L 231.64095,207.75750 z " />
    <path
       style="fill:#000000;fill-opacity:1.0000000;fill-rule:nonzero;stroke:none;stroke-width:1.0000000pt;stroke-linecap:butt;stroke-linejoin:miter;stroke-opacity:1.0000000;display:block"
       id="path10456"
       d="M 61.796612,239.37800 C 57.981527,253.89060 52.627213,267.61070 44.768545,280.08490 C 40.294338,287.08480 34.876432,293.38230 28.548587,298.73160 L 23.713012,302.39710 C 30.040868,297.04790 35.458763,290.75030 39.932970,283.75040 C 47.791638,271.27620 53.145952,257.55610 56.961037,243.04350 L 61.796612,239.37800 z " />
    <path
       style="fill:#000000;fill-opacity:1.0000000;fill-rule:nonzero;stroke:none;stroke-width:1.0000000pt;stroke-linecap:butt;stroke-linejoin:miter;stroke-opacity:1.0000000;display:block"
       id="path10461"
       d="M 27.879682,298.13170 C 31.308278,296.94930 35.024547,296.56990 38.812238,296.98780 C 45.509245,298.48200 51.432779,302.48310 58.375846,301.95240 C 58.985071,301.83340 59.594297,301.71440 60.203522,301.59540 L 55.367947,305.26090 C 54.758722,305.37990 54.149496,305.49890 53.540271,305.61790 C 46.597204,306.14860 40.673670,302.14750 33.976663,300.65330 C 30.188971,300.23540 26.472703,300.61480 23.044107,301.79720 L 27.879682,298.13170 z " />
    <path
       style="fill:#000000;fill-opacity:1.0000000;fill-rule:nonzero;stroke:none;stroke-width:1.0000000pt;stroke-linecap:butt;stroke-linejoin:miter;stroke-opacity:1.0000000;display:block"
       id="path10471"
       d="M 70.369968,235.64680 C 69.247076,248.95920 69.209405,261.86500 73.144527,275.35450 C 77.899955,289.80570 80.811672,298.55140 96.068768,290.82880 L 88.586872,296.50020 C 73.587092,304.05960 70.360841,295.31170 65.587307,281.08300 C 61.563383,267.44460 61.671587,254.41610 63.268904,241.02960 L 70.369968,235.64680 z " />
    <path
       style="fill:#000000;fill-opacity:1.0000000;fill-rule:nonzero;stroke:none;stroke-width:1.0000000pt;stroke-linecap:butt;stroke-linejoin:miter;stroke-opacity:1.0000000;display:block"
       id="path10476"
       d="M 49.365893,235.25740 C 48.029958,238.93080 48.658543,241.81580 53.328702,241.65000 C 59.112634,240.85900 64.197096,238.17930 69.315021,235.84020 L 61.920944,241.44520 C 56.860735,243.75910 51.828058,246.42860 46.086419,247.13990 C 41.436574,247.21880 40.835030,244.23180 42.267429,240.63820 L 49.365893,235.25740 z " />
    <path
       style="fill:#000000;fill-opacity:1.0000000;fill-rule:nonzero;stroke:none;stroke-width:1.0000000pt;stroke-linecap:butt;stroke-linejoin:miter;stroke-opacity:1.0000000;display:block"
       id="path10481"
       d="M 50.887550,271.43140 C 56.076813,268.03830 61.803764,266.37010 67.823563,265.18400 C 68.860492,264.96190 69.911951,264.82750 70.958946,264.66710 L 63.177754,270.11560 C 62.107876,270.29240 61.033231,270.44310 59.973846,270.68050 C 54.033553,271.88970 48.341671,273.47810 43.198963,276.81500 L 50.887550,271.43140 z " />
    <path
       style="fill:#000000;fill-opacity:1.0000000;fill-rule:nonzero;stroke:none;stroke-width:1.0000000pt;stroke-linecap:butt;stroke-linejoin:miter;stroke-opacity:1.0000000;display:block"
       id="path10489"
       d="M 112.96767,269.93670 C 103.37179,280.01520 106.15814,271.90850 98.141845,275.08570 C 100.78983,273.45910 103.38911,271.76900 106.08575,270.20600 C 107.70875,269.26530 103.60914,272.89010 102.78311,274.44100 C 100.55643,278.62170 99.570265,282.03370 101.15951,286.39270 C 103.40704,293.90040 108.81009,296.25160 117.51241,294.02560 C 132.47295,286.66290 110.81101,299.49810 118.67124,294.18390 L 127.64151,288.64020 C 121.63531,292.70200 115.60247,297.00220 108.55954,299.55860 C 99.934005,301.74290 95.236159,299.28510 92.977363,291.88030 C 89.145726,281.43310 97.198245,274.70890 106.94967,269.64240 C 113.89104,266.90840 118.46236,273.96150 104.26319,275.31610 L 112.96767,269.93670 z "
       sodipodi:nodetypes="ccccccccccccc" />
    <path
       style="fill:#000000;fill-opacity:1.0000000;fill-rule:nonzero;stroke:none;stroke-width:1.0000000pt;stroke-linecap:butt;stroke-linejoin:miter;stroke-opacity:1.0000000;display:block"
       id="path10490"
       d="M 114.24572,279.99250 C 114.19638,280.02200 114.14705,280.05140 114.09771,280.08090 C 116.58066,278.34850 119.05866,276.60890 121.54657,274.88360 C 121.87313,274.65720 120.92225,275.37620 120.59676,275.60420 C 117.13182,278.03140 113.87954,280.46080 110.32552,282.63270 C 108.78182,283.57610 107.18491,284.43030 105.66044,285.40560 C 105.26329,285.65970 104.09647,286.45920 104.48180,286.18750 C 116.26916,277.87710 112.76582,280.37930 110.25162,282.17930 C 108.12935,283.81710 110.53156,281.91930 109.15984,283.19330 L 101.41766,288.61450 C 101.75750,288.29330 101.91455,287.78830 102.43719,287.65100 C 106.48491,284.75190 110.46189,281.70990 114.73963,279.15110 C 116.46214,278.12080 121.53991,274.89300 119.90854,276.06240 C 101.28153,289.41350 121.59741,274.53340 121.92836,274.61310 L 114.24572,279.99250 z " />
    <path
       style="fill:#000000;fill-opacity:1.0000000;fill-rule:nonzero;stroke:none;stroke-width:1.0000000pt;stroke-linecap:butt;stroke-linejoin:miter;stroke-opacity:1.0000000;display:block"
       id="path10513"
       d="M 134.96099,272.25310 C 132.40271,277.16840 131.24897,283.09910 131.66971,288.52840 C 132.10573,291.48710 134.34546,296.52830 138.62728,295.27630 C 140.63314,294.68980 150.11874,288.73380 144.00421,292.42020 C 142.08935,293.57460 140.19607,294.75840 138.29201,295.92750 L 146.29979,290.83440 C 140.08643,294.86240 126.26296,307.39410 123.78745,293.54170 C 123.36678,288.06940 124.52109,282.03390 127.26955,277.14510 L 134.96099,272.25310 z " />
    <path
       style="fill:#000000;fill-opacity:1.0000000;fill-rule:nonzero;stroke:none;stroke-width:1.0000000pt;stroke-linecap:butt;stroke-linejoin:miter;stroke-opacity:1.0000000;display:block"
       id="path10515"
       d="M 138.99135,269.73180 C 136.24367,271.51140 127.75283,276.46670 130.74830,275.07070 C 133.81722,273.64040 136.39160,271.44150 139.21402,269.62800 C 146.04410,265.23930 111.41655,287.37290 140.44675,268.81170 C 141.96745,267.83930 144.05692,268.04850 145.76602,268.20450 C 149.65311,269.44020 152.64227,270.95710 156.64627,269.26350 L 148.19524,274.73860 C 144.22190,276.40560 141.22353,274.86400 137.37225,273.64240 C 135.60943,273.47630 130.64979,275.17370 132.09361,274.22330 C 134.73279,272.48600 142.63668,267.25890 140.05300,269.06620 C 111.94444,288.72870 157.32395,256.27740 130.68791,275.11120 L 138.99135,269.73180 z " />
    <path
       style="fill:#000000;fill-opacity:1.0000000;fill-rule:nonzero;stroke:none;stroke-width:1.0000000pt;stroke-linecap:butt;stroke-linejoin:miter;stroke-opacity:1.0000000;display:block"
       id="path10521"
       d="M 154.56633,269.81380 C 148.76235,285.47930 146.59366,301.92710 146.61851,318.63530 C 146.68625,319.76240 146.75399,320.88960 146.82172,322.01670 L 138.75695,327.66370 C 138.65474,326.56070 138.55253,325.45770 138.45033,324.35470 C 138.05610,307.41190 140.53218,290.89880 146.87888,275.19660 L 154.56633,269.81380 z " />
    <path
       style="fill:#000000;fill-opacity:1.0000000;fill-rule:nonzero;stroke:none;stroke-width:1.0000000pt;stroke-linecap:butt;stroke-linejoin:miter;stroke-opacity:1.0000000;display:block"
       id="path10538"
       d="M 157.95277,276.59160 C 165.78440,266.73210 169.39932,265.71980 166.49609,277.58530 C 163.36594,286.46690 163.96658,298.75900 174.93778,291.13510 C 175.55680,290.57990 177.33636,288.82600 176.79484,289.46930 C 165.77510,302.55940 178.37743,285.25220 180.60446,281.30980 L 187.50893,273.83380 C 182.27541,283.17880 176.23629,291.80490 168.09448,298.54490 C 157.25493,306.02780 156.51750,293.77500 159.64957,284.99850 C 164.20742,266.79120 152.38091,284.09850 164.59215,269.40270 L 157.95277,276.59160 z " />
    <path
       style="fill:#000000;fill-opacity:1.0000000;fill-rule:nonzero;stroke:none;stroke-width:1.0000000pt;stroke-linecap:butt;stroke-linejoin:miter;stroke-opacity:1.0000000;display:block"
       id="path10547"
       d="M 181.90737,273.02340 C 197.45316,263.62760 186.07586,272.68130 186.68125,285.76990 C 187.24521,294.07460 192.23975,298.53340 200.57043,294.86360 L 191.77859,299.70090 C 183.53970,303.32280 178.43346,298.85680 177.85149,290.62810 C 177.39486,279.77950 179.97632,272.75550 190.43038,268.33400 L 181.90737,273.02340 z " />
    <path
       style="fill:#000000;fill-opacity:1.0000000;fill-rule:nonzero;stroke:none;stroke-width:1.0000000pt;stroke-linecap:butt;stroke-linejoin:miter;stroke-opacity:1.0000000;display:block"
       id="path10561"
       d="M 209.33636,272.43800 C 209.56745,272.28760 208.99551,272.86390 208.86705,273.10060 C 208.04760,274.60980 207.56285,276.30450 207.06070,277.92410 C 205.86540,281.77960 205.05563,285.62620 204.72908,289.63490 C 204.69459,292.56290 205.55527,296.47230 209.56375,295.82810 C 211.17428,295.56940 215.33542,292.99840 214.05274,293.95990 C 212.28354,295.28630 210.48098,296.61440 208.47482,297.58910 C 206.48393,298.55640 211.77675,294.70060 213.19032,293.05360 C 216.09625,289.66760 218.24699,285.90320 220.18757,281.96590 C 220.51622,281.19760 220.84486,280.42930 221.17351,279.66110 L 229.15000,274.35030 C 228.83919,275.10670 228.52837,275.86310 228.21756,276.61950 C 224.35739,284.62570 200.38128,313.82650 196.74752,294.94920 C 197.57270,284.37450 199.55336,277.39960 209.73453,272.27190 C 209.73453,272.27190 200.85444,277.95810 209.33636,272.43800 z "
       sodipodi:nodetypes="ccccccccccccccc" />
    <path
       style="fill:#000000;fill-opacity:1.0000000;fill-rule:nonzero;stroke:none;stroke-width:1.0000000pt;stroke-linecap:butt;stroke-linejoin:miter;stroke-opacity:1.0000000;display:block"
       id="path10564"
       d="M 229.30501,270.06710 C 228.11039,277.93660 224.64113,286.97650 228.20187,294.68680 C 229.00821,297.53140 236.05908,292.94490 233.95444,294.06960 C 222.36080,300.26540 230.26889,295.12210 233.22666,291.22650 L 241.23065,286.17450 C 236.98185,291.79960 227.93182,303.03270 220.32344,299.65950 C 216.44593,292.01810 220.08949,282.72830 221.61275,274.92230 L 229.30501,270.06710 z " />
    <path
       style="fill:#000000;fill-opacity:1.0000000;fill-rule:nonzero;stroke:none;stroke-width:1.0000000pt;stroke-linecap:butt;stroke-linejoin:miter;stroke-opacity:1.0000000;display:block"
       id="path10577"
       d="M 241.71185,270.15770 C 247.79760,268.08150 248.66475,271.74140 248.85541,276.89360 C 248.75523,283.00300 247.67469,289.03800 246.94658,295.09470 L 239.66125,301.60980 C 240.27671,295.58310 241.27284,289.58350 241.44376,283.52180 C 241.32543,278.37040 240.66689,274.66410 234.50837,276.59970 L 241.71185,270.15770 z " />
    <path
       style="fill:#000000;fill-opacity:1.0000000;fill-rule:nonzero;stroke:none;stroke-width:1.0000000pt;stroke-linecap:butt;stroke-linejoin:miter;stroke-opacity:1.0000000;display:block"
       id="path10582"
       d="M 243.71583,286.27890 C 245.61383,279.31330 253.90777,273.50800 260.66369,270.17210 C 268.14513,267.09990 266.09442,278.54200 265.55295,282.37530 C 264.88315,286.20310 264.38882,290.09140 264.15424,293.94770 L 257.10409,300.61900 C 257.22805,296.80230 257.75692,292.95120 258.38167,289.16120 C 258.92328,285.28980 261.07713,273.72900 253.51485,276.93670 C 251.60272,277.89110 249.82089,278.98270 248.15076,280.28830 C 247.74884,280.60250 246.61745,281.62410 246.97976,281.26940 C 259.25603,269.25010 251.00862,275.91900 250.72426,279.64710 L 243.71583,286.27890 z " />
    <path
       style="fill:#000000;fill-opacity:1.0000000;fill-rule:nonzero;stroke:none;stroke-width:1.0000000pt;stroke-linecap:butt;stroke-linejoin:miter;stroke-opacity:1.0000000;display:block"
       id="path10585"
       d="M 270.22314,273.76190 C 257.85641,289.10650 269.48514,270.92180 275.64618,269.64750 C 279.06775,270.50640 281.17507,271.62840 284.49992,269.74860 C 284.78091,269.57420 285.06185,269.39980 285.34282,269.22550 L 279.36182,275.96120 C 279.08024,276.13630 278.79862,276.31130 278.51702,276.48640 C 275.23041,278.32470 273.08291,277.19950 269.70869,276.33420 C 268.46703,276.59370 265.37669,279.12000 266.26229,278.10610 C 268.08710,276.01690 269.93948,273.95840 271.78171,271.88870 C 274.28466,269.07660 261.95520,283.33880 264.33440,280.39370 L 270.22314,273.76190 z " />
    <path
       style="fill:#000000;fill-opacity:1.0000000;fill-rule:nonzero;stroke:none;stroke-width:1.0000000pt;stroke-linecap:butt;stroke-linejoin:miter;stroke-opacity:1.0000000;display:block"
       id="path10588"
       d="M 279.45476,274.42510 C 292.44282,260.88380 280.10521,274.43510 281.60987,286.69780 C 282.93955,292.45950 286.94721,296.67150 293.10066,293.61710 L 285.89021,300.44010 C 279.78683,303.43700 275.68309,299.31450 274.34012,293.57680 C 272.99095,282.62930 277.89202,274.64080 286.46318,267.79330 L 279.45476,274.42510 z " />
    <path
       style="fill:#000000;fill-opacity:1.0000000;fill-rule:nonzero;stroke:none;stroke-width:1.0000000pt;stroke-linecap:butt;stroke-linejoin:miter;stroke-opacity:1.0000000;display:block"
       id="path10596"
       d="M 211.16974,270.68200 C 216.76679,272.90430 223.07137,272.74320 228.80800,271.08300 C 231.36605,270.23080 233.66618,268.85560 235.93535,267.44830 L 229.34395,273.92620 C 227.06487,275.35050 224.75347,276.74090 222.17809,277.59870 C 216.51856,279.23930 210.19677,279.45040 204.75317,276.98800 L 211.16974,270.68200 z " />
    <path
       style="fill:#000000;fill-opacity:1.0000000;fill-rule:nonzero;stroke:none;stroke-width:1.0000000pt;stroke-linecap:butt;stroke-linejoin:miter;stroke-opacity:1.0000000;display:block"
       id="path10601"
       d="M 114.62782,279.30030 C 111.35954,279.57830 108.62568,277.66290 105.97470,275.97470 C 105.15606,275.53110 104.44530,274.93460 103.70368,274.38290 L 111.90813,269.64600 C 112.67578,270.18030 113.42097,270.74920 114.24473,271.20000 C 116.86409,272.85830 119.52363,274.83370 122.75516,274.60800 L 114.62782,279.30030 z " />
    <path
       style="fill:#000000;fill-opacity:1.0000000;fill-rule:nonzero;stroke:none;stroke-width:1.0000000pt;stroke-linecap:butt;stroke-linejoin:miter;stroke-opacity:1.0000000;display:block"
       id="path3335"
       d="M 89.045281,443.38085 C 90.168554,437.96939 102.43486,431.38657 108.40053,429.60857 C 118.07901,427.96757 109.42076,447.06384 107.97331,449.95103 C 98.155390,467.46457 81.121899,479.07256 62.584876,492.64583 L 57.767086,495.78549 C 76.168617,482.32664 93.263988,470.76967 102.78773,453.33036 C 104.24024,450.33891 112.37247,432.04923 102.57735,433.40342 C 99.212438,434.35348 95.219944,436.94311 95.186192,439.37895 L 89.045281,443.38085 z " />
    <path
       style="fill:#000000;fill-opacity:1.0000000;fill-rule:nonzero;stroke:none;stroke-width:1.0000000pt;stroke-linecap:butt;stroke-linejoin:miter;stroke-opacity:1.0000000;display:block"
       id="path3338"
       d="M 138.79858,376.96166 C 136.89766,377.28584 129.78198,382.04760 142.16697,374.37027 C 142.78377,373.98791 141.13899,375.28341 140.68944,375.76937 C 137.99192,378.68553 136.79963,382.05541 135.59234,385.26190 C 131.19456,397.17341 128.45042,409.30797 125.90363,421.27015 C 123.52411,432.41379 121.44010,443.54356 119.15696,454.68414 C 118.84463,456.28715 118.53139,457.89018 118.21954,459.49316 L 112.49829,463.28438 C 112.91908,461.61572 113.33164,459.94728 113.73293,458.27841 C 116.25405,447.04518 118.59012,435.79967 120.92777,424.56745 C 123.40873,412.69878 126.08660,400.68290 130.17861,388.84937 C 132.13209,383.33703 135.73161,375.13150 144.85996,372.94507 L 138.79858,376.96166 z " />
    <path
       style="fill:#000000;fill-opacity:1.0000000;fill-rule:nonzero;stroke:none;stroke-width:1.0000000pt;stroke-linecap:butt;stroke-linejoin:miter;stroke-opacity:1.0000000;display:block"
       id="path3353"
       d="M 118.36078,440.09719 C 121.67538,437.48617 131.93197,431.29707 121.80369,437.62395 C 121.25150,437.96889 122.89621,436.91123 123.44353,436.55683 C 126.37346,434.65958 129.26090,432.72974 132.32844,431.15201 C 134.85121,429.98459 138.66380,428.69940 140.32776,430.46069 C 141.45464,435.71982 132.43431,440.35529 129.11426,442.46357 C 125.30323,444.81087 121.29736,446.68696 117.24943,448.32523 C 114.25049,449.37821 109.83880,452.10921 118.40404,446.73828 L 112.70586,449.73216 C 117.02093,446.99632 118.30931,446.14212 122.15355,444.67309 C 126.17487,443.02504 130.10926,441.15838 133.89309,438.81253 C 124.86545,444.57385 135.74460,438.20876 134.89939,433.78542 C 133.12674,432.52848 129.88492,433.66166 127.50231,434.78813 C 122.09864,437.65416 133.83654,430.56184 127.42759,434.67012 C 125.21996,436.08526 118.58872,440.31436 120.79003,438.88729 C 128.64691,433.79382 126.07798,435.38490 124.17622,436.99626 L 118.36078,440.09719 z " />
    <path
       style="fill:#000000;fill-opacity:1.0000000;fill-rule:nonzero;stroke:none;stroke-width:1.0000000pt;stroke-linecap:butt;stroke-linejoin:miter;stroke-opacity:1.0000000;display:block"
       id="path3363"
       d="M 126.60034,443.11012 C 125.47556,447.17106 137.45016,466.65751 139.59659,469.73813 C 150.09619,481.55693 165.68198,484.17462 183.02336,474.32177 L 179.12593,477.27810 C 161.47604,487.17879 145.84799,484.53912 135.30916,472.39862 C 130.03779,464.73506 124.04963,455.48698 120.93517,446.37933 L 126.60034,443.11012 z " />
    <path
       style="fill:#000000;fill-opacity:1.0000000;fill-rule:nonzero;stroke:none;stroke-width:1.0000000pt;stroke-linecap:butt;stroke-linejoin:miter;stroke-opacity:1.0000000;display:block"
       id="path3372"
       d="M 82.417040,437.81543 C 83.696564,433.71152 90.158647,430.80103 93.393141,429.17036 C 97.806721,427.50507 94.483900,441.51164 94.011619,443.44797 C 92.752518,448.44676 91.599733,453.60634 89.976451,458.58271 C 89.530513,459.84021 90.083900,458.26794 89.660191,459.50928 L 84.145672,462.85853 C 84.561972,461.61949 84.028693,463.17785 84.457188,461.93137 C 86.325636,456.90850 87.654362,451.61470 88.910608,446.55264 C 89.365551,444.68262 92.516231,430.95262 88.063441,432.66750 C 86.023398,433.71523 83.273757,435.44884 91.548202,430.34539 C 93.060529,429.41261 88.290786,432.79802 88.069696,434.37393 L 82.417040,437.81543 z " />
    <path
       style="fill:#000000;fill-opacity:1.0000000;fill-rule:nonzero;stroke:none;stroke-width:1.0000000pt;stroke-linecap:butt;stroke-linejoin:miter;stroke-opacity:1.0000000;display:block"
       id="path3374"
       d="M 159.05804,436.59486 C 160.37121,435.43782 165.44416,432.49274 154.89267,439.43525 C 153.06925,440.63503 158.42374,436.47123 159.57612,434.51366 C 156.88110,431.22308 149.85367,432.48713 145.83859,434.65230 C 145.35291,434.97509 143.89587,435.94354 144.38153,435.62069 C 145.41903,434.93092 146.40979,434.08231 147.49415,433.55165 C 149.08844,432.77147 144.71397,436.39453 144.05989,438.13977 C 142.60875,442.01188 145.62713,443.41756 148.35782,443.63149 C 153.03409,443.32445 162.23288,439.45284 159.15458,448.10305 C 154.56464,457.12212 141.69167,463.19784 133.58861,463.56009 L 138.20493,460.26468 C 146.64022,460.16829 151.56202,457.29911 154.62727,451.16926 C 157.42586,442.81417 148.41487,446.51652 143.86959,446.83643 C 132.14748,446.02732 145.28860,434.68572 150.20252,431.46025 C 154.57358,429.11971 161.23427,428.17263 164.41224,431.19439 C 162.70793,434.19236 156.83681,439.01649 154.23908,440.04594 L 159.05804,436.59486 z " />
    <path
       style="fill:#000000;fill-opacity:1.0000000;fill-rule:nonzero;stroke:none;stroke-width:1.0000000pt;stroke-linecap:butt;stroke-linejoin:miter;stroke-opacity:1.0000000;display:block"
       id="path3377"
       d="M 175.35314,437.29583 C 176.44018,433.65619 175.02783,432.05759 171.22612,432.93633 C 170.22064,433.46585 173.11950,431.59582 174.15079,431.14399 C 176.32371,430.19202 171.18084,434.98722 170.34033,437.09597 C 168.05770,442.82272 166.36028,448.91997 165.23873,454.71240 C 164.23789,467.14432 180.28222,451.64589 184.46744,447.88546 C 185.21050,447.20301 185.95353,446.52057 186.69659,445.83811 L 191.41982,443.03348 C 190.64009,443.73802 189.86037,444.44258 189.08064,445.14712 C 184.30632,449.40604 158.51500,472.17799 160.33566,457.68227 C 162.85875,446.65833 164.18596,435.80846 176.33762,429.62167 C 180.37527,428.72748 181.44277,430.30541 180.85905,433.96256 L 175.35314,437.29583 z " />
    <path
       style="fill:#000000;fill-opacity:1.0000000;fill-rule:nonzero;stroke:none;stroke-width:1.0000000pt;stroke-linecap:butt;stroke-linejoin:miter;stroke-opacity:1.0000000;display:block"
       id="path3384"
       d="M 198.10775,433.37857 C 195.22600,432.99911 192.90891,432.25935 189.71465,432.77099 C 188.54461,433.21804 179.03464,436.87362 194.16801,430.64438 C 195.65968,430.03039 191.73339,432.75997 190.89336,434.01071 C 188.78417,437.15104 187.82144,440.54809 187.00800,443.87765 C 186.03871,448.41146 185.31598,452.94674 184.24705,457.48005 C 183.37146,460.66981 188.92426,458.58388 190.86536,457.87406 C 194.16868,456.30522 188.34435,459.07705 186.70049,459.75972 C 185.40019,460.29971 189.05510,458.20744 190.11716,457.31362 C 192.79818,455.05735 194.19775,452.08247 195.50683,449.25808 C 196.71373,446.41795 197.72195,443.56472 199.00416,440.73580 L 205.01097,437.96872 C 203.62095,440.81072 202.60878,443.67320 201.39418,446.54444 C 197.90520,454.34205 193.72719,456.76501 184.90983,460.87810 C 182.86158,461.60591 177.00511,463.72706 178.05368,460.34769 C 179.31461,455.77008 180.18919,451.18555 181.11895,446.60686 C 183.04101,438.46037 185.71534,433.34400 195.71476,429.77230 C 198.94510,429.31280 201.36576,430.17048 204.36287,430.30622 L 198.10775,433.37857 z " />
    <path
       style="fill:#000000;fill-opacity:1.0000000;fill-rule:nonzero;stroke:none;stroke-width:1.0000000pt;stroke-linecap:butt;stroke-linejoin:miter;stroke-opacity:1.0000000;display:block"
       id="path3410"
       d="M 215.04467,441.65003 C 216.31733,437.02985 226.56247,431.84836 230.25497,430.60968 C 235.71393,429.58886 238.84809,430.73911 239.36575,436.20203 C 239.20725,442.26169 235.39002,449.58525 230.67572,454.29219 C 224.92863,459.04363 219.71553,462.50094 213.13644,462.86667 C 212.46900,462.88456 211.80310,462.89635 211.13695,462.90765 L 216.19624,459.12881 C 216.85090,459.12669 217.50427,459.12333 218.16204,459.10648 C 221.32915,458.91442 224.47702,458.17713 227.54219,456.36853 C 227.90192,456.15628 228.93858,455.42802 228.60211,455.68666 C 221.32256,461.28199 224.13131,459.01521 225.60991,457.80768 C 230.51812,453.29123 234.29020,445.75014 234.37894,439.75814 C 233.76038,434.46857 230.70569,433.25445 225.33407,434.33117 C 222.58189,435.28337 217.76364,438.78289 225.27969,433.18938 C 226.18798,432.51341 220.68112,435.71451 220.34922,437.89422 L 215.04467,441.65003 z " />
    <path
       style="fill:#000000;fill-opacity:1.0000000;fill-rule:nonzero;stroke:none;stroke-width:1.0000000pt;stroke-linecap:butt;stroke-linejoin:miter;stroke-opacity:1.0000000;display:block"
       id="path3411"
       d="M 201.10701,431.78516 C 202.85206,430.70649 205.46507,429.57856 207.23919,428.54919 C 208.33683,427.91235 206.62480,430.71497 206.36003,431.79893 C 205.58959,434.95322 204.94859,438.11063 204.13221,441.26371 C 203.06620,445.14921 202.44117,448.96182 201.61082,452.84196 C 201.01688,455.55883 200.25466,458.23935 203.65762,458.70153 C 209.40918,457.20220 206.80717,457.34554 212.35846,453.37288 L 216.76096,450.66871 C 211.33926,454.56547 205.18630,460.34616 198.68467,462.00028 C 195.19107,461.50119 195.03992,458.82834 195.66617,456.01585 C 196.50076,452.09441 197.25931,448.23604 198.37855,444.31410 C 200.47073,436.55385 199.20311,433.62999 207.25808,428.48236 L 201.10701,431.78516 z "
       sodipodi:nodetypes="ccccccccccccc" />
    <path
       style="fill:#000000;fill-opacity:1.0000000;fill-rule:nonzero;stroke:none;stroke-width:1.0000000pt;stroke-linecap:butt;stroke-linejoin:miter;stroke-opacity:1.0000000;display:block"
       id="path3413"
       d="M 237.31042,448.92813 C 237.59975,447.93265 256.95120,436.75743 246.93580,443.48242 C 250.74176,440.44442 252.07579,437.67087 249.88657,434.29547 C 249.22647,433.46555 245.43794,434.31119 246.51490,433.56578 C 254.17826,428.26154 247.33818,434.79726 245.39986,439.05795 C 242.87549,445.09775 238.62834,456.70706 246.07216,459.16288 C 251.33198,459.58965 256.71579,456.83424 261.60008,454.06166 L 257.16179,457.22422 C 252.18011,460.02684 246.64567,462.85024 241.28888,462.43952 C 233.85832,459.93383 238.27006,448.15433 240.75375,442.09872 C 242.47222,438.16292 250.65878,425.14084 254.88166,430.94464 C 257.04599,434.43553 255.81181,437.14395 251.89647,440.29704 C 248.78168,442.41823 245.78058,444.69041 242.43266,446.37404 C 240.95792,447.11569 236.59354,449.41532 237.95856,448.46544 C 258.48588,434.18107 242.67245,444.44006 242.54346,445.48367 L 237.31042,448.92813 z " />
    <path
       style="fill:#000000;fill-opacity:1.0000000;fill-rule:nonzero;stroke:none;stroke-width:1.0000000pt;stroke-linecap:butt;stroke-linejoin:miter;stroke-opacity:1.0000000;display:block"
       id="path3416"
       d="M 238.04790,448.90639 C 246.61688,442.20953 255.78114,438.93467 265.23003,440.96888 C 276.24918,443.57003 283.50195,441.33346 294.45154,434.41310 L 290.89423,436.95357 C 279.55870,444.14424 272.21840,446.57332 260.74626,444.05541 C 255.18373,442.96236 250.43975,443.17143 244.54621,445.65676 C 242.75133,446.41365 237.65618,449.39126 239.26982,448.25040 C 248.38207,441.80801 244.73949,444.35209 243.33012,445.50538 L 238.04790,448.90639 z " />
    <path
       style="fill:#000000;fill-opacity:1.0000000;fill-rule:nonzero;stroke:none;stroke-width:1.0000000pt;stroke-linecap:butt;stroke-linejoin:miter;stroke-opacity:1.0000000;display:block"
       id="path3422"
       d="M 85.023065,384.91363 C 87.201308,383.09357 89.372142,381.25493 91.557878,379.45344 C 91.906506,379.16608 91.068469,380.30421 90.894061,380.75678 C 89.998911,383.07976 89.514141,385.50218 89.100570,387.85059 C 88.429322,391.66225 87.882946,395.43739 87.112603,399.25806 C 84.310676,413.77637 81.901645,428.33415 78.281623,442.87297 C 77.295647,446.77504 75.754668,451.35316 75.398716,455.15491 C 76.200460,458.18438 76.921307,457.39657 80.076143,455.47623 L 74.232203,460.65873 C 70.836399,462.76309 69.847044,463.83516 68.867239,460.62288 C 69.381333,456.56206 71.315585,451.82179 72.457434,447.67514 C 76.371173,433.04260 79.547084,418.20135 81.842474,403.61532 C 83.755484,389.40433 80.839937,388.29306 91.540855,379.25315 L 85.023065,384.91363 z " />
    <path
       style="fill:#000000;fill-opacity:1.0000000;fill-rule:nonzero;stroke:none;stroke-width:1.0000000pt;stroke-linecap:butt;stroke-linejoin:miter;stroke-opacity:1.0000000;display:block"
       id="path3426"
       d="M 111.38211,368.18381 C 99.402799,379.51569 88.765544,384.06819 74.148431,384.02784 C 54.656183,383.08087 32.950533,380.22474 22.994978,401.88734 L 16.873169,405.98991 C 30.232252,378.38484 58.381051,378.66930 80.611899,379.43041 C 98.160344,379.15519 96.774231,380.01335 103.22070,373.60137 L 111.38211,368.18381 z " />
    <path
       style="fill:#000000;fill-opacity:1.0000000;fill-rule:nonzero;stroke:none;stroke-width:1.0000000pt;stroke-linecap:butt;stroke-linejoin:miter;stroke-opacity:1.0000000;display:block"
       id="path3433"
       d="M 207.50740,437.58399 C 211.51245,433.38669 220.26318,424.91309 221.07444,432.78108 C 221.02207,445.06297 215.08990,459.11424 211.98299,471.54866 C 207.56200,489.64634 203.67219,507.74735 194.64824,525.30529 C 183.89466,543.73963 161.83617,557.39324 143.09820,552.62646 C 137.22217,549.51969 133.10541,545.46966 131.07691,538.91432 C 124.17483,516.60965 149.82642,501.71635 170.40930,498.23585 C 172.03783,498.12151 173.66638,498.00716 175.29491,497.89283 L 170.37738,501.39893 C 168.81908,501.46862 167.26080,501.53831 165.70251,501.60800 C 160.66715,502.37958 152.38927,503.37794 147.79610,506.11152 C 126.21907,518.95286 133.14695,541.97090 148.09869,549.10681 C 166.97502,553.51471 179.60963,545.38570 189.63185,528.66295 C 198.91286,511.15424 202.69413,492.95571 207.08432,474.84980 C 210.07546,462.80372 215.55102,448.79388 214.87223,437.00134 C 214.65771,435.87137 214.46935,434.61571 213.38161,434.08044 C 212.88553,433.83630 210.99997,434.63956 211.54249,434.23909 C 222.36143,426.25292 216.36296,430.55821 214.29530,433.07816 L 207.50740,437.58399 z " />
  </g>
</svg>
