<?xml version="1.0" encoding="UTF-8" standalone="no"?>
<!-- Created with Inkscape (http://www.inkscape.org/) -->
<svg
   xmlns:dc="http://purl.org/dc/elements/1.1/"
   xmlns:cc="http://web.resource.org/cc/"
   xmlns:rdf="http://www.w3.org/1999/02/22-rdf-syntax-ns#"
   xmlns:svg="http://www.w3.org/2000/svg"
   xmlns="http://www.w3.org/2000/svg"
   xmlns:xlink="http://www.w3.org/1999/xlink"
   xmlns:sodipodi="http://sodipodi.sourceforge.net/DTD/sodipodi-0.dtd"
   xmlns:inkscape="http://www.inkscape.org/namespaces/inkscape"
   sodipodi:docname="calligraphy-f11.svg"
   sodipodi:docbase="C:\sandbox\inkscape\doc-docbook\calligraphy"
   inkscape:version="0.43+devel"
   sodipodi:version="0.32"
   id="svg2265"
   height="1052.3622047"
   width="744.09448819">
  <defs
     id="defs3" />
  <sodipodi:namedview
     inkscape:window-y="21"
     inkscape:window-x="4"
     inkscape:window-height="598"
     inkscape:window-width="853"
     inkscape:current-layer="layer1"
     inkscape:document-units="px"
     inkscape:cy="977.76694"
     inkscape:cx="168.11916"
     inkscape:zoom="2"
     inkscape:pageshadow="2"
     inkscape:pageopacity="0.0"
     borderopacity="1.0"
     bordercolor="#666666"
     pagecolor="#ffffff"
     id="base" />
  <metadata
     id="metadata4">
    <rdf:RDF>
      <cc:Work
         rdf:about="">
        <dc:format>image/svg+xml</dc:format>
        <dc:type
           rdf:resource="http://purl.org/dc/dcmitype/StillImage" />
      </cc:Work>
    </rdf:RDF>
  </metadata>
  <g
     id="layer1"
     inkscape:groupmode="layer"
     inkscape:label="Layer 1">
    <g
       id="g3123"
       transform="translate(0,30)"
       sodipodi:insensitive="true">
      <text
         id="text3115"
         y="12.058847"
         x="0.87408441"
         style="font-size:6px;font-style:normal;font-weight:normal;fill:black;fill-opacity:1;stroke:none;stroke-width:1pt;stroke-linecap:butt;stroke-linejoin:miter;stroke-opacity:1;display:block;font-family:sans-serif"
         xml:space="preserve"><tspan
           y="12.058847"
           x="0.87408441"
           id="tspan3117"
           sodipodi:role="line">slow</tspan></text>
      <text
         id="text3119"
         y="21.308847"
         x="0.87408441"
         style="font-size:6px;font-style:normal;font-weight:normal;fill:black;fill-opacity:1;stroke:none;stroke-width:1pt;stroke-linecap:butt;stroke-linejoin:miter;stroke-opacity:1;display:block;font-family:sans-serif"
         xml:space="preserve"><tspan
           y="21.308847"
           x="0.87408441"
           id="tspan3121"
           sodipodi:role="line">medium</tspan></text>
      <text
         xml:space="preserve"
         style="font-size:6px;font-style:normal;font-weight:normal;fill:black;fill-opacity:1;stroke:none;stroke-width:1pt;stroke-linecap:butt;stroke-linejoin:miter;stroke-opacity:1;display:block;font-family:sans-serif"
         x="0.87408441"
         y="30.558847"
         id="text1987"><tspan
           sodipodi:role="line"
           id="tspan1988"
           x="0.87408441"
           y="30.558847">fast</tspan></text>
    </g>
    <use
       x="0"
       y="0"
       xlink:href="#g3123"
       id="use3165"
       transform="translate(158,186)"
       width="744.09448"
       height="1052.3622" />
    <use
       x="0"
       y="0"
       xlink:href="#g3123"
       id="use3163"
       transform="translate(0,186)"
       width="744.09448"
       height="1052.3622" />
    <use
       x="0"
       y="0"
       xlink:href="#g3123"
       id="use3161"
       transform="translate(158,139.5)"
       width="744.09448"
       height="1052.3622" />
    <use
       x="0"
       y="0"
       xlink:href="#g3123"
       id="use3159"
       transform="translate(0,139.5)"
       width="744.09448"
       height="1052.3622" />
    <use
       x="0"
       y="0"
       xlink:href="#g3123"
       id="use3157"
       transform="translate(158,93)"
       width="744.09448"
       height="1052.3622" />
    <use
       x="0"
       y="0"
       xlink:href="#g3123"
       id="use3155"
       transform="translate(0,93)"
       width="744.09448"
       height="1052.3622" />
    <use
       x="0"
       y="0"
       xlink:href="#g3123"
       id="use3153"
       transform="translate(158,46.5)"
       width="744.09448"
       height="1052.3622" />
    <use
       x="0"
       y="0"
       xlink:href="#g3123"
       id="use3151"
       transform="translate(0,46.5)"
       width="744.09448"
       height="1052.3622" />
    <use
       x="0"
       y="0"
       xlink:href="#g3123"
       id="use3149"
       transform="translate(158,0)"
       width="744.09448"
       height="1052.3622" />
    <text
       id="text3177"
       y="5.0588455"
       x="132.37408"
       style="font-size:6px;font-style:normal;font-weight:normal;fill:black;fill-opacity:1;stroke:none;stroke-width:1pt;stroke-linecap:butt;stroke-linejoin:miter;stroke-opacity:1;display:block;font-family:sans-serif"
       xml:space="preserve"
       sodipodi:insensitive="true"><tspan
         y="5.0588455"
         x="132.37408"
         id="tspan3179"
         sodipodi:role="line">tremor = 0</tspan></text>
    <text
       xml:space="preserve"
       style="font-size:6px;font-style:normal;font-weight:normal;fill:black;fill-opacity:1;stroke:none;stroke-width:1pt;stroke-linecap:butt;stroke-linejoin:miter;stroke-opacity:1;display:block;font-family:sans-serif"
       x="62.374077"
       y="35.058846"
       id="text3111"
       sodipodi:insensitive="true"><tspan
         sodipodi:role="line"
         id="tspan3113"
         x="62.374077"
         y="35.058846">tremor = 10</tspan></text>
    <text
       id="text1990"
       y="80.021095"
       x="62.337463"
       style="font-size:6px;font-style:normal;font-weight:normal;fill:black;fill-opacity:1;stroke:none;stroke-width:1pt;stroke-linecap:butt;stroke-linejoin:miter;stroke-opacity:1;display:block;font-family:sans-serif"
       xml:space="preserve"
       sodipodi:insensitive="true"><tspan
         y="80.021095"
         x="62.337463"
         id="tspan1991"
         sodipodi:role="line">tremor = 30</tspan></text>
    <text
       xml:space="preserve"
       style="font-size:6px;font-style:normal;font-weight:normal;fill:black;fill-opacity:1;stroke:none;stroke-width:1pt;stroke-linecap:butt;stroke-linejoin:miter;stroke-opacity:1;display:block;font-family:sans-serif"
       x="62.359436"
       y="125.48337"
       id="text2991"
       sodipodi:insensitive="true"><tspan
         sodipodi:role="line"
         id="tspan2993"
         x="62.359436"
         y="125.48337">tremor = 50</tspan></text>
    <text
       xml:space="preserve"
       style="font-size:6px;font-style:normal;font-weight:normal;fill:black;fill-opacity:1;stroke:none;stroke-width:1pt;stroke-linecap:butt;stroke-linejoin:miter;stroke-opacity:1;display:block;font-family:sans-serif"
       x="62.353577"
       y="170.94562"
       id="text2995"
       sodipodi:insensitive="true"><tspan
         sodipodi:role="line"
         id="tspan2997"
         x="62.353577"
         y="170.94562">tremor = 70</tspan></text>
    <text
       id="text1993"
       y="216.40787"
       x="62.308167"
       style="font-size:6px;font-style:normal;font-weight:normal;fill:black;fill-opacity:1;stroke:none;stroke-width:1pt;stroke-linecap:butt;stroke-linejoin:miter;stroke-opacity:1;display:block;font-family:sans-serif"
       xml:space="preserve"
       sodipodi:insensitive="true"><tspan
         y="216.40787"
         x="62.308167"
         id="tspan1994"
         sodipodi:role="line">tremor = 90</tspan></text>
    <text
       id="text1996"
       y="34.558846"
       x="212.52852"
       style="font-size:6px;font-style:normal;font-weight:normal;fill:black;fill-opacity:1;stroke:none;stroke-width:1pt;stroke-linecap:butt;stroke-linejoin:miter;stroke-opacity:1;display:block;font-family:sans-serif"
       xml:space="preserve"
       sodipodi:insensitive="true"><tspan
         y="34.558846"
         x="212.52852"
         id="tspan1997"
         sodipodi:role="line">tremor = 20</tspan></text>
    <text
       xml:space="preserve"
       style="font-size:6px;font-style:normal;font-weight:normal;fill:black;fill-opacity:1;stroke:none;stroke-width:1pt;stroke-linecap:butt;stroke-linejoin:miter;stroke-opacity:1;display:block;font-family:sans-serif"
       x="212.39668"
       y="80.021095"
       id="text2999"
       sodipodi:insensitive="true"><tspan
         sodipodi:role="line"
         id="tspan3001"
         x="212.39668"
         y="80.021095">tremor = 40</tspan></text>
    <text
       xml:space="preserve"
       style="font-size:6px;font-style:normal;font-weight:normal;fill:black;fill-opacity:1;stroke:none;stroke-width:1pt;stroke-linecap:butt;stroke-linejoin:miter;stroke-opacity:1;display:block;font-family:sans-serif"
       x="212.41719"
       y="125.48337"
       id="text3003"
       sodipodi:insensitive="true"><tspan
         sodipodi:role="line"
         id="tspan3005"
         x="212.41719"
         y="125.48337">tremor = 60</tspan></text>
    <text
       xml:space="preserve"
       style="font-size:6px;font-style:normal;font-weight:normal;fill:black;fill-opacity:1;stroke:none;stroke-width:1pt;stroke-linecap:butt;stroke-linejoin:miter;stroke-opacity:1;display:block;font-family:sans-serif"
       x="212.4333"
       y="170.94562"
       id="text3007"
       sodipodi:insensitive="true"><tspan
         sodipodi:role="line"
         id="tspan3009"
         x="212.4333"
         y="170.94562">tremor = 80</tspan></text>
    <text
       id="text1999"
       y="216.40787"
       x="212.42744"
       style="font-size:6px;font-style:normal;font-weight:normal;fill:black;fill-opacity:1;stroke:none;stroke-width:1pt;stroke-linecap:butt;stroke-linejoin:miter;stroke-opacity:1;display:block;font-family:sans-serif"
       xml:space="preserve"
       sodipodi:insensitive="true"><tspan
         y="216.40787"
         x="212.42744"
         id="tspan2000"
         sodipodi:role="line">tremor = 100</tspan></text>
    <path
       style="opacity:1;color:black;fill:black;fill-opacity:1;fill-rule:nonzero;stroke:none;stroke-width:0.001;stroke-linecap:butt;stroke-linejoin:miter;marker:none;marker-start:none;marker-mid:none;marker-end:none;stroke-miterlimit:4;stroke-dasharray:none;stroke-dashoffset:0;stroke-opacity:1;visibility:visible;display:inline;overflow:visible"
       id="path2977"
       d="M 194.80229,36.948067 C 196.08596,36.346802 195.32053,37.067677 196.24771,37.281672 C 198.77427,35.733143 198.06282,37.334507 200.51716,36.644527 C 201.80378,36.291657 202.83588,36.607021 203.57404,37.14276 C 205.37468,36.689514 206.4359,37.015615 209.37762,38.240199 C 211.56334,37.604751 213.53629,37.947004 215.89025,37.739692 C 216.36288,38.353859 218.6156,38.238729 219.57293,38.304681 C 221.71715,37.818374 223.83629,37.518145 225.96708,37.357868 C 226.05719,38.262488 228.62022,37.786102 229.12816,37.728719 C 230.10054,37.53045 231.1198,37.848346 232.08428,38.08204 C 235.30837,37.166313 233.44847,38.46341 236.45185,37.34564 C 235.05389,38.761528 238.5397,37.840137 239.23813,37.817392 C 241.03212,37.299106 241.62451,37.230495 242.8811,37.714365 C 244.85767,37.468589 246.42324,37.909968 247.88843,38.560068 C 250.19968,37.707023 252.40866,37.516646 254.78477,37.47625 C 257.76249,37.736899 258.86781,37.849673 262.20662,37.153865 C 265.16466,36.117949 264.74066,37.568709 267.63901,36.47669 C 268.18364,37.475402 271.02555,36.685826 272.47073,36.110968 C 273.06751,36.337491 274.38914,36.956642 274.75629,37.061773 C 276.84089,36.938438 276.84828,36.974978 279.42325,36.210992 C 279.00361,36.646387 278.37122,36.948968 278.16432,37.517179 C 277.7208,38.735231 280.71415,37.041868 281.99915,36.871182 C 285.71588,35.40883 284.07713,37.363837 286.01803,36.473233 C 287.04521,37.079157 288.50174,36.716966 289.80873,36.505132 L 283.04756,41.417412 C 282.07271,41.594964 280.37337,42.053416 279.63586,41.110154 C 278.14052,41.245619 278.21065,40.341078 275.88323,41.31467 C 275.49268,41.31215 273.40941,41.494054 273.5737,40.460896 C 271.60602,41.420973 270.81114,40.40152 268.65513,41.493598 C 267.74284,41.289621 266.85411,40.928781 265.92125,40.868498 C 264.39018,41.070198 262.68428,41.365521 261.2116,41.187814 C 259.82338,41.42857 258.38822,40.890456 256.73934,41.248278 C 253.7861,42.615279 251.35545,41.396551 248.12148,42.317413 C 246.26469,42.013058 244.50461,41.920373 242.66929,42.351991 C 239.97852,41.977834 239.0806,41.779433 236.76624,42.157073 C 235.7074,42.353095 232.37574,43.19357 234.29956,41.405475 C 232.23648,42.015765 231.66397,41.366635 229.1409,42.657355 C 228.75593,42.499202 227.98218,41.513903 226.31075,42.276753 C 225.57416,42.056898 224.06028,42.157957 223.35384,41.923997 C 222.06414,42.041312 220.41967,42.600063 219.22981,42.252923 C 218.44961,42.391739 215.90859,42.265402 214.17541,42.226956 C 212.78674,41.925319 211.26028,42.101831 209.42632,42.432252 C 207.64345,42.081809 205.09811,42.987012 204.11796,42.021193 C 201.53717,41.863188 199.68192,40.708713 197.11911,41.68219 C 196.21913,41.381945 195.26812,41.048086 194.32424,41.143946 C 193.7555,41.252899 190.77697,41.641223 191.77188,40.53355 C 188.70517,41.462663 191.04683,40.344036 188.6669,41.40569 L 194.80229,36.948067 z " />
    <path
       style="opacity:1;color:black;fill:black;fill-opacity:1;fill-rule:nonzero;stroke:none;stroke-width:0.001;stroke-linecap:butt;stroke-linejoin:miter;marker:none;marker-start:none;marker-mid:none;marker-end:none;stroke-miterlimit:4;stroke-dasharray:none;stroke-dashoffset:0;stroke-opacity:1;visibility:visible;display:inline;overflow:visible"
       id="path2979"
       d="M 191.4414,45.784587 C 192.28612,45.31058 192.79353,45.27091 194.67561,45.071431 C 197.15425,45.232942 201.35021,45.583492 204.74392,46.814496 C 217.54598,46.035998 230.52327,48.348088 242.95575,46.647551 C 253.07628,47.763849 263.01457,48.056664 273.4106,47.123833 C 276.40227,46.545361 279.03649,47.205453 281.94223,46.862012 C 283.75146,46.254843 285.9232,47.38714 286.67061,47.636568 C 287.24978,47.451432 287.82896,47.266295 288.40814,47.081158 L 282.41756,51.433737 C 282.211,51.348161 282.00443,51.262586 281.79787,51.17701 C 279.86216,51.217123 277.82105,51.031592 276.01773,51.167216 C 273.41599,51.334283 270.71225,51.072671 267.99382,51.055461 C 257.87266,49.803009 247.93204,51.897486 237.72898,50.433311 C 225.13471,51.174474 212.91727,49.932134 200.39371,49.948785 C 196.37423,49.506991 191.87711,50.382676 188.58895,49.493645 C 187.33672,49.353063 186.92138,49.25368 185.5157,50.089866 L 191.4414,45.784587 z " />
    <path
       style="opacity:1;color:black;fill:black;fill-opacity:1;fill-rule:nonzero;stroke:none;stroke-width:0.001;stroke-linecap:butt;stroke-linejoin:miter;marker:none;marker-start:none;marker-mid:none;marker-end:none;stroke-miterlimit:4;stroke-dasharray:none;stroke-dashoffset:0;stroke-opacity:1;visibility:visible;display:inline;overflow:visible"
       id="path2981"
       d="M 192.55359,54.078063 C 191.22262,54.70175 196.4733,54.949394 197.41479,54.937449 C 208.00283,55.526412 218.05024,56.898462 228.48564,56.683549 C 239.04005,57.102991 250.07029,54.807822 260.50339,56.235409 C 266.12023,55.665342 271.779,56.700262 277.19726,56.677201 C 279.45894,56.183706 280.4078,57.269536 283.07482,56.446473 C 284.92451,56.557686 286.78132,56.511584 288.63224,56.544662 L 283.24046,60.462465 C 280.40364,60.969382 278.73921,60.859237 276.53916,61.191468 C 275.07487,61.226629 273.50252,61.00603 272.24654,60.252444 C 266.62889,60.166176 261.01452,61.251482 255.45056,59.906009 C 244.68464,60.735557 234.41521,59.289687 223.55002,60.258371 C 213.05114,60.132659 202.69436,59.156934 192.39944,58.515831 C 191.5083,58.622613 185.35783,60.294157 186.55314,58.437644 L 192.55359,54.078063 z " />
    <path
       style="opacity:1;color:black;fill:black;fill-opacity:1;fill-rule:nonzero;stroke:none;stroke-width:0.001;stroke-linecap:butt;stroke-linejoin:miter;marker:none;marker-start:none;marker-mid:none;marker-end:none;stroke-miterlimit:4;stroke-dasharray:none;stroke-dashoffset:0;stroke-opacity:1;visibility:visible;display:inline;overflow:visible"
       id="path2985"
       d="M 35.079725,38.402711 C 35.966299,38.04494 36.997125,38.231482 37.833573,38.126341 C 40.440825,38.3819 42.77646,38.393628 45.405764,38.538106 C 48.63139,38.76694 51.761748,38.769074 54.994761,38.804929 C 57.034786,39.554062 59.183784,39.32508 61.399294,39.287926 C 63.882689,39.348482 66.421155,39.315788 68.883281,39.23388 C 70.662279,39.372529 72.408179,39.419173 74.177826,39.283791 C 75.8872,38.989215 77.484583,39.416283 79.149528,39.613494 C 80.64033,39.180005 81.965723,39.77492 83.324431,39.944633 C 84.558225,39.480604 85.866676,39.763609 87.08127,39.809254 C 88.809632,39.428482 88.803351,40.141668 90.673796,39.720979 C 91.94383,39.695771 93.131084,39.91812 94.57049,39.729562 C 96.101075,39.459966 97.361885,39.864201 98.89775,39.635254 C 100.06654,39.736133 100.80625,40.050908 101.86862,40.211939 C 103.49178,39.667933 103.58567,40.459841 104.95578,40.703077 C 106.25292,40.792148 107.5893,40.607806 108.87687,40.568985 C 109.9381,40.814079 110.73035,40.818508 111.90383,40.87731 C 113.3695,40.872709 114.6714,40.68139 116.07843,40.76142 C 117.32757,40.914368 118.29243,40.960418 119.51111,40.79356 C 120.94423,40.710332 122.27772,40.783001 123.75172,40.682732 C 124.86746,40.769211 126.53958,40.808714 127.63333,40.891234 C 129.07463,40.885638 130.51397,40.753333 131.92627,40.670453 C 132.25577,40.979971 134.39202,40.730681 135.41807,40.61418 C 136.47493,40.899947 137.64203,40.794828 138.75296,40.68392 C 139.55319,40.981395 139.85339,40.711096 140.70648,40.732164 L 134.8875,44.959896 C 133.90171,45.050427 133.75694,45.499705 133.04598,44.830284 C 131.39066,45.282416 130.86824,44.783151 129.10013,45.204434 C 128.23424,45.115433 126.94139,45.141785 126.06256,44.930692 C 124.51439,45.271121 123.34387,45.251753 121.80595,45.125074 C 120.37854,45.186782 119.09544,44.872121 117.63668,45.125567 C 116.1426,45.248967 114.82585,44.873172 113.40431,45.230425 C 112.39988,45.199199 111.16985,44.882174 110.02979,45.156387 C 108.98991,45.146845 107.53861,45.020123 106.30404,44.94636 C 105.03293,44.994453 103.82848,45.14193 102.57626,45.121937 C 101.46455,44.934905 100.47935,45.020788 99.471659,44.562322 C 98.046806,44.644535 97.129456,44.439164 95.813795,44.522832 C 94.109152,44.43895 93.883087,43.909401 92.793485,44.070258 C 91.621221,44.01725 89.969281,43.901887 88.626445,44.048167 C 87.326414,44.087201 86.133921,44.055281 84.708556,44.055295 C 83.490472,44.205233 82.48321,44.158226 81.251106,44.04603 C 80.109505,43.96893 78.986616,44.231169 77.824598,43.928595 C 75.996355,44.200958 75.028393,43.904718 73.192042,43.855363 C 71.598706,43.784925 70.066703,43.467449 68.467847,43.43255 C 66.505301,43.619072 64.651487,43.765982 62.705894,43.722696 C 60.409552,43.558937 58.141886,43.474219 55.845783,43.315765 C 53.575769,43.783774 51.199601,43.269634 48.895983,43.167858 C 45.960584,43.198577 42.877025,42.873287 39.934598,42.469229 C 37.181267,42.263909 34.343096,42.928278 31.800843,42.509376 C 30.81554,42.699086 29.844384,42.784011 29.390858,42.535915 L 35.079725,38.402711 z " />
    <path
       style="opacity:1;color:black;fill:black;fill-opacity:1;fill-rule:nonzero;stroke:none;stroke-width:0.001;stroke-linecap:butt;stroke-linejoin:miter;marker:none;marker-start:none;marker-mid:none;marker-end:none;stroke-miterlimit:4;stroke-dasharray:none;stroke-dashoffset:0;stroke-opacity:1;visibility:visible;display:inline;overflow:visible"
       id="path2987"
       d="M 33.526467,48.164907 C 34.354756,48.452117 35.454816,48.056977 36.440334,48.059637 C 40.096524,48.073253 43.749823,48.872396 47.438411,48.81286 C 52.359828,49.505795 57.312486,48.536892 62.239296,48.87048 C 66.486169,49.340494 70.50662,49.3578 74.813613,49.016896 C 79.641804,50.012277 84.614277,49.034233 89.606464,49.607911 C 94.48814,50.075076 99.178345,47.89462 104.02209,48.747618 C 107.95575,47.847805 112.02063,48.727703 115.89269,48.141541 C 119.92457,48.849584 124.00025,48.688858 128.04953,49.349625 C 130.81518,49.285773 133.39371,49.642791 136.10326,49.18906 C 137.22555,49.139906 139.01826,49.636034 139.64335,49.659424 C 141.05255,48.834811 141.99994,49.416803 142.79992,49.476269 L 137.3228,53.456124 C 136.20071,53.581365 135.03573,53.90047 133.91731,53.821118 C 132.65142,53.832241 131.31272,53.721781 129.89355,53.688047 C 127.59079,53.460472 124.99335,53.655348 122.52126,53.32116 C 118.36031,52.615857 114.22061,52.952096 110.03804,52.367135 C 106.26504,52.923001 102.57695,52.487465 98.824287,52.559063 C 93.876539,53.423435 88.679531,53.100337 83.686624,53.907014 C 78.810685,52.954196 73.919949,53.724499 69.038442,53.188037 C 64.823183,53.732311 60.579212,53.061602 56.322307,53.163185 C 51.557844,53.340924 46.719909,52.629449 41.894021,52.812312 C 38.181099,52.241874 33.989279,53.164866 30.596819,52.3052 C 29.608653,52.428631 28.258901,52.730231 27.362994,52.642933 L 33.526467,48.164907 z " />
    <path
       style="opacity:1;color:black;fill:black;fill-opacity:1;fill-rule:nonzero;stroke:none;stroke-width:0.001;stroke-linecap:butt;stroke-linejoin:miter;marker:none;marker-start:none;marker-mid:none;marker-end:none;stroke-miterlimit:4;stroke-dasharray:none;stroke-dashoffset:0;stroke-opacity:1;visibility:visible;display:inline;overflow:visible"
       id="path2989"
       d="M 26.42579,62.007385 C 28.189037,60.125671 32.288213,56.946408 35.6828,57.685734 C 42.935396,58.310818 50.278924,57.885144 57.594817,57.721402 C 72.206995,57.922399 86.921601,56.112143 101.47657,57.58121 C 113.23164,57.363685 125.08245,57.961074 136.78771,58.833886 C 141.04202,58.663049 139.08921,58.673935 142.64548,58.739631 L 136.53163,63.145065 C 133.54368,62.573378 135.2412,62.7873 131.4185,62.695476 C 120.11998,61.971868 108.82873,61.200737 97.523985,60.440289 C 82.66854,60.055989 67.826038,60.535701 52.985907,61.09695 C 45.227478,61.088326 37.493622,62.190987 29.747988,61.985549 L 26.42579,62.007385 z "
       sodipodi:nodetypes="cccccccccccc" />
    <path
       style="opacity:1;color:black;fill:black;fill-opacity:1;fill-rule:nonzero;stroke:none;stroke-width:0.001;stroke-linecap:butt;stroke-linejoin:miter;marker:none;marker-start:none;marker-mid:none;marker-end:none;stroke-miterlimit:4;stroke-dasharray:none;stroke-dashoffset:0;stroke-opacity:1;visibility:visible;display:inline;overflow:visible"
       id="path3011"
       d="M 33.460612,83.415223 C 32.150947,85.899306 39.071114,79.605329 35.773817,83.162238 C 34.483129,84.825486 39.680662,82.684483 40.010417,82.530283 C 39.717403,84.122376 44.101798,82.984988 45.70705,83.41513 C 47.294124,83.78093 50.211117,83.957212 52.034154,83.468982 C 52.697103,84.222232 55.300085,83.951218 56.614721,83.76512 C 59.635555,83.195208 58.131965,84.823265 61.101115,84.327375 C 62.826266,83.755048 63.929446,84.405426 64.52576,84.487467 C 70.535863,82.035088 62.033215,86.188613 67.826292,84.607515 C 69.515068,83.756477 70.839185,84.176485 72.412416,83.805251 C 71.697056,85.423375 75.385545,83.834038 76.935028,83.533245 C 76.663505,84.542429 78.954689,84.340008 79.993271,84.223714 C 86.652261,81.527209 78.772194,84.6701 82.860232,84.695986 C 84.650675,83.650834 85.539539,84.344618 87.222171,84.054818 C 85.437599,85.75034 90.2048,84.263404 91.414416,84.21076 C 92.51223,84.283332 93.601325,84.599619 94.699425,84.531512 C 99.08114,83.004029 96.178512,86.310534 100.59633,84.315268 C 102.43444,84.235466 102.7586,84.76816 104.57806,84.816812 C 110.84052,82.891514 104.96146,86.97638 109.85769,84.360566 C 110.52853,84.446304 110.91129,85.280033 112.3147,85.308125 C 115.09313,84.006701 114.68678,84.979402 116.00175,85.069649 C 119.37726,83.606911 115.93936,84.993987 119.07869,85.326835 C 121.59773,85.117943 119.34931,84.380667 123.81317,84.695443 C 127.35256,83.865732 124.44333,85.671858 129.75115,84.099239 C 130.77421,84.01876 132.09919,85.091308 132.97713,85.635322 C 138.20318,83.080029 134.71519,86.052713 139.28145,84.082752 C 139.47147,85.798691 139.17807,85.284522 142.03565,84.634478 L 136.80398,88.435511 C 135.83806,88.933998 131.59868,89.71248 132.91922,88.70518 C 131.27442,89.082949 130.16372,89.284369 129.13955,88.423488 C 125.70523,90.162196 126.22181,87.699165 122.3411,89.482953 C 120.93662,89.367858 119.57013,88.953159 118.16978,88.795604 C 113.79554,90.507155 116.0776,88.258906 114.37923,88.741191 C 113.09362,89.00547 111.96872,88.492662 110.45042,89.102923 C 109.60272,89.361539 107.36762,89.296731 107.84915,88.552681 C 104.1875,89.980563 105.7985,88.592062 102.80318,89.486845 C 104.53194,87.394805 100.0876,90.198163 98.727636,89.05878 C 98.113192,88.990503 95.255647,89.418951 94.53084,88.663269 C 92.70258,88.988548 87.606303,90.761012 89.803875,88.088338 C 86.11008,89.738805 89.364948,87.388973 85.441634,88.55024 C 84.784458,88.644281 81.501056,89.109775 81.222751,88.413652 C 78.913605,88.886814 78.660301,88.42328 77.442262,88.632372 C 76.303796,88.743381 73.268115,89.439515 74.011235,88.569917 C 72.579233,88.615823 71.863564,88.534893 69.784447,88.728444 C 68.79417,88.715695 67.682793,87.888591 65.445862,88.866755 C 64.419702,89.071592 63.36175,88.671518 62.317129,88.610443 C 60.926136,88.559606 59.973104,88.84885 58.54211,88.835801 C 54.645953,90.15965 59.980498,86.742769 54.653757,88.998956 C 53.992505,88.883838 51.367829,88.769393 51.592812,87.343983 C 49.146438,88.163195 47.401955,87.377698 45.932746,87.882747 C 43.584667,87.776928 42.393922,88.470991 39.960687,87.536888 C 38.03145,87.840952 33.977318,88.047814 33.329875,87.383981 C 32.917898,87.486721 31.036894,87.805417 29.981547,87.370568 C 26.021212,88.25457 33.476017,84.587067 27.086132,88.046554 L 33.460612,83.415223 z " />
    <path
       style="opacity:1;color:black;fill:black;fill-opacity:1;fill-rule:nonzero;stroke:none;stroke-width:0.001;stroke-linecap:butt;stroke-linejoin:miter;marker:none;marker-start:none;marker-mid:none;marker-end:none;stroke-miterlimit:4;stroke-dasharray:none;stroke-dashoffset:0;stroke-opacity:1;visibility:visible;display:inline;overflow:visible"
       id="path3021"
       d="M 33.457953,94.023757 C 36.39147,92.205162 35.229527,93.326432 39.404732,94.106578 C 47.928679,93.957472 56.567501,94.472014 65.388911,93.535802 C 69.962139,95.06271 74.546353,94.092539 79.187318,94.067674 C 82.354836,93.971817 85.264286,94.206703 88.238998,94.115844 C 91.517266,94.551441 94.855372,93.277145 97.964055,93.872195 C 101.16307,94.510432 103.15678,94.173909 106.43949,93.788343 C 109.02916,94.364221 111.83588,94.158543 114.27376,93.337361 C 117.70564,95.130586 122.69574,93.242736 126.79443,94.358917 C 130.20054,93.019899 133.67123,93.464682 137.21071,93.828287 C 138.56083,94.198534 138.51582,93.601999 139.8928,93.876768 L 134.45363,97.828556 C 131.37671,99.230734 134.10039,97.629411 131.47953,97.992231 C 128.36199,97.28963 124.92585,99.22006 121.93827,97.887123 C 117.0105,98.16101 112.34355,97.548501 107.44576,98.298196 C 106.53326,98.026127 103.23556,98.066006 101.27069,97.543696 C 98.707312,97.671608 93.94328,99.046082 93.13656,97.379576 C 89.956592,98.28495 86.242482,98.237283 82.98536,97.932835 C 80.095841,98.303296 76.716143,98.280642 73.48974,98.207207 C 67.620892,99.488187 65.784445,95.645748 58.95172,98.212695 C 50.523097,96.357622 42.039056,97.001403 33.643428,98.29241 C 31.910468,97.663689 26.568078,98.958582 28.35461,97.731553 L 33.457953,94.023757 z " />
    <path
       style="opacity:1;color:black;fill:black;fill-opacity:1;fill-rule:nonzero;stroke:none;stroke-width:0.001;stroke-linecap:butt;stroke-linejoin:miter;marker:none;marker-start:none;marker-mid:none;marker-end:none;stroke-miterlimit:4;stroke-dasharray:none;stroke-dashoffset:0;stroke-opacity:1;visibility:visible;display:inline;overflow:visible"
       id="path3023"
       d="M 32.766606,104.90381 C 33.810651,105.19091 37.91253,105.35894 40.514987,105.16851 C 56.62143,107.17566 72.996624,105.23674 89.19082,106.2169 C 105.27564,106.35539 120.59794,106.57765 136.24934,104.57966 C 139.0275,106.39952 142.06041,104.67811 144.92272,103.86116 L 137.43452,109.35702 C 134.79126,109.17582 132.24811,109.82352 129.5929,109.45382 C 114.81426,106.95574 99.516429,110.24254 84.587929,109.55998 C 67.832787,109.43116 51.342434,108.27313 34.67544,109.3909 C 30.009416,108.43713 26.58478,109.05608 27.28463,108.8867 L 32.766606,104.90381 z " />
    <path
       style="opacity:1;color:black;fill:black;fill-opacity:1;fill-rule:nonzero;stroke:none;stroke-width:0.001;stroke-linecap:butt;stroke-linejoin:miter;marker:none;marker-start:none;marker-mid:none;marker-end:none;stroke-miterlimit:4;stroke-dasharray:none;stroke-dashoffset:0;stroke-opacity:1;visibility:visible;display:inline;overflow:visible"
       id="path3025"
       d="M 195.20985,82.699429 C 191.86129,86.14631 194.16475,84.130523 197.2541,82.78647 C 195.69464,84.524871 195.98001,84.971749 198.17111,84.392191 C 200.56734,83.94247 202.93852,81.833677 202.32405,85.300248 C 204.30617,83.980329 207.06628,84.796195 207.84624,84.906413 C 209.96273,85.67666 216.87629,81.500986 215.1508,84.236836 C 217.55762,83.62375 219.22389,83.600441 220.72423,83.693964 C 220.28978,87.775589 225.55115,80.669918 222.63796,85.491231 C 226.64274,84.506726 230.4693,81.828518 225.75622,86.068031 C 228.58868,83.858474 231.1099,84.596904 233.17173,85.071862 C 233.52417,86.252288 238.47889,85.270355 238.85838,85.250555 C 242.32764,84.282697 239.50639,86.003191 241.98783,85.768819 C 243.2609,85.169564 246.58964,84.544331 246.20703,85.898376 C 248.54866,85.486469 251.31999,85.375254 253.69855,85.551025 C 254.86642,86.036491 259.39505,84.10999 258.10067,85.674464 C 260.40004,84.659632 259.73343,85.587979 261.50767,85.720828 C 263.58231,85.989972 267.79459,82.289509 265.11245,85.389007 C 266.75773,84.466374 268.85433,84.374217 270.33683,83.669487 C 269.5895,84.015544 271.67822,84.781667 272.49722,84.868212 C 272.17435,86.213502 275.80216,84.246956 277.36644,83.476325 C 276.88948,83.907592 275.29527,84.82939 275.93556,84.770124 C 280.27376,84.368573 277.41855,84.200151 279.68891,83.564897 C 281.76948,82.810993 282.6592,83.747045 284.17395,83.23653 C 285.5927,82.217807 286.73224,83.700355 287.65655,83.836271 C 291.61476,81.728483 289.173,83.564527 292.04126,82.79399 L 285.12732,87.817089 C 284.518,88.005132 283.10844,87.423512 283.45495,86.888198 C 280.58074,88.468745 280.7384,87.601142 278.93984,87.039802 C 277.09873,87.339187 274.05117,87.733555 272.05084,89.201263 C 275.07912,85.856122 270.2087,88.873027 269.39299,89.693995 C 273.52146,85.095189 267.80564,91.778213 268.34249,87.889053 C 266.06351,88.915801 264.82475,88.431203 262.78738,89.269554 C 265.39958,86.510231 260.61154,89.897798 259.43641,89.691285 C 259.3689,89.677643 258.31017,87.732837 255.53222,90.062253 C 254.118,90.066205 254.74454,88.175278 251.65307,90.358912 C 251.04079,89.22349 250.79782,89.25593 249.37425,88.692809 C 245.92794,90.313952 244.43083,88.564903 240.4985,90.046027 C 238.58381,88.715301 236.68619,90.454109 235.87941,90.207752 C 230.68395,91.330639 237.07479,87.9249 232.2968,90.004917 C 230.45475,90.067243 228.31794,90.650741 228.07713,88.720563 C 225.43181,89.524055 223.85871,90.052395 221.45137,89.179023 C 220.67114,89.549585 218.45589,88.534983 217.34836,89.219748 C 215.79035,88.791719 214.04418,89.116172 212.52066,89.6542 C 215.56476,85.911066 210.60375,90.714287 210.27578,87.778797 C 204.60974,90.402445 207.0892,87.29088 201.75787,89.33068 C 199.92772,88.971039 200.43764,86.95715 197.23664,88.994706 C 196.56983,88.98597 193.68812,89.235888 193.1378,87.965249 C 189.84319,89.600021 192.20185,86.941089 189.43773,88.325617 C 189.01376,88.32555 188.77913,86.943516 189.18054,87.079983 L 195.20985,82.699429 z " />
    <path
       style="opacity:1;color:black;fill:black;fill-opacity:1;fill-rule:nonzero;stroke:none;stroke-width:0.001;stroke-linecap:butt;stroke-linejoin:miter;marker:none;marker-start:none;marker-mid:none;marker-end:none;stroke-miterlimit:4;stroke-dasharray:none;stroke-dashoffset:0;stroke-opacity:1;visibility:visible;display:inline;overflow:visible"
       id="path3033"
       d="M 196.24108,101.77146 C 199.09418,100.48302 203.23212,101.28047 206.46761,102.90981 C 220.93365,101.5631 235.24605,104.02377 249.91345,103.49141 C 258.20204,106.76895 266.89655,101.90429 274.92985,102.22658 C 276.21467,102.27813 276.72457,104.62124 278.0016,104.78459 C 281.75965,105.2653 285.49934,103.48818 289.28208,103.40324 C 290.45173,103.34613 291.6214,103.28902 292.79106,103.2319 L 287.56745,107.39115 C 286.47389,107.38736 285.38032,107.38357 284.28677,107.37978 C 271.54146,107.65871 259.02564,108.12908 246.38231,106.29472 C 231.42625,107.62017 216.66618,105.26615 201.80084,106.60995 C 195.35835,104.46897 190.82515,107.21816 189.28665,106.78932 L 196.24108,101.77146 z " />
    <path
       style="opacity:1;color:black;fill:black;fill-opacity:1;fill-rule:nonzero;stroke:none;stroke-width:0.001;stroke-linecap:butt;stroke-linejoin:miter;marker:none;marker-start:none;marker-mid:none;marker-end:none;stroke-miterlimit:4;stroke-dasharray:none;stroke-dashoffset:0;stroke-opacity:1;visibility:visible;display:inline;overflow:visible"
       id="path3039"
       d="M 194.75603,95.460754 C 196.80113,95.188712 198.77565,94.055374 201.33061,93.763076 C 207.67549,92.808535 215.47879,92.178073 222.98066,92.24278 C 231.15955,94.038294 228.39502,93.087849 238.45462,90.980486 C 242.82973,90.063953 244.13103,92.637196 249.177,91.497436 C 252.71893,94.274591 256.52473,91.358959 260.66019,92.928353 C 264.09383,94.47107 268.74862,94.189161 274.33142,94.263266 C 279.25323,93.212911 283.31799,93.296062 288.18962,93.721663 C 289.15146,95.119319 291.49655,94.779826 293.18982,94.673049 L 288.36594,98.17836 C 286.73864,98.11551 284.99851,97.90228 283.61353,97.04561 C 278.58459,98.31642 273.27226,97.84619 268.55763,98.42764 C 265.27472,98.16881 256.45671,97.27485 256.01295,96.249971 C 251.18497,96.84252 246.68946,95.927868 241.93096,96.737165 C 233.09241,97.67574 226.89116,93.155276 217.52842,96.246265 C 211.09041,94.202487 199.85841,101.17734 195.74401,97.9538 C 193.19007,98.38213 190.04069,100.4598 189.48541,99.29009 L 194.75603,95.460754 z " />
    <path
       style="opacity:1;color:black;fill:black;fill-opacity:1;fill-rule:nonzero;stroke:none;stroke-width:0.001;stroke-linecap:butt;stroke-linejoin:miter;marker:none;marker-start:none;marker-mid:none;marker-end:none;stroke-miterlimit:4;stroke-dasharray:none;stroke-dashoffset:0;stroke-opacity:1;visibility:visible;display:inline;overflow:visible"
       id="path3041"
       d="M 33.229937,133.01815 C 42.55347,126.58489 32.425899,132.90767 36.803787,131.80536 C 38.723155,131.05256 40.845853,130.98278 42.883056,130.6658 C 44.714792,131.57631 46.240866,131.28684 48.025192,130.43214 C 50.116822,130.17355 50.10576,131.04061 51.167445,131.69972 C 51.461579,132.45423 53.232651,132.49501 56.95141,131.07975 C 56.202694,132.1065 60.104587,130.8427 61.25149,130.87613 C 60.237975,131.69652 63.987081,131.52937 65.162297,130.96447 C 64.484209,131.60023 62.223347,132.65836 63.128033,132.87174 C 65.938972,133.53475 66.94671,131.38071 67.864779,131.59258 C 71.438447,130.04046 68.365532,131.33341 70.41292,132.18784 C 71.687312,131.62892 73.167448,131.77257 74.555004,131.66698 C 79.629284,129.58208 74.491566,131.8838 78.060616,131.62795 C 82.060133,130.17785 75.040057,134.53661 81.330164,131.88396 C 85.512536,129.89461 85.497635,131.80502 87.239851,131.16404 C 89.749389,130.84342 89.820257,131.04714 89.691344,132.23116 C 91.600451,132.46878 95.820042,129.26184 94.79979,132.72976 C 97.4218,131.7659 97.919435,133.12327 100.28056,132.01263 C 98.830718,132.51141 103.0926,131.0749 103.9715,132.4423 C 106.30471,132.18458 108.98819,130.65662 108.2629,132.78631 C 108.59998,132.21046 113.45191,131.07986 110.97701,133.59545 C 113.6423,131.76655 115.78893,132.25726 117.34603,131.48383 C 114.11581,134.03128 120.46786,131.6935 121.58834,131.28184 C 125.50695,129.66399 124.4501,132.2777 122.62954,134.01257 C 126.55295,130.86063 126.06179,133.27644 129.17634,131.90168 C 131.3977,131.6422 132.94307,131.32302 131.82818,132.51243 C 133.65097,131.9188 133.83612,133.25802 133.88163,133.27118 C 137.21362,131.07287 135.48732,133.21756 138.47982,132.40726 C 143.44703,130.30842 137.69772,133.99718 140.99612,133.12405 C 141.34558,133.00092 141.69505,132.87779 142.04452,132.75466 L 136.34335,136.8971 C 136.72758,136.48716 137.11181,136.07722 137.49603,135.66727 C 132.77997,138.44822 135.4675,135.4452 131.33072,137.60202 C 123.20544,140.27451 136.30966,133.30846 127.94384,137.55888 C 127.25269,137.46046 127.60152,135.91153 124.60065,137.55307 C 123.65998,137.21689 125.26426,135.3688 122.13369,137.01847 C 117.30097,137.85978 125.46626,133.1838 119.68179,136.15424 C 118.04138,136.44751 112.11584,139.24733 115.2615,135.87855 C 109.65316,138.1702 114.57594,135.81986 110.20086,136.6751 C 106.68348,138.61208 109.28127,137.00574 108.38324,135.47994 C 101.38735,138.37152 108.10476,134.18908 102.22618,137.17247 C 101.05639,136.55387 100.73704,135.17572 97.968059,136.80464 C 96.582786,136.76821 96.106676,135.80324 93.112441,137.20308 C 86.482312,138.58317 97.547097,133.48024 89.04406,136.83671 C 93.203067,131.45256 79.100011,140.78767 85.844183,135.02628 C 77.818465,138.45425 86.06165,134.16677 79.206661,137.0005 C 79.056587,136.90233 73.713375,137.99389 75.922858,135.81259 C 73.749916,136.52203 73.282034,135.87344 70.939381,136.80183 C 75.08589,130.9186 68.333467,137.51433 66.587054,137.45604 C 67.77463,136.4506 69.26994,135.72311 70.149783,134.43971 C 70.32159,134.1891 62.442221,138.66985 65.165913,136.00001 C 58.027984,138.73068 73.00136,130.75005 61.458241,136.24719 C 59.919904,135.28616 61.364885,133.89203 55.415135,138.0464 C 58.788014,134.99134 56.48136,135.85991 55.57942,134.99791 C 54.70391,135.38163 47.642603,138.89167 50.70287,135.61591 C 48.052339,136.14098 45.534577,136.20948 43.06453,137.51359 C 47.102565,133.33109 42.497713,137.78199 41.464776,135.19856 C 41.922363,130.93661 38.712222,136.19368 37.171432,134.81553 C 23.943988,138.85058 45.528785,130.39499 30.479476,136.40024 C 33.505896,133.44024 26.397337,138.39239 31.232957,134.46904 L 33.229937,133.01815 z " />
    <path
       style="opacity:1;color:black;fill:black;fill-opacity:1;fill-rule:nonzero;stroke:none;stroke-width:0.001;stroke-linecap:butt;stroke-linejoin:miter;marker:none;marker-start:none;marker-mid:none;marker-end:none;stroke-miterlimit:4;stroke-dasharray:none;stroke-dashoffset:0;stroke-opacity:1;visibility:visible;display:inline;overflow:visible"
       id="path3043"
       d="M 33.327739,141.72905 C 31.308175,143.86587 35.118224,142.00357 35.370946,141.94289 C 40.464594,139.79779 40.301103,142.58468 43.079618,142.12089 C 47.355158,145.86841 51.689398,139.71765 57.155155,139.62486 C 58.196776,139.60718 55.81854,141.54678 56.073252,142.55694 C 56.243186,143.23087 57.395527,142.98573 58.056664,143.20012 C 62.605307,141.97996 67.971725,139.25019 74.205051,142.60326 C 77.841331,145.61438 86.214893,139.43093 90.158143,141.81583 C 93.839906,142.8196 95.750862,143.4622 98.911625,144.37555 C 102.60343,144.17155 114.14697,138.29999 114.07192,143.65821 C 119.25546,142.72981 124.28563,141.76756 129.57626,141.4072 C 131.83024,141.52298 133.74059,140.69601 135.82763,141.19973 C 138.87793,139.70303 134.71027,143.1287 135.11189,143.08019 C 138.28605,142.69677 138.94506,139.99483 137.3237,142.90594 C 137.65497,142.81188 137.98624,142.71783 138.31751,142.62377 L 133.0883,146.4223 C 132.62164,146.61463 132.15498,146.80696 131.68831,146.99929 C 124.32891,150.16811 133.99709,144.71937 129.03702,146.1341 C 126.78384,145.35111 125.07553,146.22583 122.66318,146.45991 C 121.8144,146.5937 114.56338,146.78764 111.48716,145.56236 C 104.8122,147.4382 100.02462,146.37222 93.255561,148.48452 C 93.386352,144.96321 84.309187,147.7733 81.980124,147.73966 C 77.53392,146.01554 72.680625,146.31053 69.025774,146.34193 C 66.15261,146.48383 54.683265,147.58279 55.681342,144.91474 C 54.555933,145.20883 44.191135,147.75743 43.441875,147.43938 C 42.458963,147.02214 45.761917,144.75205 44.723446,144.50349 C 41.663619,143.77112 38.929046,148.02782 35.754134,147.44316 C 37.987404,138.55602 24.774827,153.17963 31.342829,144.86949 C 29.521963,145.73412 26.136823,147.18448 27.833339,145.72096 L 33.327739,141.72905 z " />
    <path
       style="opacity:1;color:black;fill:black;fill-opacity:1;fill-rule:nonzero;stroke:none;stroke-width:0.001;stroke-linecap:butt;stroke-linejoin:miter;marker:none;marker-start:none;marker-mid:none;marker-end:none;stroke-miterlimit:4;stroke-dasharray:none;stroke-dashoffset:0;stroke-opacity:1;visibility:visible;display:inline;overflow:visible"
       id="path3049"
       d="M 34.433601,150.8118 C 30.683993,152.40927 38.800685,149.17655 42.518087,151.09661 C 58.103831,153.28176 73.379488,154.02495 89.544003,150.78283 C 102.23382,152.97578 114.56698,150.90098 127.16544,150.01753 C 133.97209,148.26168 135.38839,149.76085 142.64813,147.16037 C 146.92491,147.66941 143.04763,149.41144 147.50662,150.17053 L 143.90351,152.75951 C 140.52968,153.52522 138.40012,154.52189 135.61126,152.23006 C 132.03149,153.59975 128.31838,154.03756 125.30855,151.37706 C 112.17924,154.41598 100.77137,155.79511 87.48968,152.2866 C 71.0711,156.58632 53.787969,156.98987 36.859217,155.17903 C 31.291484,154.97245 31.086646,153.63386 26.794711,156.36178 L 34.433601,150.8118 z " />
    <path
       style="opacity:1;color:black;fill:black;fill-opacity:1;fill-rule:nonzero;stroke:none;stroke-width:0.001;stroke-linecap:butt;stroke-linejoin:miter;marker:none;marker-start:none;marker-mid:none;marker-end:none;stroke-miterlimit:4;stroke-dasharray:none;stroke-dashoffset:0;stroke-opacity:1;visibility:visible;display:inline;overflow:visible"
       id="path3051"
       d="M 195.06151,130.6916 C 194.93711,132.15468 197.20925,130.14127 198.10639,129.5559 C 197.88672,131.50496 195.94366,132.94948 200.61123,130.09646 C 205.20049,128.5838 200.54245,132.19576 203.97161,130.11668 C 199.66609,135.4247 210.31109,125.1588 205.13848,131.72428 C 206.69725,130.83612 210.41377,127.95666 208.51409,131.71152 C 211.67133,130.17707 215.21768,128.58534 213.48436,130.75021 C 211.27456,133.023 215.68378,130.98602 216.53306,130.79621 C 223.81521,126.2215 212.73418,135.20767 219.85225,130.65817 C 221.09412,131.54637 224.60777,129.61434 223.40164,131.55383 C 223.19102,133.30427 228.52806,129.68633 226.99597,131.85559 C 230.79198,129.69903 229.74841,133.17244 231.92447,132.42955 C 234.47967,131.08995 235.34798,130.67767 236.36934,132.31976 C 247.96972,125.7738 232.92243,135.58794 240.62165,131.36034 C 241.33519,133.05682 241.24275,132.61678 244.4996,130.64661 C 241.48273,134.86651 245.52252,132.01382 246.99363,131.12472 C 245.26044,134.08134 247.41894,132.87351 250.88481,130.48253 C 249.42601,134.56645 254.42289,130.04942 252.17094,133.81391 C 261.44123,128.55317 249.90678,136.03795 259.23065,132.0499 C 262.17002,131.06626 262.283,132.21875 262.21647,132.57113 C 262.99344,132.24358 263.87192,132.79509 264.66105,133.08245 C 270.30428,129.12187 264.25227,135.18738 271.09295,130.20241 C 265.8229,134.28634 271.58267,131.19137 271.73942,131.11396 C 267.67603,134.8594 273.362,131.43422 275.01419,130.53022 C 278.43024,127.92134 275.65447,131.72308 279.66815,129.52138 C 277.98442,130.30704 281.19881,130.42392 282.04314,130.12591 C 288.57324,127.32402 278.70427,131.22347 284.28166,130.76879 C 287.25404,129.80527 290.01637,126.43284 287.33073,130.75249 C 286.95155,131.19427 286.57237,131.63605 286.19319,132.07784 L 281.93205,135.60367 C 281.80058,135.58441 281.66911,135.56515 281.53763,135.54588 C 280.83339,135.71455 279.0539,135.3614 279.50362,134.72156 C 279.12732,134.67262 272.74786,137.16556 276.3138,134.86493 C 279.22677,130.62252 274.17556,135.87496 272.66894,135.3687 C 272.9134,135.01266 273.76907,134.12784 273.40234,134.30058 C 263.49592,138.96652 276.01943,133.82087 270.67689,134.27873 C 267.14345,135.54598 266.53298,136.51587 265.48189,136.65056 C 265.93967,135.81404 267.52625,134.76359 266.85525,134.141 C 266.06557,133.40828 265.09518,135.30925 264.21514,135.89338 C 261.87997,137.04892 261.42422,136.56342 261.07463,136.05013 C 257.41195,137.81737 258.75064,135.99629 256.98579,136.90012 C 256.87568,136.88731 256.31309,135.95016 254.30862,136.11658 C 253.56776,136.35662 248.23007,137.57039 249.70888,135.82371 C 240.03609,141.53348 255.00337,131.54347 243.99458,136.18378 C 244.50013,135.61294 245.18121,135.18967 245.51121,134.47127 C 246.14724,133.08665 242.62995,136.57739 241.52675,135.64823 C 234.92417,139.78277 244.50658,131.25362 237.84148,136.15584 C 232.67143,138.70854 240.04954,132.99302 233.93843,136.89083 C 232.48278,136.93233 232.4654,137.31615 232.23275,135.74288 C 222.62965,141.14423 236.69274,131.45041 228.10167,135.58321 C 224.79331,136.55958 225.54165,135.39633 222.9058,135.15388 C 220.52496,135.71136 220.47106,134.87113 218.04232,135.98839 C 214.41151,136.39043 217.69949,134.25677 214.73125,134.89609 C 214.09134,135.3068 205.58863,140.19617 212.12629,134.4409 C 211.23347,134.66185 206.64465,136.84488 209.03864,134.38336 C 208.05966,134.84314 203.1858,137.32923 204.47698,134.98769 C 201.61064,136.31231 203.16802,135.87352 203.94278,133.97103 C 204.42692,132.78218 201.98356,135.64549 200.83324,135.67838 C 200.27,135.69448 201.62338,134.76341 202.01845,134.30592 C 196.7683,136.25365 204.73276,129.5117 195.179,137.39204 C 203.76799,129.49344 197.16974,135.25429 194.35084,135.27657 C 193.54026,135.68314 191.32292,135.73962 191.72164,134.8389 C 190.75724,135.21745 186.22558,138.03502 189.44021,135.34288 L 195.06151,130.6916 z " />
    <path
       style="opacity:1;color:black;fill:black;fill-opacity:1;fill-rule:nonzero;stroke:none;stroke-width:0.001;stroke-linecap:butt;stroke-linejoin:miter;marker:none;marker-start:none;marker-mid:none;marker-end:none;stroke-miterlimit:4;stroke-dasharray:none;stroke-dashoffset:0;stroke-opacity:1;visibility:visible;display:inline;overflow:visible"
       id="path3059"
       d="M 191.81216,140.43105 C 199.42079,135.1666 186.65035,144.58214 196.63472,140.99142 C 207.11235,142.29618 216.46959,137.66343 227.03525,140.32707 C 242.70033,143.95779 216.09234,138.48668 239.20531,139.7243 C 240.27703,139.78169 240.71213,142.12943 241.77162,141.93683 C 245.38874,141.27931 248.3951,138.0583 252.0116,137.39637 C 252.84395,137.24403 252.64521,139.36391 253.39171,139.81001 C 254.36981,140.39452 255.58955,140.06418 256.68847,140.19127 C 262.39379,139.85576 265.78485,139.26903 271.57721,139.37868 C 275.50545,140.56114 281.49803,139.78294 287.02178,139.14453 C 288.58318,141.49911 291.8448,139.69449 293.68885,139.35621 L 286.82195,145.03864 C 285.67973,144.69345 283.08112,144.72696 283.55974,142.00908 C 278.64318,144.02438 270.92799,146.0362 266.75326,143.35619 C 258.53638,145.387 263.75573,142.82656 262.5465,142.03851 C 260.84866,140.93204 255.34527,146.5522 253.48785,142.82301 C 242.60958,146.46828 230.98826,140.04214 219.8556,146.31698 C 219.85146,144.62893 221.31338,141.46733 219.84318,141.25284 C 216.32864,140.7401 213.20079,144.29646 209.68909,144.83377 C 205.93827,145.40766 194.95264,143.14322 190.24212,146.18725 C 187.69273,145.77107 186.87005,145.15399 187.34415,144.12806 L 191.81216,140.43105 z " />
    <path
       style="opacity:1;color:black;fill:black;fill-opacity:1;fill-rule:nonzero;stroke:none;stroke-width:0.001;stroke-linecap:butt;stroke-linejoin:miter;marker:none;marker-start:none;marker-mid:none;marker-end:none;stroke-miterlimit:4;stroke-dasharray:none;stroke-dashoffset:0;stroke-opacity:1;visibility:visible;display:inline;overflow:visible"
       id="path3061"
       d="M 192.04656,149.86401 C 191.66395,151.46602 199.99034,149.17573 203.21348,150.0357 C 211.98389,156.73357 215.7175,152.6432 226.18552,152.28179 C 229.08895,152.18155 231.88059,154.34001 234.7693,153.9928 C 254.69969,148.25167 245.49633,149.57592 262.21,148.71296 C 279.42098,152.74157 258.71125,149.09893 282.63994,147.54558 C 284.68264,147.41298 286.5995,148.72172 288.57927,149.3098 C 291.0661,149.08823 293.55292,148.86666 296.03974,148.64509 L 291.43556,152.46635 C 276.06902,148.58897 302.96822,154.45386 273.87139,154.84625 C 271.92186,154.87254 270.52952,152.55805 268.85858,151.41395 C 265.05157,151.83848 261.24455,152.263 257.43753,152.68753 C 237.79835,152.87813 218.99157,157.64208 199.57066,153.04992 C 193.18895,152.49461 188.66093,152.7771 186.62347,154.35129 L 192.04656,149.86401 z " />
    <path
       style="opacity:1;color:black;fill:black;fill-opacity:1;fill-rule:nonzero;stroke:none;stroke-width:0.001;stroke-linecap:butt;stroke-linejoin:miter;marker:none;marker-start:none;marker-mid:none;marker-end:none;stroke-miterlimit:4;stroke-dasharray:none;stroke-dashoffset:0;stroke-opacity:1;visibility:visible;display:inline;overflow:visible"
       id="path3063"
       d="M 40.122284,174.54735 C 37.100353,177.18698 36.879957,177.77377 40.984383,175.33431 C 43.551912,174.77975 44.221731,173.97947 42.745239,176.4765 C 44.377015,175.66233 46.362862,175.87717 48.079551,175.26191 C 48.911235,177.08686 50.740902,175.80276 52.311093,175.3144 C 52.039825,176.58347 55.693068,174.95919 56.995356,174.49825 C 51.993201,177.12898 59.132547,175.38046 59.174512,175.39518 C 62.709523,174.39967 61.341495,175.66959 64.294603,175.068 C 64.825011,174.92711 66.016689,174.11237 65.885826,174.64534 C 65.052635,178.03868 63.82831,177.67287 70.987491,174.49851 C 75.119721,172.60114 71.637223,173.96167 70.368504,175.94103 C 69.485878,177.31803 75.040458,172.06254 74.715798,173.66559 C 74.39723,175.23856 72.427829,175.91683 71.283845,177.04245 C 78.578577,172.41612 71.831964,176.65552 77.750342,175.63678 C 78.207026,175.49957 79.373622,174.82107 79.120394,175.22513 C 73.351048,184.43091 88.177293,168.40336 79.576692,177.38851 C 81.621113,175.98472 86.384197,175.15519 86.644747,175.01477 C 89.771544,175.38279 81.907575,177.55 83.050139,178.89178 C 84.287572,180.34497 86.135037,175.67699 88.010505,176.03141 C 89.541357,176.32071 85.31601,177.81769 84.552417,179.17568 C 83.621435,180.83136 88.003966,177.58543 89.690818,176.71221 C 89.376303,177.11645 88.282916,178.14107 88.747273,177.92495 C 101.80638,171.84694 84.685695,179.7962 93.027111,177.10262 C 98.61265,174.62806 92.330066,178.94482 97.692492,175.99586 C 102.1239,177.25171 95.156605,180.36981 101.22338,177.08621 C 108.75511,173.03226 94.684671,183.19877 104.93837,177.10788 C 104.86021,178.10118 106.69012,178.02676 108.2094,177.30285 C 108.53577,177.839 112.31541,177.06526 113.37239,176.77309 C 107.07048,184.95359 120.39636,166.57876 116.66443,176.13495 C 116.03414,177.7489 107.0588,182.92448 115.47366,177.86139 C 115.53758,178.67412 117.93571,178.36632 118.2126,178.335 C 123.32235,175.61435 122.18557,178.47521 124.50577,177.57867 C 123.60341,178.45861 120.53908,180.17392 121.79867,180.2185 C 123.80499,180.28951 126.18879,179.19383 128.90113,178.10521 C 138.58423,175.217 121.2286,181.39382 132.56736,177.40234 C 138.12152,175.44716 121.6986,183.79956 133.31588,177.69303 C 136.06293,175.43841 135.05192,178.85642 134.91955,179.15562 C 141.35781,175.18093 138.27165,179.06124 143.0757,176.41928 C 135.41785,184.37367 150.94876,171.77411 143.37271,178.70584 L 142.15685,179.58922 C 129.53833,187.79353 143.58801,177.71815 133.17294,183.61405 C 141.31665,176.34047 132.74276,184.12786 131.87996,181.36401 C 125.70872,183.29506 132.75301,178.28339 122.90231,185.25893 C 125.43966,183.06944 127.22697,181.49409 123.8439,181.77951 C 122.95748,182.0892 118.71648,182.74553 118.66807,181.82001 C 113.73233,183.41196 116.93365,181.38338 112.6431,182.38147 C 117.45597,177.41697 105.95188,186.86887 110.95615,181.14355 C 109.16325,182.30482 107.56611,183.84748 105.57744,184.62737 C 102.37226,185.88433 110.24539,180.69601 107.11016,181.32305 C 103.60478,182.33504 101.28264,183.1201 98.806307,184.13587 C 105.0047,178.71394 98.787791,182.80038 95.727381,183.78719 C 102.90047,175.33282 100.30379,181.15569 95.374184,181.25794 C 89.392813,183.96126 95.753063,178.98303 91.532052,180.44767 C 87.267967,182.87415 90.352091,180.7014 86.517814,181.6453 C 86.258689,180.2864 85.554992,178.90652 83.325383,181.29417 C 82.236724,180.37423 80.257114,180.23301 78.101678,181.10532 C 82.818496,175.86545 78.152927,180.07533 75.190811,180.55716 C 71.777671,182.26251 78.358771,176.77374 70.655922,180.66828 C 66.230434,181.73653 70.231084,179.09636 69.731932,178.16998 C 67.260851,179.60369 65.382712,179.98465 61.771092,181.19462 C 66.119985,175.9375 60.484246,179.80038 57.741282,179.82927 C 50.112823,182.93098 61.050172,178.82183 57.655749,178.55608 C 56.730401,178.48364 55.204905,179.39149 51.982336,180.6206 C 51.963941,180.6256 47.663457,182.61963 49.407907,180.01086 C 45.468876,180.42871 51.915936,177.32511 45.854566,180.00534 C 40.627921,180.97827 47.126244,177.51734 42.79314,179.10271 C 35.083844,183.59061 43.175299,177.01943 35.55239,181.70241 C 36.426111,180.9374 37.642915,180.44036 38.173553,179.40737 C 38.91879,177.95664 32.754622,182.24825 33.479244,180.78711 C 32.816333,180.95989 32.171072,181.38383 31.490511,181.30546 C 27.542027,180.85078 34.845361,179.50723 33.312884,179.49467 L 40.122284,174.54735 z " />
    <path
       style="opacity:1;color:black;fill:black;fill-opacity:1;fill-rule:nonzero;stroke:none;stroke-width:0.001;stroke-linecap:butt;stroke-linejoin:miter;marker:none;marker-start:none;marker-mid:none;marker-end:none;stroke-miterlimit:4;stroke-dasharray:none;stroke-dashoffset:0;stroke-opacity:1;visibility:visible;display:inline;overflow:visible"
       id="path3065"
       d="M 35.29498,184.14842 C 33.886672,185.65704 36.697075,184.59486 40.883523,182.38691 C 28.646721,191.73066 44.494383,185.15022 51.054279,187.42412 C 59.81303,184.29301 67.538788,187.16003 76.300496,187.06747 C 85.791189,187.16325 85.568936,185.28583 94.862661,187.01519 C 95.466392,188.07006 104.32275,188.68133 107.38699,188.02025 C 112.29281,189.01829 122.9907,181.12021 113.84741,189.41494 C 120.39612,185.28752 119.07505,188.98231 125.3107,185.69323 C 119.22448,190.88803 126.46692,187.09478 128.66462,187.54768 C 140.06019,181.70606 114.4318,199.29364 138.99429,184.86669 C 125.02727,194.47683 138.8546,188.42597 142.74573,186.31317 C 141.40288,187.46365 139.85363,188.40987 138.7172,189.76463 C 137.73232,190.93871 141.53711,188.55938 142.97912,188.04071 L 134.67402,194.07478 C 139.23397,189.67769 139.38317,190.18526 134.4901,192.31154 C 127.95919,194.45232 141.02948,186.55918 127.52333,193.20168 C 123.22582,194.2085 122.66436,193.38831 123.3817,191.37797 C 122.26168,191.86553 113.94378,195.11514 116.85294,191.73661 C 114.21873,192.8101 111.60538,194.10121 108.79651,194.55028 C 96.519049,196.51314 120.95289,188.83665 109.47562,192.5917 C 106.04425,193.27017 103.5456,192.12823 99.472988,193.76075 C 101.47114,189.23997 94.482811,193.48554 92.257267,192.47172 C 86.411496,189.80872 102.60936,188.75102 90.422993,190.21244 C 85.818301,189.77281 71.695045,193.81805 71.879165,190.25086 C 62.299163,188.66415 55.169821,193.29524 46.214612,190.91066 C 39.143222,185.9278 35.009133,187.59613 28.76563,191.04489 C 33.152579,183.62384 20.355985,196.68991 29.358422,188.46158 L 35.29498,184.14842 z " />
    <path
       style="opacity:1;color:black;fill:black;fill-opacity:1;fill-rule:nonzero;stroke:none;stroke-width:0.001;stroke-linecap:butt;stroke-linejoin:miter;marker:none;marker-start:none;marker-mid:none;marker-end:none;stroke-miterlimit:4;stroke-dasharray:none;stroke-dashoffset:0;stroke-opacity:1;visibility:visible;display:inline;overflow:visible"
       id="path3067"
       d="M 32.945975,195.26526 C 30.459045,197.79025 37.561929,192.06539 37.361802,193.39564 C 36.796851,197.15089 30.379533,197.33894 37.706454,196.28258 C 46.706126,189.4874 50.938319,196.41783 59.517746,195.96499 C 74.275882,195.18603 65.191025,192.34392 75.452531,196.93334 C 85.990413,196.23833 121.25865,195.61302 129.2346,199.1016 C 140.90847,196.84451 135.92729,196.56504 144.16228,198.01668 L 141.66691,199.81539 C 139.38913,191.11814 141.89651,195.71029 126.05034,201.39525 C 107.59227,198.87677 90.781559,199.74258 72.493173,199.08344 C 62.170494,192.38142 73.267131,197.85176 53.978883,199.98921 C 50.835952,200.3375 48.608689,195.04536 44.913212,197.19502 C 41.932662,197.6524 39.279798,199.46171 36.312846,200.00031 C 35.399155,200.16617 34.525553,199.49538 33.631907,199.24291 C 17.481726,205.77564 31.307431,201.29574 30.022758,198.72777 C 30.013319,198.7089 26.312251,200.98844 27.629156,199.12815 L 32.945975,195.26526 z " />
    <path
       style="opacity:1;color:black;fill:black;fill-opacity:1;fill-rule:nonzero;stroke:none;stroke-width:0.001;stroke-linecap:butt;stroke-linejoin:miter;marker:none;marker-start:none;marker-mid:none;marker-end:none;stroke-miterlimit:4;stroke-dasharray:none;stroke-dashoffset:0;stroke-opacity:1;visibility:visible;display:inline;overflow:visible"
       id="path3069"
       d="M 192.93946,177.31179 C 200.32673,171.82318 189.00941,181.26244 199.35512,173.53757 C 198.91073,175.02823 192.60638,180.63278 198.95235,176.30362 C 207.41599,171.44686 191.68715,182.56836 201.58907,176.60597 C 203.37695,177.24297 205.20974,175.46939 206.94297,174.65981 C 215.43225,169.81971 194.82969,183.44095 207.43568,175.48004 C 208.73252,174.66106 207.55507,176.22983 207.61237,176.58961 C 212.74598,173.07751 211.52008,174.42418 210.11573,176.14896 C 221.27767,169.0665 202.07158,182.65066 217.78245,172.14012 C 210.44516,178.50218 221.24697,170.91868 215.43951,177.08234 C 222.99116,172.1706 218.10021,177.31381 223.48326,173.59163 C 233.3494,170.66029 211.31314,179.82091 225.23871,174.81092 C 224.3964,175.64144 223.55409,176.47195 222.71178,177.30246 C 209.58886,186.18121 229.31508,172.14923 227.91983,173.80538 C 227.80714,173.93916 220.65428,179.94534 225.82153,176.82559 C 225.09253,179.02556 232.78953,172.11036 231.46251,173.91178 C 229.54258,176.51804 223.30678,180.47184 232.39602,174.19675 C 230.77949,177.62987 233.4437,173.64927 233.33873,177.26637 C 228.21194,184.50571 242.94031,168.34921 237.20266,177.31141 C 242.79895,175.12259 232.50819,181.10028 240.79002,176.64337 C 248.71439,171.1156 236.033,181.92609 246.38766,174.87896 C 240.93613,180.58887 249.03458,177.10388 249.55925,176.99585 C 250.18712,176.69333 250.76516,176.17279 251.44286,176.08827 C 252.8063,175.91825 248.08839,178.25026 248.74191,179.62363 C 249.30871,180.81473 252.14929,176.26396 257.32568,175.27877 C 262.74072,174.33875 254.96295,180.38422 261.52225,177.28213 C 259.26971,180.61557 264.99644,177.28881 265.63294,176.83202 C 260.47355,182.51633 271.35839,172.71464 266.03716,178.66813 C 272.3063,173.76853 266.18005,178.86218 271.20575,176.14138 C 275.80916,173.26917 271.05027,176.04073 270.23104,177.77775 C 269.16403,180.04011 277.74981,172.23983 276.15222,174.05216 C 274.61421,175.7969 272.76256,177.14187 271.06773,178.68672 C 273.54047,177.68744 281.5483,172.40578 277.37144,176.81771 C 280.93843,178.50294 280.37525,170.98157 283.45647,174.03079 C 284.65941,175.22123 281.00187,176.34625 279.77456,177.50399 C 282.00364,176.1832 282.42145,176.41647 285.11919,175.56463 C 283.90386,178.73512 288.08645,174.77175 285.98119,177.26363 C 288.7463,176.51212 293.52227,171.88911 286.26069,178.7446 C 283.69391,179.03005 283.94336,179.20657 286.69431,177.87109 L 291.72716,175.62584 C 291.38884,175.81941 291.05051,176.01298 290.7122,176.20655 C 288.6597,177.55498 286.60722,178.90342 284.55472,180.25185 C 281.35721,181.72715 284.20227,179.84559 282.25048,180.35057 C 281.33375,180.6871 279.81363,182.10544 279.43611,181.09627 C 278.83202,179.48148 287.11026,175.24716 282.79998,177.48364 C 272.73827,184.24125 283.90835,175.42727 274.32601,182.01224 C 276.47357,179.39169 278.18693,177.57146 274.23949,179.40864 C 266.23592,183.43688 277.41365,175.65657 267.10817,181.96354 C 262.07807,184.63096 267.54654,180.72035 268.09794,178.7568 C 262.25802,182.49655 269.19289,176.7751 262.39886,181.85933 C 268.63855,174.46237 259.11943,185.25191 260.46573,181.1077 C 258.45942,182.32709 256.42156,183.01468 257.23996,180.82591 C 252.76845,183.13468 252.72521,181.46896 248.05347,182.94769 C 243.55955,182.51719 250.08444,179.59375 246.23233,179.71579 C 244.98747,180.52009 233.51362,185.96773 239.43475,180.63204 C 235.58611,182.20476 234.31833,182.85762 236.76877,179.93677 C 227.31328,186.37738 244.71766,174.02417 233.35215,181.57376 C 232.6553,182.03665 230.85191,183.69552 231.22008,182.87802 C 231.97412,181.20368 236.19508,179.08619 232.29088,181.21554 C 230.78035,179.8475 234.4644,177.57519 229.58571,180.30516 C 227.78335,179.86962 233.00713,175.44074 223.00597,181.73872 C 230.16129,173.93142 212.22626,188.98619 222.35385,179.6949 C 212.80398,184.84514 230.57388,172.04259 215.52445,182.84891 C 220.28975,178.24512 219.99565,178.36591 216.22571,179.5965 C 220.25809,175.1378 213.20089,180.56016 211.77221,180.11584 C 215.59749,174.72341 210.28757,180.58378 208.5665,179.78186 C 207.58207,180.3216 205.88388,182.60657 205.6132,181.40106 C 205.28598,179.94378 209.49058,178.50388 207.8874,178.05586 C 203.83031,180.89498 202.67523,181.78818 201.05819,182.01279 C 198.45602,182.06396 202.36393,179.76362 198.30649,181.80597 C 189.94595,186.35615 203.68928,177.40101 197.09115,180.32772 C 195.67489,180.48045 197.4396,178.75461 193.71358,180.63838 C 191.62515,180.55497 193.0753,179.1558 191.3422,180.16778 C 191.98612,179.38801 194.11385,177.348 193.27395,177.82848 C 177.61761,186.78508 196.26684,177.21413 188.15089,181.27403 L 192.93946,177.31179 z " />
    <path
       style="opacity:1;color:black;fill:black;fill-opacity:1;fill-rule:nonzero;stroke:none;stroke-width:0.001;stroke-linecap:butt;stroke-linejoin:miter;marker:none;marker-start:none;marker-mid:none;marker-end:none;stroke-miterlimit:4;stroke-dasharray:none;stroke-dashoffset:0;stroke-opacity:1;visibility:visible;display:inline;overflow:visible"
       id="path3071"
       d="M 190.22548,185.82608 C 191.27025,186.65905 188.28559,186.019 193.64833,186.02072 C 196.28982,185.2056 193.72019,188.77028 194.62298,188.94694 C 200.23471,190.04507 214.05581,175.37368 206.69682,188.79898 C 212.07359,187.98547 217.57804,184.20925 222.86424,183.38032 C 229.09227,182.40371 222.25499,188.09869 233.15508,183.97425 C 234.19502,184.09457 235.29989,183.90603 236.27488,184.33522 C 237.90923,185.05463 240.0221,188.68209 242.30375,188.03376 C 250.34087,185.75002 249.92901,180.73341 249.38448,187.52879 C 257.52857,184.06135 260.75325,187.18234 267.28511,187.16003 C 275.15042,185.02101 270.36655,188.85936 273.95151,189.19622 C 277.72012,188.86849 281.0257,188.68615 284.25482,187.47158 C 279.23513,192.29205 290.48089,186.27732 290.72801,186.24617 C 290.36971,186.72055 290.67987,187.96636 291.22593,188.0357 L 289.05205,189.99987 C 289.05205,189.99988 281.54208,195.81615 283.36,192.90457 C 286.95538,188.4336 283.64375,192.90785 282.02077,192.9907 C 281.29701,193.02765 282.92977,191.7056 283.38428,191.06305 C 283.34136,190.83143 283.46241,190.39141 283.25555,190.36817 C 282.13919,190.24277 281.13388,191.55384 279.99487,191.31656 C 278.87211,191.92182 277.74936,192.52707 276.6266,193.13232 C 277.09102,192.26317 278.87725,190.23918 278.01983,190.52487 C 275.70963,191.29467 274.09179,193.83984 271.8167,194.73504 C 268.8331,195.90904 278.16245,187.36489 269.86227,192.84145 C 266.2426,190.78143 267.00801,191.73952 259.83242,193.76759 C 262.45191,185.87982 250.7224,193.76013 246.57919,190.03158 C 240.50015,191.62269 242.39153,189.22311 237.16751,189.62857 C 233.75897,189.89313 230.57803,193.02036 227.20769,192.38331 C 226.32701,192.21685 227.14086,190.35134 227.10744,189.33535 C 216.04003,192.71501 218.01365,188.03188 217.72347,187.98751 C 216.00323,187.72447 205.17456,190.64916 203.68611,191.51141 C 201.55546,186.25179 192.88014,193.39202 188.33599,190.72785 C 190.80909,182.38607 181.39532,196.04951 187.17071,188.58589 L 190.22548,185.82608 z " />
    <path
       style="opacity:1;color:black;fill:black;fill-opacity:1;fill-rule:nonzero;stroke:none;stroke-width:0.001;stroke-linecap:butt;stroke-linejoin:miter;marker:none;marker-start:none;marker-mid:none;marker-end:none;stroke-miterlimit:4;stroke-dasharray:none;stroke-dashoffset:0;stroke-opacity:1;visibility:visible;display:inline;overflow:visible"
       id="path3079"
       d="M 194.02535,193.28849 C 192.49016,194.93293 195.62771,195.69346 197.09053,197.98532 C 203.59409,198.5219 214.01364,192.37822 220.09688,194.69329 C 221.41857,195.19629 221.03082,197.68387 221.49778,199.17917 C 224.23544,198.70347 226.97309,198.22778 229.71075,197.7521 C 235.2918,187.88176 243.77044,201.7022 245.86653,201.56736 C 251.71344,201.19121 260.68447,191.52237 265.27343,199.32542 C 280.51076,188.61035 270.73537,203.17943 285.29797,196.16521 C 290.26142,200.71514 287.3083,194.15395 295.00449,195.42815 C 302.40563,196.65351 282.2706,204.00229 296.87534,197.89399 L 295.12918,199.48606 C 276.545,211.37615 292.98551,202.66269 290.36209,199.65752 C 288.0317,196.98804 279.35859,208.25957 280.85607,200.18852 C 275.93619,202.70762 268.591,205.54167 266.5945,198.12922 C 263.66373,198.98924 241.22316,206.51151 240.7276,206.2234 C 238.10428,204.69819 247.08404,197.95853 244.26148,196.99996 C 237.77097,194.7957 231.71652,207.24746 224.51573,202.45708 C 214.99289,194.28071 201.90304,209.89928 194.02433,200.68973 C 192.60795,200.58222 190.35209,201.51564 189.80617,200.02333 C 189.56816,199.37274 191.11308,198.11711 190.49624,198.06044 C 189.83896,198.00006 182.08109,203.88705 187.86774,198.91888 L 194.02535,193.28849 z " />
    <path
       style="opacity:1;color:black;fill:black;fill-opacity:1;fill-rule:nonzero;stroke:none;stroke-width:0.001;stroke-linecap:butt;stroke-linejoin:miter;marker:none;marker-start:none;marker-mid:none;marker-end:none;stroke-miterlimit:4;stroke-dasharray:none;stroke-dashoffset:0;stroke-opacity:1;visibility:visible;display:inline;overflow:visible"
       id="path3081"
       d="M 34.720973,222.33892 C 33.754778,224.3835 42.061903,217.11964 40.450602,218.70632 C 28.869698,230.11023 33.327991,224.36336 34.940979,223.76775 C 39.038654,221.96205 41.432987,220.39408 40.584645,222.11411 C 38.780521,222.89316 41.458058,223.34104 39.339468,225.73127 C 51.542997,218.35744 39.332241,226.96758 45.529195,223.1825 C 47.392336,223.07425 48.734744,219.43954 50.526245,220.18854 C 51.687172,220.6739 49.304374,222.43135 48.404133,223.3105 C 47.723348,225.36745 48.201671,224.70137 53.773845,221.8773 C 50.253847,225.29756 57.422392,221.62188 58.050483,221.29083 C 58.266528,222.05132 52.904117,224.82645 54.523304,224.66546 C 56.520448,224.46689 58.295586,223.26231 60.07281,222.32984 C 63.423342,221.19239 57.368197,224.41822 56.391939,225.79044 C 55.615159,226.88228 58.686196,224.40485 59.815377,223.68344 C 78.414498,211.80077 49.57153,230.95322 66.024399,220.44807 C 60.622837,225.69816 67.94471,221.43675 68.228083,221.3179 C 67.604835,221.91442 66.788354,222.35955 66.358339,223.10745 C 65.746056,224.17236 68.613014,222.12174 69.684825,221.52162 C 77.932156,216.9038 65.08867,224.37925 71.320855,221.70659 C 85.840833,213.56666 61.879498,229.9059 78.109649,219.49395 C 76.101069,221.1019 73.879767,222.4753 72.08391,224.31779 C 70.476045,225.96741 79.530666,219.24256 78.218585,221.13595 C 76.911973,223.02145 68.217961,228.29102 77.757174,222.25838 C 88.967959,216.48492 74.55091,224.54614 82.039643,222.38584 C 83.79069,223.73223 89.229215,219.68335 84.210659,224.55639 C 86.311815,223.75972 91.765363,221.43869 91.556468,221.65626 C 90.440969,222.81804 89.121812,223.76547 87.904484,224.82007 C 89.685735,224.53515 97.74346,218.81246 98.72266,219.37512 C 100.44091,220.36243 92.377104,223.44314 97.66,221.26999 C 90.722533,224.98982 99.40547,222.43157 100.39871,221.99435 C 102.7188,222.73605 98.68184,224.82153 105.52197,220.07911 C 105.50574,226.15634 109.56422,210.14576 103.12715,223.07638 C 102.06768,225.20461 107.47342,221.12155 109.51243,219.89914 C 107.32063,224.1117 113.02692,220.16083 114.69631,219.29612 C 108.08566,226.61201 120.62881,213.92687 116.52338,221.31932 C 126.17135,216.09885 112.27043,226.76601 123.48611,220.21514 C 119.75293,225.23256 128.87099,215.61832 125.74069,221.36775 C 133.05777,217.6028 124.48035,224.00282 132.57623,218.7375 C 120.00007,230.68367 140.27751,212.91249 132.77571,221.09987 C 135.63727,219.95178 142.2061,214.53047 134.4456,221.06906 L 127.55179,226.41549 C 134.50488,220.59478 127.54664,226.00929 125.15039,226.66208 C 125.83447,225.35887 128.19647,220.47442 122.29428,226.47827 C 129.15958,219.1241 116.78243,229.46358 122.43391,223.77027 C 119.16895,224.43214 118.6787,224.36611 116.10209,225.57991 C 103.0001,229.15154 120.48239,221.30833 108.57429,227.09399 C 118.30008,218.13925 101.7977,232.16403 107.21281,224.73211 C 94.863564,231.88859 125.24784,213.13448 99.98035,227.90959 C 99.8053,228.01196 100.03566,227.50781 100.06331,227.30691 C 101.26997,226.26213 102.47662,225.21734 103.68327,224.17255 C 99.51708,226.15547 101.33077,223.94447 97.93676,225.91538 C 96.771973,226.59214 94.389483,228.57445 93.679635,226.87604 C 85.035742,230.13575 98.40474,223.47955 89.813214,226.97102 C 86.019488,228.3548 86.793711,227.31244 88.297902,224.53424 C 86.881712,225.05194 82.878444,226.64998 81.985385,226.17315 C 81.370691,226.42543 76.12699,225.12023 76.153944,226.66205 C 67.155433,228.34837 85.446834,219.58582 70.069201,227.84402 C 75.786523,221.91649 54.906048,237.60699 71.814918,224.06734 C 61.738284,230.58793 68.382763,225.49508 70.717726,222.14479 C 61.043258,228.53483 64.968418,224.82261 58.718899,228.22673 C 55.054555,230.02472 59.121575,225.69236 59.199369,225.40675 C 58.817018,225.64841 45.109462,232.25864 56.186883,225.15313 C 55.719937,225.21543 54.506551,225.71923 54.786043,225.34002 C 60.991264,216.92076 45.818355,232.60559 54.039323,224.20482 C 41.702769,231.9013 55.705792,222.07827 45.765402,227.69306 C 46.323275,226.75043 46.794847,225.75108 47.439021,224.86518 C 48.002715,224.08997 35.502914,224.17334 44.778404,225.95582 C 42.867488,226.63972 40.915604,227.22953 39.069296,228.07242 C 48.401023,219.84526 24.935021,237.40622 39.926529,225.30475 C 21.369691,236.93322 46.74608,220.16209 30.634144,229.34357 C 34.459529,224.7216 32.193302,225.91384 27.199383,229.39235 C 28.533089,228.29778 32.91575,225.92218 31.200502,226.10865 C 27.847599,226.47316 21.38261,234.43539 30.328135,226.06072 C 30.721844,225.69214 28.375233,226.9444 28.813899,226.63066 L 34.720973,222.33892 z " />
    <path
       style="opacity:1;color:black;fill:black;fill-opacity:1;fill-rule:nonzero;stroke:none;stroke-width:0.001;stroke-linecap:butt;stroke-linejoin:miter;marker:none;marker-start:none;marker-mid:none;marker-end:none;stroke-miterlimit:4;stroke-dasharray:none;stroke-dashoffset:0;stroke-opacity:1;visibility:visible;display:inline;overflow:visible"
       id="path3087"
       d="M 31.328847,236.02999 C 33.865715,233.62581 36.874593,233.28594 36.048104,234.2825 C 39.058388,235.75929 46.684422,228.08635 43.952705,235.84395 C 48.819609,236.46994 52.758487,230.18032 57.523143,230.88329 C 58.902026,231.08673 54.490678,234.19008 55.791939,234.68951 C 56.539935,234.97659 65.507858,233.71715 67.499404,232.90167 C 71.167169,231.01043 78.346195,231.98564 76.18581,236.09901 C 95.471907,226.12372 76.572769,238.43113 91.306497,232.82284 C 96.277175,230.28271 95.674162,233.47723 100.18458,234.40923 C 106.09064,235.75591 106.94802,232.49296 113.16042,230.49087 C 113.83897,230.27219 112.00614,231.83242 112.3361,232.46438 C 112.62315,233.01416 113.57649,232.47184 114.19668,232.47556 C 117.86462,233.59292 123.0998,228.97424 123.8735,233.59168 C 132.03585,228.52858 128.01112,232.82566 135.0348,229.68965 C 125.66672,235.55784 136.08181,232.29725 136.12985,232.29421 L 130.83417,236.14099 C 129.43355,236.54595 124.94497,238.31139 127.58469,235.11837 C 123.90818,237.23875 122.04238,237.04081 119.27405,236.98797 C 113.50515,237.9181 110.51889,235.12816 102.91582,240.77568 C 106.94792,235.36919 102.12395,235.85104 95.938196,237.4944 C 91.64406,235.13606 86.345022,239.19562 81.805778,239.72552 C 84.572553,235.62955 76.498118,236.62623 72.675841,238.64915 C 74.290457,233.78106 61.279205,240.89785 60.055868,238.30972 C 53.600081,238.52323 47.956763,239.53822 44.006363,235.80497 C 35.568642,238.59955 36.306923,235.29798 28.595511,239.69712 C 38.903787,230.82292 23.708618,242.52904 29.203695,237.574 L 31.328847,236.02999 z " />
    <path
       style="opacity:1;color:black;fill:black;fill-opacity:1;fill-rule:nonzero;stroke:none;stroke-width:0.001;stroke-linecap:butt;stroke-linejoin:miter;marker:none;marker-start:none;marker-mid:none;marker-end:none;stroke-miterlimit:4;stroke-dasharray:none;stroke-dashoffset:0;stroke-opacity:1;visibility:visible;display:inline;overflow:visible"
       id="path3093"
       d="M 31.664737,242.46959 C 37.598506,237.84766 31.686164,243.64139 35.069161,243.84346 C 40.868451,244.18986 40.064201,240.21313 39.574673,246.37469 C 47.41584,245.96219 56.178243,243.63197 64.014025,243.95173 C 66.153725,244.03904 67.811843,246.38227 69.953241,246.40105 C 93.102633,246.60411 75.470827,240.68122 90.853966,247.17268 C 95.744403,246.51341 100.60038,244.88436 105.52528,245.19489 C 108.19353,245.36313 110.13743,248.41637 112.80728,248.55691 C 122.0885,249.0455 131.10495,242.66709 140.30833,243.9623 C 141.90368,244.18682 141.51652,246.94936 142.12062,248.44288 L 145.78644,245.77119 C 124.5764,251.86776 132.19962,244.46799 116.49611,245.87792 C 105.42249,246.87216 95.122889,252.72684 83.768391,252.31376 C 73.383983,243.92004 70.166499,248.5254 57.425912,248.70775 C 50.490015,248.80701 44.209148,242.88674 36.675094,248.42782 C 30.897475,245.25368 18.122688,251.20633 25.906043,246.65353 L 31.664737,242.46959 z " />
    <path
       style="opacity:1;color:black;fill:black;fill-opacity:1;fill-rule:nonzero;stroke:none;stroke-width:0.001;stroke-linecap:butt;stroke-linejoin:miter;marker:none;marker-start:none;marker-mid:none;marker-end:none;stroke-miterlimit:4;stroke-dasharray:none;stroke-dashoffset:0;stroke-opacity:1;visibility:visible;display:inline;overflow:visible"
       id="path3097"
       d="M 192.52817,223.59676 C 188.15261,228.45875 207.5115,210.21411 195.21244,222.65528 C 198.35851,222.40414 190.425,227.61486 199.11154,221.73791 C 194.10473,225.75668 202.54371,221.27263 202.60968,221.24631 C 200.25781,224.29992 201.83182,222.31942 205.36557,220.51945 C 206.06209,220.16466 203.54666,221.49636 203.714,222.3727 C 203.86306,223.15326 204.90826,221.62528 205.50538,221.25157 C 211.41265,217.54418 200.38901,225.56704 201.39426,225.98732 C 202.32395,226.376 208.61942,219.60814 204.99352,224.71223 C 204.89568,225.45613 217.06992,216.65707 215.83801,218.26072 C 212.50159,222.60394 201.44036,230.45738 212.65376,222.19602 C 217.85105,218.58955 214.47247,223.14009 214.08755,223.69567 C 215.32794,223.60311 222.9395,217.85898 215.52089,225.26341 C 220.43982,221.87349 221.77992,221.85403 218.81697,225.0537 C 223.75923,222.49072 228.5783,216.77755 223.35675,223.62264 C 227.07101,222.38848 230.9728,215.89113 222.45035,225.68839 C 220.66588,227.73978 226.83107,222.89016 228.92737,221.30639 C 226.68425,226.39742 241.69724,211.66652 229.96409,222.93145 C 231.87809,222.21852 230.42413,223.81055 232.77531,222.97446 C 231.95425,224.30139 238.54847,218.22999 237.38159,219.8139 C 236.24875,221.35162 234.70204,222.37976 233.36227,223.66268 C 232.37839,224.65108 229.2669,227.33449 230.41062,226.62788 C 235.05628,223.7577 239.47169,218.57002 235.27526,223.30445 C 245.996,215.06187 231.25337,227.52845 240.02849,221.6871 C 240.50499,221.42049 241.82005,220.43355 241.45799,220.88727 C 231.45179,233.42651 245.69338,217.88018 240.58037,223.64041 C 251.80288,216.93466 233.95385,227.95738 246.91046,220.69069 C 251.45684,217.60606 243.87323,223.00518 244.84759,223.27844 C 250.81203,224.95116 242.39567,225.85567 246.57097,223.49086 C 250.59304,220.73023 249.06178,222.82228 250.63606,222.48745 C 261.44755,214.19949 247.56807,226.22655 254.02628,222.21761 C 251.59283,226.86348 261.74102,215.65222 255.65555,223.89966 C 256.28877,224.39277 262.24129,220.37626 261.29648,221.66646 C 271.46905,215.00831 252.65935,228.36668 262.13509,223.42824 C 267.03097,221.78032 257.40998,228.07269 264.72529,223.67099 C 266.22708,224.5224 269.39888,221.97985 272.47596,219.85792 C 259.4054,232.75246 280.152,215.26358 272.45015,223.28839 C 264.86542,228.05822 278.22672,218.62361 277.30341,220.45887 C 276.27037,222.51223 273.78733,223.03366 272.59118,224.95866 C 269.18062,230.44742 281.41567,216.3718 274.44673,224.24262 C 282.41638,219.97283 274.39397,225.66716 281.69307,221.25191 C 279.86063,223.54421 280.86853,224.2332 282.84299,222.85448 C 284.43288,224.86263 291.95332,214.90183 283.83771,224.49719 C 283.32024,225.93637 288.68418,221.63272 290.91688,220.90671 C 289.52658,223.95573 283.44611,226.73671 295.64329,219.33372 L 287.18879,226.61361 C 289.64109,223.46208 284.097,227.94592 283.26214,227.49797 C 275.64198,232.80809 284.65442,225.69159 283.50871,226.02425 C 281.90472,226.48999 278.52744,230.68604 279.18487,228.89062 C 279.3847,228.34494 279.88087,228.0333 280.22887,227.60464 C 279.56069,227.99953 274.49748,229.77402 280.84778,224.57249 C 275.95709,228.08879 270.6053,231.26656 278.32523,224.15186 C 275.75577,225.83322 260.9767,235.46271 268.96424,228.96342 C 272.47027,224.90724 270.07792,226.92709 268.08848,227.04407 C 269.04374,222.08018 261.56741,231.68791 264.68596,226.56564 C 269.11532,220.54956 257.03239,232.22537 261.81638,226.17575 C 257.24362,229.00662 262.26711,226.11743 262.17852,225.00621 C 261.97242,222.42097 261.66223,226.3506 256.60942,229.01592 C 256.20075,229.23149 258.27792,227.70767 257.26074,227.62539 C 262.65112,219.76519 242.76481,239.7414 257.8097,224.6688 C 256.33148,225.79988 254.46621,229.69793 253.37503,228.06203 C 252.28869,226.43338 256.24184,225.63039 257.44357,224.11989 C 257.44777,224.11463 244.11346,236.01518 252.97177,226.21057 C 243.42862,232.74314 265.90822,214.99318 247.48841,227.84717 C 253.72141,221.10364 243.22277,230.32506 242.58866,229.4168 C 244.05706,227.62885 249.10805,223.35604 247.13232,224.2177 C 226.73961,233.1114 250.67827,225.68512 242.36163,227.11539 C 242.16011,227.15173 238.34206,229.02438 239.72108,226.88123 C 238.68312,227.36671 232.20391,229.28805 239.29234,224.74948 C 236.58525,226.77783 230.78236,229.87529 238.62333,222.89704 C 220.07699,236.51 241.71655,220.19442 230.01436,227.83444 C 229.27576,228.16185 228.42031,227.90438 227.6666,228.17917 C 226.81167,228.49087 224.7106,230.52332 225.34734,229.77879 C 226.84386,228.02893 228.63636,226.6745 230.28086,225.12235 C 226.76182,227.55441 225.06046,227.78818 223.73936,228.29137 C 228.44008,222.85791 224.47926,227.03824 220.998,228.13411 C 221.71213,227.38985 224.09003,225.84138 223.1404,225.90131 C 221.39628,226.01138 217.07234,230.66623 217.9023,228.3193 C 222.69635,223.01451 217.80227,227.94709 217.60535,226.95557 C 217.42564,226.05073 221.95324,223.44752 217.11254,226.52134 C 211.33468,229.24139 220.17127,223.23075 214.14322,227.36854 C 213.23402,227.99264 210.6921,230.15282 211.42567,229.26132 C 213.00987,227.33603 214.96681,225.89768 216.73737,224.21586 C 204.35471,230.54091 220.38495,220.93492 208.68302,228.34984 C 212.3888,222.65269 204.98315,230.82793 207.39351,226.7063 C 206.41667,226.44181 197.24853,232.20151 204.00375,225.54631 C 207.34619,220.53324 196.11779,230.84479 201.38599,224.79864 C 195.92255,228.61474 201.60627,223.16935 195.42169,227.43566 C 200.48509,222.25993 197.82142,224.88826 194.91689,225.34978 C 194.62075,225.52002 187.7768,230.21757 190.56589,226.65627 C 188.39948,227.62225 182.14034,232.28331 189.81542,225.93262 L 192.52817,223.59676 z " />
    <path
       style="opacity:1;color:black;fill:black;fill-opacity:1;fill-rule:nonzero;stroke:none;stroke-width:0.001;stroke-linecap:butt;stroke-linejoin:miter;marker:none;marker-start:none;marker-mid:none;marker-end:none;stroke-miterlimit:4;stroke-dasharray:none;stroke-dashoffset:0;stroke-opacity:1;visibility:visible;display:inline;overflow:visible"
       id="path3103"
       d="M 189.88447,233.46699 C 196.70613,228.74978 182.77103,240.35334 196.08831,232.20329 C 195.08548,233.55513 191.70819,235.4858 193.0798,236.2588 C 195.96607,237.8854 198.72476,231.8126 201.92046,231.86086 C 207.48797,231.94494 184.63696,245.25059 206.91259,232.83463 C 208.61736,232.08359 210.21487,230.76655 212.02689,230.58153 C 213.42604,230.43866 214.48338,232.66559 215.88605,232.58452 C 219.40786,232.38096 222.77851,229.4306 226.25683,230.1154 C 227.06533,230.27457 226.52219,232.03244 226.65487,232.99096 C 234.77589,235.82425 242.78659,231.75265 251.07452,230.34679 C 246.24599,240.60091 256.55896,232.90105 260.59919,231.44933 C 263.10793,231.27864 264.22274,232.23254 267.10433,231.74056 C 269.48927,236.15415 272.46192,228.15712 275.82416,231.55883 C 292.98922,223.4895 270.96684,237.94034 280.71441,233.02833 C 282.17804,232.82695 287.15487,229.99802 286.83196,230.64197 C 286.20607,231.89014 283.12397,234.08112 284.33122,233.83408 C 287.62616,233.15981 293.3526,225.93878 287.15922,233.18103 C 312.68339,217.43195 271.69961,241.04669 294.61117,230.22566 C 295.50567,229.62157 296.40016,229.01747 297.29465,228.41338 L 289.06527,235.4994 C 288.51288,235.8089 287.9605,236.1184 287.40811,236.42791 C 292.08741,230.9485 285.83632,238.54968 284.22278,238.10928 C 274.33617,235.41082 294.30023,232.69001 286.05764,234.12944 C 278.80224,237.40235 285.74229,232.23291 278.26901,236.95481 C 276.80844,237.87766 274.54085,241.58907 273.91086,239.77508 C 273.24338,237.85315 276.49176,236.96043 277.78221,235.5531 C 263.79771,243.34286 286.80207,224.58875 269.09652,237.38758 C 274.19728,228.73178 271.81446,236.60638 265.23346,237.20097 C 263.60089,237.34847 268.6676,234.90193 268.60106,232.96305 C 268.48461,229.56946 259.99198,241.59561 260.81398,237.28118 C 262.73964,230.92252 261.44964,237.87134 256.63294,237.58354 C 254.56475,237.45997 275.68696,219.48022 250.32054,240.5262 C 252.08601,238.67787 255.57428,237.77257 255.61695,234.9812 C 255.65352,232.5889 252.36759,238.41124 250.35109,238.52752 C 249.10958,238.59911 252.78599,233.91983 251.60077,234.36368 C 244.2103,237.13131 245.17665,241.29185 244.69441,235.84042 C 241.27583,235.4415 238.30312,234.60781 234.84528,235.63527 C 229.94701,237.09073 225.34791,243.27763 220.52627,241.49872 C 218.99711,240.93455 221.96257,238.10562 222.68072,236.40907 C 219.88083,236.83108 213.13213,235.90702 211.68914,236.18625 C 209.2096,236.66607 205.99784,241.89193 204.64994,239.37917 C 202.29274,234.9849 219.22972,227.92683 203.9838,235.33877 C 201.94332,229.61238 183.00117,248.20768 193.3683,234.54542 C 179.87497,243.40437 189.81614,235.1596 187.02769,235.92688 L 189.88447,233.46699 z " />
    <path
       style="opacity:1;color:black;fill:black;fill-opacity:1;fill-rule:nonzero;stroke:none;stroke-width:0.001;stroke-linecap:butt;stroke-linejoin:miter;marker:none;marker-start:none;marker-mid:none;marker-end:none;stroke-miterlimit:4;stroke-dasharray:none;stroke-dashoffset:0;stroke-opacity:1;visibility:visible;display:inline;overflow:visible"
       id="path3109"
       d="M 187.35536,243.28691 C 188.25106,242.61943 190.78892,239.66546 191.90877,244.22882 C 205.27938,240.54381 218.94185,243.50253 232.62245,241.8423 C 240.47065,253.63573 227.49636,236.79559 247.29238,242.1555 C 255.94788,244.49904 237.44648,252.67833 250.11426,251.45509 C 262.46448,246.95933 256.78484,248.01517 267.00056,247.21537 C 268.99132,259.86113 282.43348,239.49258 295.08406,248.75213 L 293.54516,250.132 C 290.97932,250.48075 288.80786,251.46793 286.46762,249.49263 C 285.67583,248.82431 285.67091,246.55722 284.71696,246.66887 C 277.1724,247.55183 270.97266,254.72208 263.01401,250.75921 C 260.26303,249.84277 257.80256,247.72132 255.00184,247.07616 C 244.27926,244.60613 234.08508,257.42285 223.73963,249.76064 C 221.07167,249.82316 218.38795,249.58426 215.73574,249.94821 C 212.25631,250.42566 207.95724,255.24201 205.40325,252.27682 C 203.25642,249.78433 211.31388,245.09152 209.28199,242.45537 C 206.82261,239.26459 191.77808,250.0206 187.41615,248.15971 C 185.00622,245.80978 190.12788,241.66202 183.96712,246.33569 L 187.35536,243.28691 z " />
    <path
       style="opacity:1;color:black;fill:black;fill-opacity:1;fill-rule:nonzero;stroke:none;stroke-width:0.001;stroke-linecap:butt;stroke-linejoin:miter;marker:none;marker-start:none;marker-mid:none;marker-end:none;stroke-miterlimit:4;stroke-dasharray:none;stroke-dashoffset:0;stroke-opacity:1;visibility:visible;display:inline;overflow:visible"
       id="path3175"
       d="M 111.58625,9.663341 C 112.41122,9.694687 113.23688,9.713086 114.06218,9.736072 C 119.6139,9.939511 125.16992,9.979102 130.72468,10.020987 C 138.46385,10.059115 146.20307,9.99769 153.94215,9.963965 C 159.33751,9.827945 164.72957,10.018519 170.12178,10.176291 C 173.59682,10.28779 177.07361,10.275627 180.54977,10.258149 C 182.10112,10.236559 183.65257,10.227781 185.20401,10.215376 C 186.54891,10.217339 187.89389,10.221171 189.23886,10.221453 C 190.57625,10.228095 191.91366,10.217031 193.25103,10.209946 C 194.18851,10.327174 195.11407,10.120537 196.00284,10.021655 L 190.16623,14.463457 C 189.22119,14.49306 188.27441,14.551881 187.32651,14.514369 C 185.99953,14.507295 184.67251,14.496177 183.34551,14.503459 C 181.993,14.504787 180.6405,14.509074 179.28807,14.514362 C 177.78053,14.503034 176.27281,14.499843 174.7658,14.452952 C 171.38172,14.365337 167.99832,14.255082 164.61472,14.150432 C 159.31662,13.964777 154.0203,13.708743 148.71681,13.760399 C 141.03005,13.726495 133.34316,13.664942 125.6563,13.703377 C 119.84011,13.746342 114.02297,13.791477 108.2095,13.988292 C 107.31746,14.011644 106.42513,14.030027 105.53336,14.061023 L 111.58625,9.663341 z " />
  </g>
</svg>
